{
"type": "FeatureCollection",
"name": "AT-08_micro-regions",
"crs": { "type": "name", "properties": { "name": "urn:ogc:def:crs:OGC:1.3:CRS84" } },
"features": [
{ "type": "Feature", "properties": { "id": "AT-08-01", "start_date": null, "end_date": "2022-10-01" }, "geometry": { "type": "MultiPolygon", "coordinates": [ [ [ [ 9.7399449, 47.5104317 ], [ 9.7338813, 47.5094657 ], [ 9.730912, 47.5092568 ], [ 9.7275283, 47.5092767 ], [ 9.716091, 47.5101196 ], [ 9.7119361, 47.5102635 ], [ 9.7079445, 47.5100529 ], [ 9.7045057, 47.5094211 ], [ 9.7008368, 47.5082997 ], [ 9.6992039, 47.5074835 ], [ 9.69759, 47.5058815 ], [ 9.6968085, 47.5032128 ], [ 9.6966458, 47.5029913 ], [ 9.6961272, 47.5022853 ], [ 9.6948316, 47.5015349 ], [ 9.6913941, 47.5003038 ], [ 9.690057, 47.4996535 ], [ 9.6887384, 47.4986698 ], [ 9.685888, 47.49602 ], [ 9.6841742, 47.4949768 ], [ 9.6810037, 47.4942003 ], [ 9.6796884, 47.4940851 ], [ 9.6791613, 47.4941299 ], [ 9.6786819, 47.4941706 ], [ 9.6776882, 47.4947978 ], [ 9.6762586, 47.4972608 ], [ 9.6753743, 47.4980356 ], [ 9.674415, 47.4982834 ], [ 9.6731429, 47.4983748 ], [ 9.6712263, 47.4981877 ], [ 9.6700426, 47.4980721 ], [ 9.6676591, 47.4973902 ], [ 9.6655684, 47.4963187 ], [ 9.6647247, 47.495372 ], [ 9.6636955, 47.4928108 ], [ 9.6629794, 47.4918221 ], [ 9.6609544, 47.4906938 ], [ 9.6588362, 47.4901446 ], [ 9.6571581, 47.49006 ], [ 9.6552252, 47.490192 ], [ 9.6503755, 47.4911287 ], [ 9.646939, 47.4922162 ], [ 9.6458772, 47.4927936 ], [ 9.644957, 47.4935511 ], [ 9.6435145, 47.4956006 ], [ 9.6429362, 47.4978333 ], [ 9.6432686, 47.4990577 ], [ 9.6449011, 47.5021381 ], [ 9.6454058, 47.504295 ], [ 9.6454159, 47.5051459 ], [ 9.6450687, 47.505774 ], [ 9.6441022, 47.5064201 ], [ 9.6432323, 47.5066955 ], [ 9.6420874, 47.5067414 ], [ 9.6385298, 47.5062173 ], [ 9.6361751, 47.505339 ], [ 9.6352169, 47.5044565 ], [ 9.6334988, 47.5020125 ], [ 9.6310364, 47.4997424 ], [ 9.6276688, 47.4972367 ], [ 9.6241725, 47.4952611 ], [ 9.6209119, 47.493852 ], [ 9.6173059, 47.4926268 ], [ 9.6134381, 47.4916139 ], [ 9.6094161, 47.4908417 ], [ 9.6039728, 47.4902216 ], [ 9.5985701, 47.4900979 ], [ 9.5929399, 47.4904423 ], [ 9.5878945, 47.4912395 ], [ 9.5849637, 47.4920142 ], [ 9.5827905, 47.4929464 ], [ 9.580706, 47.4941918 ], [ 9.5756597, 47.497677 ], [ 9.5726417, 47.4991876 ], [ 9.5688713, 47.5003418 ], [ 9.5658989, 47.5010392 ], [ 9.5633353, 47.5013682 ], [ 9.5616295, 47.501351 ], [ 9.5640858, 47.493937 ], [ 9.5831151, 47.4819661 ], [ 9.596628, 47.4626262 ], [ 9.6037118, 47.4625367 ], [ 9.6073565, 47.4704031 ], [ 9.6229731, 47.4573874 ], [ 9.6532469, 47.4545494 ], [ 9.6612943, 47.4503451 ], [ 9.6546609, 47.4457151 ], [ 9.6493068, 47.4408953 ], [ 9.6471434, 47.4386807 ], [ 9.6461267, 47.436646 ], [ 9.6456758, 47.4340575 ], [ 9.6461509, 47.4302834 ], [ 9.6474768, 47.4263937 ], [ 9.6500184, 47.4201838 ], [ 9.6511383, 47.4147145 ], [ 9.6515676, 47.4100809 ], [ 9.651801, 47.4059538 ], [ 9.6590904, 47.3988714 ], [ 9.6737475, 47.3912405 ], [ 9.6739938, 47.383918 ], [ 9.6706574, 47.3778747 ], [ 9.659598, 47.3697868 ], [ 9.6498047, 47.367426 ], [ 9.6244012, 47.3662457 ], [ 9.6193721, 47.3622117 ], [ 9.6139564, 47.3582647 ], [ 9.6077101, 47.3535923 ], [ 9.6029392, 47.3491464 ], [ 9.6001429, 47.3453012 ], [ 9.5982838, 47.341844 ], [ 9.5965336, 47.3377991 ], [ 9.5943113, 47.3311079 ], [ 9.5929251, 47.3259382 ], [ 9.5916043, 47.3223198 ], [ 9.5902162, 47.3196525 ], [ 9.5886105, 47.3179144 ], [ 9.5870926, 47.3167495 ], [ 9.5842684, 47.3145712 ], [ 9.5759575, 47.3094714 ], [ 9.567465, 47.3044841 ], [ 9.5600506, 47.3003659 ], [ 9.5568788, 47.2981754 ], [ 9.5554154, 47.2969603 ], [ 9.554029, 47.2951613 ], [ 9.5528012, 47.2927371 ], [ 9.5508511, 47.2869521 ], [ 9.548748, 47.2833071 ], [ 9.5457076, 47.2805248 ], [ 9.5417813, 47.2778916 ], [ 9.5368861, 47.2753452 ], [ 9.5338572, 47.2736354 ], [ 9.532362, 47.272513 ], [ 9.5317849, 47.2720171 ], [ 9.5307861, 47.2706602 ], [ 9.5673678, 47.2412918 ], [ 9.5516453, 47.2237532 ], [ 9.5585577, 47.2241692 ], [ 9.5603991, 47.223344 ], [ 9.5692159, 47.2193925 ], [ 9.5847254, 47.2046862 ], [ 9.5848637, 47.204555 ], [ 9.5912674, 47.2064085 ], [ 9.5956407, 47.2084817 ], [ 9.5992534, 47.2105548 ], [ 9.6022957, 47.2134052 ], [ 9.6047676, 47.2165146 ], [ 9.6074296, 47.2206601 ], [ 9.6102818, 47.2245463 ], [ 9.612399, 47.2276559 ], [ 9.6138265, 47.2273896 ], [ 9.6161981, 47.2269472 ], [ 9.6217572, 47.2255078 ], [ 9.626292, 47.2247022 ], [ 9.6311989, 47.2245758 ], [ 9.6356669, 47.2247209 ], [ 9.6388983, 47.2245398 ], [ 9.6427279, 47.223806 ], [ 9.6471691, 47.2223291 ], [ 9.6518224, 47.2198103 ], [ 9.6575452, 47.2159912 ], [ 9.6626824, 47.2125342 ], [ 9.6659939, 47.20996 ], [ 9.6690411, 47.2075911 ], [ 9.67708, 47.2026063 ], [ 9.6819962, 47.2002854 ], [ 9.6900085, 47.1976822 ], [ 9.6948714, 47.1961218 ], [ 9.7022263, 47.1949267 ], [ 9.707335, 47.1938503 ], [ 9.7121839, 47.1924793 ], [ 9.7153777, 47.1908057 ], [ 9.7197719, 47.1878587 ], [ 9.7247303, 47.1848701 ], [ 9.7272892, 47.1839385 ], [ 9.7290158, 47.18331 ], [ 9.7307525, 47.1826777 ], [ 9.7344836, 47.1812705 ], [ 9.734735, 47.1812221 ], [ 9.7383089, 47.1805334 ], [ 9.7426727, 47.1800992 ], [ 9.750988, 47.1791221 ], [ 9.7625825, 47.1771986 ], [ 9.7672569, 47.1762966 ], [ 9.7736564, 47.1746858 ], [ 9.7750841, 47.1741551 ], [ 9.7738054, 47.1933195 ], [ 9.7854042, 47.2034281 ], [ 9.8040383, 47.2121096 ], [ 9.8283767, 47.2157373 ], [ 9.8477713, 47.2214374 ], [ 9.861842, 47.2215669 ], [ 9.8852297, 47.2281731 ], [ 9.902913, 47.2363325 ], [ 9.9194555, 47.2378865 ], [ 9.9177443, 47.2509644 ], [ 9.9061455, 47.2658511 ], [ 9.9053849, 47.2812512 ], [ 9.9268712, 47.2877205 ], [ 9.9405615, 47.2957413 ], [ 9.9527307, 47.3097101 ], [ 9.9762076, 47.3238658 ], [ 9.9763435, 47.3237321 ], [ 9.9772525, 47.3233576 ], [ 9.9793664, 47.3224866 ], [ 9.9806487, 47.3220967 ], [ 9.9917435, 47.3248194 ], [ 10.0021538, 47.3294735 ], [ 10.0157016, 47.3483766 ], [ 10.0117086, 47.3555483 ], [ 10.0184111, 47.363591 ], [ 10.0200373, 47.3742156 ], [ 10.037205, 47.3802509 ], [ 10.042777, 47.3855695 ], [ 10.0494031, 47.3909899 ], [ 10.047596, 47.396512 ], [ 10.0393133, 47.4031581 ], [ 10.0341931, 47.4131769 ], [ 10.0233504, 47.4244201 ], [ 10.0180796, 47.432289 ], [ 10.004225, 47.433413 ], [ 9.988434, 47.4365086 ], [ 9.9722991, 47.442813 ], [ 9.9617575, 47.449964 ], [ 9.9503618, 47.4507662 ], [ 9.9332488, 47.447058 ], [ 9.9225533, 47.4402053 ], [ 9.9055592, 47.4399634 ], [ 9.8889854, 47.4432743 ], [ 9.8891373, 47.444189 ], [ 9.8890751, 47.4451403 ], [ 9.8888471, 47.4456598 ], [ 9.8888226, 47.4457156 ], [ 9.8882494, 47.4470218 ], [ 9.8874797, 47.4480471 ], [ 9.886978, 47.4492711 ], [ 9.886897, 47.4505078 ], [ 9.8871152, 47.4514675 ], [ 9.8872898, 47.4530932 ], [ 9.8872931, 47.4551903 ], [ 9.8865825, 47.4574565 ], [ 9.8854885, 47.4591392 ], [ 9.8838847, 47.4598179 ], [ 9.8831756, 47.460118 ], [ 9.8814611, 47.4605429 ], [ 9.8782099, 47.460826 ], [ 9.8768982, 47.460963 ], [ 9.8746718, 47.4611957 ], [ 9.8722559, 47.4615992 ], [ 9.870376, 47.4624002 ], [ 9.8685925, 47.4638713 ], [ 9.8670894, 47.4653508 ], [ 9.865555, 47.467306 ], [ 9.8638675, 47.4694472 ], [ 9.8612418, 47.4708927 ], [ 9.8589279, 47.4718709 ], [ 9.8564925, 47.4725595 ], [ 9.8538016, 47.472859 ], [ 9.8516656, 47.4732706 ], [ 9.8500782, 47.4738895 ], [ 9.8492804, 47.474384 ], [ 9.8486122, 47.4747981 ], [ 9.8479879, 47.4757323 ], [ 9.847154, 47.4777086 ], [ 9.8460015, 47.4802471 ], [ 9.8450019, 47.4825996 ], [ 9.8441361, 47.4850515 ], [ 9.8430023, 47.4873046 ], [ 9.8421161, 47.4879448 ], [ 9.8417567, 47.4881111 ], [ 9.8400873, 47.4888836 ], [ 9.8377731, 47.489814 ], [ 9.835879, 47.4908046 ], [ 9.8335638, 47.4917824 ], [ 9.8307, 47.4930769 ], [ 9.8284276, 47.4939368 ], [ 9.8269839, 47.4942145 ], [ 9.8265043, 47.4943068 ], [ 9.8246094, 47.4942487 ], [ 9.8222026, 47.4939605 ], [ 9.8186712, 47.4931372 ], [ 9.8136949, 47.4918405 ], [ 9.8100729, 47.4907997 ], [ 9.8059582, 47.4892431 ], [ 9.8016477, 47.4874659 ], [ 9.7987105, 47.4856595 ], [ 9.7965005, 47.4840184 ], [ 9.7936593, 47.4823578 ], [ 9.788948, 47.4802817 ], [ 9.7846243, 47.4787179 ], [ 9.779239, 47.4772639 ], [ 9.7748869, 47.4761278 ], [ 9.7709075, 47.475718 ], [ 9.7689082, 47.4756557 ], [ 9.7669996, 47.4758107 ], [ 9.7667641, 47.4758606 ], [ 9.7646459, 47.4763093 ], [ 9.7617273, 47.4773621 ], [ 9.7575879, 47.4793062 ], [ 9.7530224, 47.4813082 ], [ 9.7475661, 47.4839972 ], [ 9.7416365, 47.4858846 ], [ 9.7370999, 47.4868011 ], [ 9.7399449, 47.5104317 ] ] ] ] } },
{ "type": "Feature", "properties": { "id": "AT-08-02", "start_date": null, "end_date": "2022-10-01" }, "geometry": { "type": "MultiPolygon", "coordinates": [ [ [ [ 9.8000369, 47.596298 ], [ 9.7906895, 47.5937174 ], [ 9.7767622, 47.5955483 ], [ 9.7563967, 47.5794283 ], [ 9.7558348, 47.572545 ], [ 9.7478666, 47.5707954 ], [ 9.7472611, 47.5560417 ], [ 9.7418564, 47.5546106 ], [ 9.7359777, 47.547293 ], [ 9.7352736, 47.5461006 ], [ 9.736718, 47.5404265 ], [ 9.7362925, 47.5363618 ], [ 9.7353856, 47.5341886 ], [ 9.7353813, 47.534188 ], [ 9.7361475, 47.5318766 ], [ 9.7373094, 47.5304761 ], [ 9.7377027, 47.5300022 ], [ 9.7404075, 47.5281034 ], [ 9.7414613, 47.5275257 ], [ 9.7477542, 47.5240759 ], [ 9.749311, 47.5229724 ], [ 9.7504755, 47.5218838 ], [ 9.7524529, 47.5190142 ], [ 9.7533301, 47.5173422 ], [ 9.7535423, 47.5160396 ], [ 9.7530457, 47.5150471 ], [ 9.7519898, 47.5142365 ], [ 9.7504504, 47.5134979 ], [ 9.7503185, 47.5134347 ], [ 9.74392, 47.5113555 ], [ 9.7399449, 47.5104317 ], [ 9.7370999, 47.4868011 ], [ 9.7416365, 47.4858846 ], [ 9.7475661, 47.4839972 ], [ 9.7530224, 47.4813082 ], [ 9.7575879, 47.4793062 ], [ 9.7617273, 47.4773621 ], [ 9.7646459, 47.4763093 ], [ 9.7667641, 47.4758606 ], [ 9.7669996, 47.4758107 ], [ 9.7689082, 47.4756557 ], [ 9.7709075, 47.475718 ], [ 9.7748869, 47.4761278 ], [ 9.779239, 47.4772639 ], [ 9.7846243, 47.4787179 ], [ 9.788948, 47.4802817 ], [ 9.7936593, 47.4823578 ], [ 9.7965005, 47.4840184 ], [ 9.7987105, 47.4856595 ], [ 9.8016477, 47.4874659 ], [ 9.8059582, 47.4892431 ], [ 9.8100729, 47.4907997 ], [ 9.8136949, 47.4918405 ], [ 9.8186712, 47.4931372 ], [ 9.8222026, 47.4939605 ], [ 9.8246094, 47.4942487 ], [ 9.8265043, 47.4943068 ], [ 9.8269839, 47.4942145 ], [ 9.8284276, 47.4939368 ], [ 9.8307, 47.4930769 ], [ 9.8335638, 47.4917824 ], [ 9.835879, 47.4908046 ], [ 9.8377731, 47.489814 ], [ 9.8400873, 47.4888836 ], [ 9.8417567, 47.4881111 ], [ 9.8421161, 47.4879448 ], [ 9.8430023, 47.4873046 ], [ 9.8441361, 47.4850515 ], [ 9.8450019, 47.4825996 ], [ 9.8460015, 47.4802471 ], [ 9.847154, 47.4777086 ], [ 9.8479879, 47.4757323 ], [ 9.8486122, 47.4747981 ], [ 9.8492804, 47.474384 ], [ 9.8500782, 47.4738895 ], [ 9.8516656, 47.4732706 ], [ 9.8538016, 47.472859 ], [ 9.8564925, 47.4725595 ], [ 9.8589279, 47.4718709 ], [ 9.8612418, 47.4708927 ], [ 9.8638675, 47.4694472 ], [ 9.865555, 47.467306 ], [ 9.8670894, 47.4653508 ], [ 9.8685925, 47.4638713 ], [ 9.870376, 47.4624002 ], [ 9.8722559, 47.4615992 ], [ 9.8746718, 47.4611957 ], [ 9.8768982, 47.460963 ], [ 9.8782099, 47.460826 ], [ 9.8814611, 47.4605429 ], [ 9.8831756, 47.460118 ], [ 9.8838847, 47.4598179 ], [ 9.8854885, 47.4591392 ], [ 9.8865825, 47.4574565 ], [ 9.8872931, 47.4551903 ], [ 9.8872898, 47.4530932 ], [ 9.8871152, 47.4514675 ], [ 9.886897, 47.4505078 ], [ 9.886978, 47.4492711 ], [ 9.8874797, 47.4480471 ], [ 9.8882494, 47.4470218 ], [ 9.8888226, 47.4457156 ], [ 9.8888471, 47.4456598 ], [ 9.8890751, 47.4451403 ], [ 9.8891373, 47.444189 ], [ 9.8889854, 47.4432743 ], [ 9.9055592, 47.4399634 ], [ 9.9225533, 47.4402053 ], [ 9.9332488, 47.447058 ], [ 9.9503618, 47.4507662 ], [ 9.9617575, 47.449964 ], [ 9.9722991, 47.442813 ], [ 9.988434, 47.4365086 ], [ 10.004225, 47.433413 ], [ 10.0180796, 47.432289 ], [ 10.0233504, 47.4244201 ], [ 10.0341931, 47.4131769 ], [ 10.0393133, 47.4031581 ], [ 10.047596, 47.396512 ], [ 10.0494031, 47.3909899 ], [ 10.042777, 47.3855695 ], [ 10.037205, 47.3802509 ], [ 10.0200373, 47.3742156 ], [ 10.0184111, 47.363591 ], [ 10.0117086, 47.3555483 ], [ 10.0157016, 47.3483766 ], [ 10.0021538, 47.3294735 ], [ 9.9917435, 47.3248194 ], [ 9.9806487, 47.3220967 ], [ 9.9842261, 47.321009 ], [ 9.9910924, 47.3188275 ], [ 9.9988397, 47.3160041 ], [ 10.0071696, 47.312816 ], [ 10.013814, 47.3096736 ], [ 10.0192729, 47.3075448 ], [ 10.0244516, 47.3054077 ], [ 10.0300019, 47.3040436 ], [ 10.0343853, 47.3034079 ], [ 10.0356704, 47.3028774 ], [ 10.0365428, 47.3025172 ], [ 10.0386137, 47.3007661 ], [ 10.0408977, 47.2984569 ], [ 10.041455, 47.2978935 ], [ 10.0442272, 47.2938751 ], [ 10.0456162, 47.2918183 ], [ 10.0461542, 47.2899276 ], [ 10.0461032, 47.2884965 ], [ 10.0459006, 47.2872516 ], [ 10.0465428, 47.2859357 ], [ 10.0490263, 47.2842917 ], [ 10.0527975, 47.2822081 ], [ 10.0571217, 47.2802356 ], [ 10.0599196, 47.2780285 ], [ 10.0621993, 47.2751393 ], [ 10.0632031, 47.2724995 ], [ 10.0649998, 47.2683573 ], [ 10.0669758, 47.2658406 ], [ 10.0693355, 47.2639067 ], [ 10.0733547, 47.2623061 ], [ 10.078602, 47.2612171 ], [ 10.082865, 47.260195 ], [ 10.0868718, 47.2587843 ], [ 10.0889185, 47.2575833 ], [ 10.0952767, 47.2578711 ], [ 10.110108, 47.2669966 ], [ 10.1239409, 47.267579 ], [ 10.1346365, 47.2695204 ], [ 10.1541738, 47.2681614 ], [ 10.1637285, 47.2678702 ], [ 10.1745525, 47.2638151 ], [ 10.1788146, 47.2702072 ], [ 10.1761671, 47.2702675 ], [ 10.1743477, 47.2703089 ], [ 10.1725622, 47.2793282 ], [ 10.1797821, 47.2962033 ], [ 10.1898361, 47.2940576 ], [ 10.208704, 47.3044062 ], [ 10.2123915, 47.3108682 ], [ 10.2165452, 47.3103779 ], [ 10.2111155, 47.3191331 ], [ 10.1994568, 47.3264682 ], [ 10.2078155, 47.3327201 ], [ 10.2043789, 47.3367009 ], [ 10.210793, 47.3434973 ], [ 10.2174998, 47.3506029 ], [ 10.2165518, 47.3542986 ], [ 10.2248278, 47.3588583 ], [ 10.2370706, 47.3737735 ], [ 10.2316846, 47.3789585 ], [ 10.2363006, 47.3818409 ], [ 10.2272009, 47.3892259 ], [ 10.212679, 47.3803786 ], [ 10.2000649, 47.3832788 ], [ 10.1952812, 47.3893443 ], [ 10.181842, 47.392439 ], [ 10.1824907, 47.3880056 ], [ 10.1694783, 47.3857927 ], [ 10.1692613, 47.3706545 ], [ 10.1657727, 47.3685717 ], [ 10.1418944, 47.3669957 ], [ 10.1347956, 47.3696919 ], [ 10.1195253, 47.3754913 ], [ 10.0998225, 47.3547471 ], [ 10.0978158, 47.3594381 ], [ 10.0922767, 47.372713 ], [ 10.0834212, 47.3939283 ], [ 10.0852872, 47.3998417 ], [ 10.0690246, 47.4093392 ], [ 10.074774, 47.414866 ], [ 10.0951544, 47.4177258 ], [ 10.1044556, 47.4301573 ], [ 10.0934264, 47.4419533 ], [ 10.0913351, 47.4583186 ], [ 10.0884359, 47.4600755 ], [ 10.0702362, 47.4555285 ], [ 10.064532, 47.4636278 ], [ 10.0539987, 47.4665256 ], [ 10.047205, 47.4863055 ], [ 10.0369601, 47.4888606 ], [ 10.0108642, 47.4815132 ], [ 9.9993526, 47.482829 ], [ 9.987786, 47.4984086 ], [ 9.995402, 47.5028299 ], [ 9.9655937, 47.5231005 ], [ 9.9682878, 47.5252139 ], [ 9.966927, 47.5348823 ], [ 9.9696309, 47.5421101 ], [ 9.9682057, 47.5464401 ], [ 9.9590086, 47.543352 ], [ 9.956895, 47.5376848 ], [ 9.941354, 47.5381749 ], [ 9.9225853, 47.529861 ], [ 9.9145464, 47.5320713 ], [ 9.9068645, 47.5425482 ], [ 9.8809122, 47.5483125 ], [ 9.8756586, 47.5444598 ], [ 9.8784913, 47.5395153 ], [ 9.8744967, 47.5285262 ], [ 9.858472, 47.5339471 ], [ 9.8501655, 47.5417733 ], [ 9.8297487, 47.544599 ], [ 9.8201629, 47.5512078 ], [ 9.8259498, 47.5596387 ], [ 9.8209515, 47.5706884 ], [ 9.8275252, 47.5794601 ], [ 9.8205987, 47.5876768 ], [ 9.8000369, 47.596298 ] ] ] ] } },
{ "type": "Feature", "properties": { "id": "AT-08-03-02", "start_date": "2021-10-01", "end_date": "2022-10-01" }, "geometry": { "type": "MultiPolygon", "coordinates": [ [ [ [ 10.2078854, 47.2564184 ], [ 10.1929794, 47.2597262 ], [ 10.1745525, 47.2638151 ], [ 10.1637285, 47.2678702 ], [ 10.1541738, 47.2681614 ], [ 10.1346365, 47.2695204 ], [ 10.1239409, 47.267579 ], [ 10.110108, 47.2669966 ], [ 10.0952767, 47.2578711 ], [ 10.0889185, 47.2575833 ], [ 10.0868718, 47.2587843 ], [ 10.082865, 47.260195 ], [ 10.078602, 47.2612171 ], [ 10.0733547, 47.2623061 ], [ 10.0693355, 47.2639067 ], [ 10.0669758, 47.2658406 ], [ 10.0649998, 47.2683573 ], [ 10.0632031, 47.2724995 ], [ 10.0621993, 47.2751393 ], [ 10.0599196, 47.2780285 ], [ 10.0571217, 47.2802356 ], [ 10.0527975, 47.2822081 ], [ 10.0490263, 47.2842917 ], [ 10.0465428, 47.2859357 ], [ 10.0459006, 47.2872516 ], [ 10.0461032, 47.2884965 ], [ 10.0461542, 47.2899276 ], [ 10.0456162, 47.2918183 ], [ 10.0442272, 47.2938751 ], [ 10.041455, 47.2978935 ], [ 10.0408977, 47.2984569 ], [ 10.0386137, 47.3007661 ], [ 10.0365428, 47.3025172 ], [ 10.0356704, 47.3028774 ], [ 10.0343853, 47.3034079 ], [ 10.0300019, 47.3040436 ], [ 10.0244516, 47.3054077 ], [ 10.0192729, 47.3075448 ], [ 10.013814, 47.3096736 ], [ 10.0071696, 47.312816 ], [ 9.9988397, 47.3160041 ], [ 9.9910924, 47.3188275 ], [ 9.9842261, 47.321009 ], [ 9.9806487, 47.3220967 ], [ 9.9793664, 47.3224866 ], [ 9.9772525, 47.3233576 ], [ 9.9763435, 47.3237321 ], [ 9.9762076, 47.3238658 ], [ 9.9527307, 47.3097101 ], [ 9.9405615, 47.2957413 ], [ 9.9268712, 47.2877205 ], [ 9.9053849, 47.2812512 ], [ 9.9061455, 47.2658511 ], [ 9.9177443, 47.2509644 ], [ 9.9194555, 47.2378865 ], [ 9.902913, 47.2363325 ], [ 9.8852297, 47.2281731 ], [ 9.861842, 47.2215669 ], [ 9.8477713, 47.2214374 ], [ 9.8283767, 47.2157373 ], [ 9.8040383, 47.2121096 ], [ 9.7854042, 47.2034281 ], [ 9.7738054, 47.1933195 ], [ 9.7750841, 47.1741551 ], [ 9.7827538, 47.1713042 ], [ 9.7831192, 47.1711684 ], [ 9.7877861, 47.1687109 ], [ 9.7897846, 47.1676584 ], [ 9.7983576, 47.1627776 ], [ 9.8060543, 47.1584409 ], [ 9.8113642, 47.1545404 ], [ 9.8134009, 47.1530443 ], [ 9.8201251, 47.1485813 ], [ 9.8267151, 47.1440185 ], [ 9.8316372, 47.1393087 ], [ 9.8340439, 47.1367137 ], [ 9.8351647, 47.1358952 ], [ 9.8366873, 47.1347832 ], [ 9.8453114, 47.1353805 ], [ 9.8554127, 47.1401446 ], [ 9.8778438, 47.1396378 ], [ 9.8947784, 47.1432867 ], [ 9.9219502, 47.1416083 ], [ 9.9892561, 47.1229106 ], [ 10.0061908, 47.1234176 ], [ 10.0396145, 47.1285883 ], [ 10.0860444, 47.1314377 ], [ 10.1184945, 47.13092 ], [ 10.1419654, 47.1362928 ], [ 10.1579715, 47.1369503 ], [ 10.1592558, 47.1387322 ], [ 10.1628701, 47.1427613 ], [ 10.1647027, 47.1471375 ], [ 10.1644482, 47.1499505 ], [ 10.1657208, 47.1516175 ], [ 10.1649573, 47.1565137 ], [ 10.1651609, 47.1601596 ], [ 10.1653645, 47.1631108 ], [ 10.1642955, 47.167034 ], [ 10.162412, 47.1730397 ], [ 10.1620047, 47.1760249 ], [ 10.160783, 47.1803289 ], [ 10.1559978, 47.1849449 ], [ 10.152638, 47.1878947 ], [ 10.1459184, 47.1936204 ], [ 10.142355, 47.1965004 ], [ 10.1416423, 47.1994496 ], [ 10.1409806, 47.2011844 ], [ 10.1420496, 47.2029884 ], [ 10.1408278, 47.2051394 ], [ 10.1416423, 47.2079146 ], [ 10.1421005, 47.210551 ], [ 10.1446458, 47.2121467 ], [ 10.1481583, 47.2137769 ], [ 10.1508054, 47.2163436 ], [ 10.1534525, 47.2203322 ], [ 10.155336, 47.2237309 ], [ 10.1595612, 47.2274762 ], [ 10.1613429, 47.2299035 ], [ 10.166739, 47.2342031 ], [ 10.1703024, 47.2375316 ], [ 10.1724913, 47.2396811 ], [ 10.1750875, 47.2428359 ], [ 10.1766656, 47.2442572 ], [ 10.1771747, 47.2463025 ], [ 10.1793127, 47.248105 ], [ 10.1822653, 47.2494915 ], [ 10.1840979, 47.2498035 ], [ 10.1847088, 47.250878 ], [ 10.1873559, 47.2518139 ], [ 10.1930064, 47.2525764 ], [ 10.199166, 47.2537549 ], [ 10.2037476, 47.2546907 ], [ 10.2064456, 47.2559037 ], [ 10.2078854, 47.2564184 ] ] ] ] } },
{ "type": "Feature", "properties": { "id": "AT-08-04", "start_date": null, "end_date": "2022-10-01" }, "geometry": { "type": "MultiPolygon", "coordinates": [ [ [ [ 9.9219502, 47.1416083 ], [ 9.8947784, 47.1432867 ], [ 9.8778438, 47.1396378 ], [ 9.8554127, 47.1401446 ], [ 9.8453114, 47.1353805 ], [ 9.8366873, 47.1347832 ], [ 9.8370246, 47.1345369 ], [ 9.8402708, 47.1333782 ], [ 9.8419938, 47.1326685 ], [ 9.8449651, 47.1320925 ], [ 9.8476262, 47.1319834 ], [ 9.851567, 47.1315322 ], [ 9.8545881, 47.1301949 ], [ 9.8565064, 47.1286331 ], [ 9.8575696, 47.1273311 ], [ 9.8576882, 47.1255236 ], [ 9.8574137, 47.1233228 ], [ 9.8568854, 47.1207329 ], [ 9.8570415, 47.1183546 ], [ 9.8576801, 47.117135 ], [ 9.8591986, 47.1152749 ], [ 9.8614386, 47.1130557 ], [ 9.8628174, 47.1111913 ], [ 9.8643791, 47.1086653 ], [ 9.8651295, 47.1057332 ], [ 9.8661437, 47.1009028 ], [ 9.8671663, 47.0980743 ], [ 9.8686901, 47.096119 ], [ 9.8716192, 47.0940159 ], [ 9.8778387, 47.0906783 ], [ 9.8886321, 47.0856682 ], [ 9.8983093, 47.0806233 ], [ 9.9077037, 47.0756651 ], [ 9.9172527, 47.0703282 ], [ 9.9266276, 47.0655579 ], [ 9.9299289, 47.0636933 ], [ 9.9311147, 47.0630235 ], [ 9.9349663, 47.0595167 ], [ 9.9385511, 47.0558112 ], [ 9.940713, 47.0525397 ], [ 9.9435051, 47.0459509 ], [ 9.9451461, 47.0420918 ], [ 9.9466174, 47.0387043 ], [ 9.9490503, 47.035536 ], [ 9.9517007, 47.0333274 ], [ 9.9553854, 47.0301964 ], [ 9.9599468, 47.026424 ], [ 9.9631276, 47.0234166 ], [ 9.9631467, 47.0233986 ], [ 9.9642474, 47.0223579 ], [ 9.9670054, 47.0206287 ], [ 9.9703076, 47.0191063 ], [ 9.9727087, 47.0186055 ], [ 9.9771713, 47.0180265 ], [ 9.9828509, 47.0169038 ], [ 9.9866849, 47.0157779 ], [ 9.9906085, 47.0132247 ], [ 9.9932717, 47.0112386 ], [ 9.9960185, 47.0091901 ], [ 10.003204, 47.0034918 ], [ 10.0096509, 46.9984386 ], [ 10.0151494, 46.9951683 ], [ 10.0195058, 46.9923493 ], [ 10.0225912, 46.9897623 ], [ 10.0256611, 46.9857742 ], [ 10.0258352, 46.9855479 ], [ 10.0310196, 46.9819064 ], [ 10.0355242, 46.9788922 ], [ 10.0419003, 46.9748837 ], [ 10.0476488, 46.9720004 ], [ 10.0547983, 46.9689668 ], [ 10.0642686, 46.9666669 ], [ 10.0694769, 46.9656429 ], [ 10.0695527, 46.965628 ], [ 10.0718789, 46.9651706 ], [ 10.0735875, 46.9645525 ], [ 10.0749162, 46.9635605 ], [ 10.0866711, 46.9651528 ], [ 10.0973666, 46.9713029 ], [ 10.1237491, 46.971547 ], [ 10.1310934, 46.9757443 ], [ 10.1338029, 46.9765739 ], [ 10.1362986, 46.9771595 ], [ 10.1384377, 46.9772572 ], [ 10.1402507, 46.9771419 ], [ 10.1408905, 46.9780169 ], [ 10.1409484, 46.9780961 ], [ 10.1410407, 46.9782223 ], [ 10.1412647, 46.9785285 ], [ 10.1440641, 46.982356 ], [ 10.1448918, 46.9834876 ], [ 10.1592309, 46.9838074 ], [ 10.155421, 46.9910964 ], [ 10.1593256, 46.9989464 ], [ 10.1542289, 47.005289 ], [ 10.1313726, 47.0128692 ], [ 10.1228653, 47.0223885 ], [ 10.1345723, 47.0292999 ], [ 10.1445408, 47.0338414 ], [ 10.1568962, 47.0491261 ], [ 10.1509823, 47.0619975 ], [ 10.1347151, 47.0647407 ], [ 10.1337715, 47.0775298 ], [ 10.1338846, 47.0824502 ], [ 10.1583362, 47.114711 ], [ 10.1622805, 47.1141868 ], [ 10.1626863, 47.1141328 ], [ 10.1719708, 47.1199483 ], [ 10.1866782, 47.1195636 ], [ 10.186612, 47.1290712 ], [ 10.1999438, 47.1306253 ], [ 10.2093017, 47.1317161 ], [ 10.2040272, 47.1366379 ], [ 10.2018309, 47.1364955 ], [ 10.1863818, 47.1381174 ], [ 10.1579715, 47.1369503 ], [ 10.1419654, 47.1362928 ], [ 10.1184945, 47.13092 ], [ 10.0860444, 47.1314377 ], [ 10.0396145, 47.1285883 ], [ 10.0061908, 47.1234176 ], [ 9.9892561, 47.1229106 ], [ 9.9219502, 47.1416083 ] ] ] ] } },
{ "type": "Feature", "properties": { "id": "AT-08-05-01", "start_date": "2021-10-01", "end_date": "2022-10-01" }, "geometry": { "type": "MultiPolygon", "coordinates": [ [ [ [ 9.7518867, 47.037397 ], [ 9.7843099, 47.03833 ], [ 9.7929462, 47.0313641 ], [ 9.8360684, 47.0133456 ], [ 9.8616474, 47.0223145 ], [ 9.8768601, 47.021495 ], [ 9.881425, 47.018311 ], [ 9.8711155, 47.0135382 ], [ 9.8734125, 47.0064414 ], [ 9.8888053, 47.0008175 ], [ 9.8915608, 46.9888018 ], [ 9.8849097, 46.9856365 ], [ 9.8707769, 46.9631729 ], [ 9.8793076, 46.9565959 ], [ 9.8766634, 46.947788 ], [ 9.8806584, 46.9352016 ], [ 9.906438, 46.9252266 ], [ 9.9123393, 46.926139 ], [ 9.9146344, 46.9337578 ], [ 9.913937, 46.9365804 ], [ 9.9113663, 46.9469843 ], [ 9.9183481, 46.9541049 ], [ 9.9199822, 46.9716989 ], [ 9.9476124, 47.0013819 ], [ 9.9557827, 47.0179443 ], [ 9.9631276, 47.0234166 ], [ 9.9599468, 47.026424 ], [ 9.9553854, 47.0301964 ], [ 9.9517007, 47.0333274 ], [ 9.9490503, 47.035536 ], [ 9.9466174, 47.0387043 ], [ 9.9451461, 47.0420918 ], [ 9.9435051, 47.0459509 ], [ 9.940713, 47.0525397 ], [ 9.9385511, 47.0558112 ], [ 9.9349663, 47.0595167 ], [ 9.9311147, 47.0630235 ], [ 9.9299289, 47.0636933 ], [ 9.9266276, 47.0655579 ], [ 9.9172527, 47.0703282 ], [ 9.9077037, 47.0756651 ], [ 9.8983093, 47.0806233 ], [ 9.8886321, 47.0856682 ], [ 9.8778387, 47.0906783 ], [ 9.8716192, 47.0940159 ], [ 9.8686901, 47.096119 ], [ 9.8671663, 47.0980743 ], [ 9.8661437, 47.1009028 ], [ 9.8651295, 47.1057332 ], [ 9.8643791, 47.1086653 ], [ 9.8628174, 47.1111913 ], [ 9.8614386, 47.1130557 ], [ 9.8591986, 47.1152749 ], [ 9.8576801, 47.117135 ], [ 9.8570415, 47.1183546 ], [ 9.8568854, 47.1207329 ], [ 9.8574137, 47.1233228 ], [ 9.8576882, 47.1255236 ], [ 9.8575696, 47.1273311 ], [ 9.8565064, 47.1286331 ], [ 9.8545881, 47.1301949 ], [ 9.851567, 47.1315322 ], [ 9.8476262, 47.1319834 ], [ 9.8449651, 47.1320925 ], [ 9.8419938, 47.1326685 ], [ 9.8402708, 47.1333782 ], [ 9.8370246, 47.1345369 ], [ 9.8366873, 47.1347832 ], [ 9.8351647, 47.1358952 ], [ 9.8340439, 47.1367137 ], [ 9.8316372, 47.1393087 ], [ 9.8267151, 47.1440185 ], [ 9.8201251, 47.1485813 ], [ 9.8134009, 47.1530443 ], [ 9.8113642, 47.1545404 ], [ 9.8059008, 47.1521615 ], [ 9.7985704, 47.1485961 ], [ 9.7961947, 47.1460493 ], [ 9.7887285, 47.1422519 ], [ 9.7821447, 47.1385932 ], [ 9.780923, 47.1361385 ], [ 9.7783437, 47.1293296 ], [ 9.7746106, 47.1267355 ], [ 9.7708775, 47.1251604 ], [ 9.7659227, 47.1220565 ], [ 9.7578456, 47.1183964 ], [ 9.7520763, 47.1149214 ], [ 9.7458997, 47.1126973 ], [ 9.740877, 47.1056536 ], [ 9.7372796, 47.0996287 ], [ 9.7361258, 47.0928614 ], [ 9.7361258, 47.0875768 ], [ 9.7376869, 47.0853979 ], [ 9.7361936, 47.0815034 ], [ 9.7378905, 47.0779333 ], [ 9.7411485, 47.0755685 ], [ 9.7484111, 47.0730645 ], [ 9.7509903, 47.0707922 ], [ 9.7540446, 47.0681952 ], [ 9.7562845, 47.064717 ], [ 9.7596782, 47.0608674 ], [ 9.7601194, 47.0601948 ], [ 9.7617002, 47.0600929 ], [ 9.7618352, 47.0584719 ], [ 9.7620779, 47.0561167 ], [ 9.7620779, 47.0546903 ], [ 9.7619808, 47.053496 ], [ 9.7616896, 47.0526335 ], [ 9.7613498, 47.0518704 ], [ 9.7608644, 47.0511406 ], [ 9.7599907, 47.050278 ], [ 9.7587286, 47.0488514 ], [ 9.7577578, 47.0478892 ], [ 9.7570297, 47.0472257 ], [ 9.7562549, 47.046696 ], [ 9.7559791, 47.0454894 ], [ 9.7558773, 47.0437264 ], [ 9.7547573, 47.0417081 ], [ 9.7533998, 47.0404785 ], [ 9.7521442, 47.0389937 ], [ 9.7518867, 47.037397 ] ] ] ] } },
{ "type": "Feature", "properties": { "id": "AT-08-03-01", "start_date": "2021-10-01", "end_date": "2022-10-01" }, "geometry": { "type": "MultiPolygon", "coordinates": [ [ [ [ 10.2137198, 47.2478105 ], [ 10.2204071, 47.2476135 ], [ 10.2233148, 47.2500401 ], [ 10.2229596, 47.2506138 ], [ 10.222752, 47.2514658 ], [ 10.2222697, 47.2525248 ], [ 10.2209028, 47.2534524 ], [ 10.2196115, 47.253989 ], [ 10.2171524, 47.2547437 ], [ 10.2134942, 47.2553584 ], [ 10.210494, 47.2558395 ], [ 10.2078854, 47.2564184 ], [ 10.2064456, 47.2559037 ], [ 10.2037476, 47.2546907 ], [ 10.199166, 47.2537549 ], [ 10.1930064, 47.2525764 ], [ 10.1873559, 47.2518139 ], [ 10.1847088, 47.250878 ], [ 10.1840979, 47.2498035 ], [ 10.1822653, 47.2494915 ], [ 10.1793127, 47.248105 ], [ 10.1771747, 47.2463025 ], [ 10.1766656, 47.2442572 ], [ 10.1750875, 47.2428359 ], [ 10.1724913, 47.2396811 ], [ 10.1703024, 47.2375316 ], [ 10.166739, 47.2342031 ], [ 10.1613429, 47.2299035 ], [ 10.1595612, 47.2274762 ], [ 10.155336, 47.2237309 ], [ 10.1534525, 47.2203322 ], [ 10.1508054, 47.2163436 ], [ 10.1481583, 47.2137769 ], [ 10.1446458, 47.2121467 ], [ 10.1421005, 47.210551 ], [ 10.1416423, 47.2079146 ], [ 10.1408278, 47.2051394 ], [ 10.1420496, 47.2029884 ], [ 10.1409806, 47.2011844 ], [ 10.1416423, 47.1994496 ], [ 10.142355, 47.1965004 ], [ 10.1459184, 47.1936204 ], [ 10.152638, 47.1878947 ], [ 10.1559978, 47.1849449 ], [ 10.160783, 47.1803289 ], [ 10.1620047, 47.1760249 ], [ 10.162412, 47.1730397 ], [ 10.1642955, 47.167034 ], [ 10.1653645, 47.1631108 ], [ 10.1651609, 47.1601596 ], [ 10.1649573, 47.1565137 ], [ 10.1657208, 47.1516175 ], [ 10.1644482, 47.1499505 ], [ 10.1647027, 47.1471375 ], [ 10.1628701, 47.1427613 ], [ 10.1592558, 47.1387322 ], [ 10.1579715, 47.1369503 ], [ 10.1863818, 47.1381174 ], [ 10.2018309, 47.1364955 ], [ 10.2040272, 47.1366379 ], [ 10.2040174, 47.136647 ], [ 10.2034094, 47.1372143 ], [ 10.2034295, 47.1391836 ], [ 10.2034623, 47.1423954 ], [ 10.2147176, 47.1438291 ], [ 10.221983, 47.1493954 ], [ 10.2257076, 47.1526732 ], [ 10.2127741, 47.1575893 ], [ 10.2068811, 47.1624039 ], [ 10.2118719, 47.1712243 ], [ 10.2038927, 47.1761448 ], [ 10.1969891, 47.1930467 ], [ 10.2116034, 47.2044237 ], [ 10.2121297, 47.2048333 ], [ 10.2139417, 47.2062434 ], [ 10.2138622, 47.2071645 ], [ 10.2125777, 47.2220421 ], [ 10.2094977, 47.2251842 ], [ 10.2093027, 47.2253832 ], [ 10.2094294, 47.2256314 ], [ 10.2105513, 47.2278272 ], [ 10.2082061, 47.2313903 ], [ 10.207862, 47.231913 ], [ 10.2075163, 47.2324381 ], [ 10.1980134, 47.2356383 ], [ 10.2003271, 47.2377473 ], [ 10.2114418, 47.2478776 ], [ 10.2137198, 47.2478105 ] ] ] ] } },
{ "type": "Feature", "properties": { "id": "AT-08-05-02", "start_date": "2021-10-01", "end_date": "2022-10-01" }, "geometry": { "type": "MultiPolygon", "coordinates": [ [ [ [ 9.8113642, 47.1545404 ], [ 9.8060543, 47.1584409 ], [ 9.7983576, 47.1627776 ], [ 9.7897846, 47.1676584 ], [ 9.7877861, 47.1687109 ], [ 9.7831192, 47.1711684 ], [ 9.7827538, 47.1713042 ], [ 9.7750841, 47.1741551 ], [ 9.7736564, 47.1746858 ], [ 9.7672569, 47.1762966 ], [ 9.7625825, 47.1771986 ], [ 9.750988, 47.1791221 ], [ 9.7426727, 47.1800992 ], [ 9.7383089, 47.1805334 ], [ 9.734735, 47.1812221 ], [ 9.7344836, 47.1812705 ], [ 9.7307525, 47.1826777 ], [ 9.7290158, 47.18331 ], [ 9.7272892, 47.1839385 ], [ 9.7247303, 47.1848701 ], [ 9.7197719, 47.1878587 ], [ 9.7153777, 47.1908057 ], [ 9.7121839, 47.1924793 ], [ 9.707335, 47.1938503 ], [ 9.7022263, 47.1949267 ], [ 9.6948714, 47.1961218 ], [ 9.6900085, 47.1976822 ], [ 9.6819962, 47.2002854 ], [ 9.67708, 47.2026063 ], [ 9.6690411, 47.2075911 ], [ 9.6659939, 47.20996 ], [ 9.6626824, 47.2125342 ], [ 9.6575452, 47.2159912 ], [ 9.6518224, 47.2198103 ], [ 9.6471691, 47.2223291 ], [ 9.6427279, 47.223806 ], [ 9.6388983, 47.2245398 ], [ 9.6356669, 47.2247209 ], [ 9.6311989, 47.2245758 ], [ 9.626292, 47.2247022 ], [ 9.6217572, 47.2255078 ], [ 9.6161981, 47.2269472 ], [ 9.6138265, 47.2273896 ], [ 9.612399, 47.2276559 ], [ 9.6102818, 47.2245463 ], [ 9.6074296, 47.2206601 ], [ 9.6047676, 47.2165146 ], [ 9.6022957, 47.2134052 ], [ 9.5992534, 47.2105548 ], [ 9.5956407, 47.2084817 ], [ 9.5912674, 47.2064085 ], [ 9.5848637, 47.204555 ], [ 9.5848724, 47.2045468 ], [ 9.5726102, 47.1907938 ], [ 9.5734629, 47.1763985 ], [ 9.5646472, 47.1702771 ], [ 9.5794346, 47.1711221 ], [ 9.5967494, 47.1628699 ], [ 9.602256, 47.1545965 ], [ 9.6061618, 47.1487274 ], [ 9.6148893, 47.1478113 ], [ 9.6205887, 47.1514808 ], [ 9.6248155, 47.1459842 ], [ 9.6247432, 47.1326263 ], [ 9.6336772, 47.1268079 ], [ 9.6208459, 47.1106725 ], [ 9.6315645, 47.1031052 ], [ 9.6344108, 47.1010956 ], [ 9.6353781, 47.0906223 ], [ 9.633563, 47.0834331 ], [ 9.6268911, 47.0828284 ], [ 9.6235537, 47.0825259 ], [ 9.6187007, 47.0781419 ], [ 9.6115335, 47.0794102 ], [ 9.6134585, 47.0694917 ], [ 9.6070869, 47.0607711 ], [ 9.6172398, 47.0536122 ], [ 9.6299039, 47.0514061 ], [ 9.640435, 47.0538282 ], [ 9.6415165, 47.0540769 ], [ 9.6450887, 47.0597743 ], [ 9.658476, 47.0576415 ], [ 9.6774625, 47.0614044 ], [ 9.6818768, 47.0621043 ], [ 9.6838652, 47.057717 ], [ 9.6978678, 47.0523898 ], [ 9.7074586, 47.0538191 ], [ 9.7065972, 47.0487234 ], [ 9.7170787, 47.0447955 ], [ 9.7419589, 47.0427686 ], [ 9.7472698, 47.0372641 ], [ 9.7518867, 47.37397 ], [ 9.7521442, 47.0389937 ], [ 9.7533998, 47.0404785 ], [ 9.7547573, 47.0417081 ], [ 9.7558773, 47.0437264 ], [ 9.7559791, 47.0454894 ], [ 9.7562549, 47.046696 ], [ 9.7570297, 47.0472257 ], [ 9.7577578, 47.0478892 ], [ 9.7587286, 47.0488514 ], [ 9.7599907, 47.050278 ], [ 9.7608644, 47.0511406 ], [ 9.7613498, 47.0518704 ], [ 9.7616896, 47.0526335 ], [ 9.7619808, 47.053496 ], [ 9.7620779, 47.0546903 ], [ 9.7620779, 47.0561167 ], [ 9.7618352, 47.0584719 ], [ 9.7617002, 47.0600929 ], [ 9.7601194, 47.0601948 ], [ 9.7596782, 47.0608674 ], [ 9.7562845, 47.064717 ], [ 9.7540446, 47.0681952 ], [ 9.7509903, 47.0707922 ], [ 9.7484111, 47.0730645 ], [ 9.7411485, 47.0755685 ], [ 9.7378905, 47.0779333 ], [ 9.7361936, 47.0815034 ], [ 9.7376869, 47.0853979 ], [ 9.7361258, 47.0875768 ], [ 9.7361258, 47.0928614 ], [ 9.7372796, 47.0996287 ], [ 9.740877, 47.1056536 ], [ 9.7458997, 47.1126973 ], [ 9.7520763, 47.1149214 ], [ 9.7578456, 47.1183964 ], [ 9.7659227, 47.1220565 ], [ 9.7708775, 47.1251604 ], [ 9.7746106, 47.1267355 ], [ 9.7783437, 47.1293296 ], [ 9.780923, 47.1361385 ], [ 9.7821447, 47.1385932 ], [ 9.7887285, 47.1422519 ], [ 9.7961947, 47.1460493 ], [ 9.7985704, 47.1485961 ], [ 9.8059008, 47.1521615 ], [ 9.8113642, 47.1545404 ] ] ] ] } },
{ "type": "Feature", "properties": { "id": "AT-08-06", "start_date": null, "end_date": "2022-10-01" }, "geometry": { "type": "MultiPolygon", "coordinates": [ [ [ [ 10.0735875, 46.9645525 ], [ 10.0718789, 46.9651706 ], [ 10.0695527, 46.965628 ], [ 10.0694769, 46.9656429 ], [ 10.0642686, 46.9666669 ], [ 10.0547983, 46.9689668 ], [ 10.0476488, 46.9720004 ], [ 10.0419003, 46.9748837 ], [ 10.0355242, 46.9788922 ], [ 10.0310196, 46.9819064 ], [ 10.0258352, 46.9855479 ], [ 10.0256611, 46.9857742 ], [ 10.0225912, 46.9897623 ], [ 10.0195058, 46.9923493 ], [ 10.0151494, 46.9951683 ], [ 10.0096509, 46.9984386 ], [ 10.003204, 47.0034918 ], [ 9.9960185, 47.0091901 ], [ 9.9932717, 47.0112386 ], [ 9.9906085, 47.0132247 ], [ 9.9866849, 47.0157779 ], [ 9.9828509, 47.0169038 ], [ 9.9771713, 47.0180265 ], [ 9.9727087, 47.0186055 ], [ 9.9703076, 47.0191063 ], [ 9.9670054, 47.0206287 ], [ 9.9642474, 47.0223579 ], [ 9.9631467, 47.0233986 ], [ 9.9631276, 47.0234166 ], [ 9.9557827, 47.0179443 ], [ 9.9476124, 47.0013819 ], [ 9.9199822, 46.9716989 ], [ 9.9183481, 46.9541049 ], [ 9.9113663, 46.9469843 ], [ 9.913937, 46.9365804 ], [ 9.9146344, 46.9337578 ], [ 9.9123393, 46.926139 ], [ 9.923035, 46.9182803 ], [ 9.9386298, 46.9131631 ], [ 9.9591797, 46.9160214 ], [ 9.9669902, 46.9122418 ], [ 9.9780451, 46.915848 ], [ 9.9820567, 46.9067033 ], [ 9.9902613, 46.9024287 ], [ 10.0055983, 46.8990107 ], [ 10.0180472, 46.9021403 ], [ 10.0323145, 46.8879577 ], [ 10.0520025, 46.876737 ], [ 10.050883, 46.8651753 ], [ 10.0549274, 46.861722 ], [ 10.0667773, 46.8615498 ], [ 10.0874795, 46.8612488 ], [ 10.0913981, 46.8589544 ], [ 10.0919304, 46.8514263 ], [ 10.1054021, 46.8408757 ], [ 10.1188783, 46.8441675 ], [ 10.1228352, 46.8480788 ], [ 10.1401441, 46.8474353 ], [ 10.1451402, 46.8508979 ], [ 10.1386673, 46.8676092 ], [ 10.1407271, 46.8746651 ], [ 10.1197448, 46.8830379 ], [ 10.1083043, 46.8955012 ], [ 10.1087224, 46.9083203 ], [ 10.0990059, 46.9180335 ], [ 10.0978554, 46.9258299 ], [ 10.1124478, 46.9372563 ], [ 10.1244499, 46.9409042 ], [ 10.1350219, 46.9550728 ], [ 10.1359112, 46.9639333 ], [ 10.1367575, 46.9723647 ], [ 10.1402507, 46.9771419 ], [ 10.1384377, 46.9772572 ], [ 10.1362986, 46.9771595 ], [ 10.1338029, 46.9765739 ], [ 10.1310934, 46.9757443 ], [ 10.1237491, 46.971547 ], [ 10.0973666, 46.9713029 ], [ 10.0866711, 46.9651528 ], [ 10.0749162, 46.9635605 ], [ 10.0735875, 46.9645525 ] ] ] ] } },
{ "type": "Feature", "properties": { "id": "AT-08-03", "start_date": null, "end_date": "2021-10-01" }, "geometry": { "type": "MultiPolygon", "coordinates": [ [ [ [ 10.2137198, 47.2478105 ], [ 10.2204071, 47.2476135 ], [ 10.2233148, 47.2500401 ], [ 10.2229596, 47.2506138 ], [ 10.222752, 47.2514658 ], [ 10.2222697, 47.2525248 ], [ 10.2209028, 47.2534524 ], [ 10.2196115, 47.253989 ], [ 10.2171524, 47.2547437 ], [ 10.2134942, 47.2553584 ], [ 10.210494, 47.2558395 ], [ 10.2078854, 47.2564184 ], [ 10.1929794, 47.2597262 ], [ 10.1745525, 47.2638151 ], [ 10.1637285, 47.2678702 ], [ 10.1541738, 47.2681614 ], [ 10.1346365, 47.2695204 ], [ 10.1239409, 47.267579 ], [ 10.110108, 47.2669966 ], [ 10.0952767, 47.2578711 ], [ 10.0889185, 47.2575833 ], [ 10.0868718, 47.2587843 ], [ 10.082865, 47.260195 ], [ 10.078602, 47.2612171 ], [ 10.0733547, 47.2623061 ], [ 10.0693355, 47.2639067 ], [ 10.0669758, 47.2658406 ], [ 10.0649998, 47.2683573 ], [ 10.0632031, 47.2724995 ], [ 10.0621993, 47.2751393 ], [ 10.0599196, 47.2780285 ], [ 10.0571217, 47.2802356 ], [ 10.0527975, 47.2822081 ], [ 10.0490263, 47.2842917 ], [ 10.0465428, 47.2859357 ], [ 10.0459006, 47.2872516 ], [ 10.0461032, 47.2884965 ], [ 10.0461542, 47.2899276 ], [ 10.0456162, 47.2918183 ], [ 10.0442272, 47.2938751 ], [ 10.041455, 47.2978935 ], [ 10.0408977, 47.2984569 ], [ 10.0386137, 47.3007661 ], [ 10.0365428, 47.3025172 ], [ 10.0356704, 47.3028774 ], [ 10.0343853, 47.3034079 ], [ 10.0300019, 47.3040436 ], [ 10.0244516, 47.3054077 ], [ 10.0192729, 47.3075448 ], [ 10.013814, 47.3096736 ], [ 10.0071696, 47.312816 ], [ 9.9988397, 47.3160041 ], [ 9.9910924, 47.3188275 ], [ 9.9842261, 47.321009 ], [ 9.9806487, 47.3220967 ], [ 9.9793664, 47.3224866 ], [ 9.9772525, 47.3233576 ], [ 9.9763435, 47.3237321 ], [ 9.9762076, 47.3238658 ], [ 9.9527307, 47.3097101 ], [ 9.9405615, 47.2957413 ], [ 9.9268712, 47.2877205 ], [ 9.9053849, 47.2812512 ], [ 9.9061455, 47.2658511 ], [ 9.9177443, 47.2509644 ], [ 9.9194555, 47.2378865 ], [ 9.902913, 47.2363325 ], [ 9.8852297, 47.2281731 ], [ 9.861842, 47.2215669 ], [ 9.8477713, 47.2214374 ], [ 9.8283767, 47.2157373 ], [ 9.8040383, 47.2121096 ], [ 9.7854042, 47.2034281 ], [ 9.7738054, 47.1933195 ], [ 9.7750841, 47.1741551 ], [ 9.7827538, 47.1713042 ], [ 9.7831192, 47.1711684 ], [ 9.7877861, 47.1687109 ], [ 9.7897846, 47.1676584 ], [ 9.7983576, 47.1627776 ], [ 9.8060543, 47.1584409 ], [ 9.8113642, 47.1545404 ], [ 9.8134009, 47.1530443 ], [ 9.8201251, 47.1485813 ], [ 9.8267151, 47.1440185 ], [ 9.8316372, 47.1393087 ], [ 9.8340439, 47.1367137 ], [ 9.8351647, 47.1358952 ], [ 9.8366873, 47.1347832 ], [ 9.8453114, 47.1353805 ], [ 9.8554127, 47.1401446 ], [ 9.8778438, 47.1396378 ], [ 9.8947784, 47.1432867 ], [ 9.9219502, 47.1416083 ], [ 9.9892561, 47.1229106 ], [ 10.0061908, 47.1234176 ], [ 10.0396145, 47.1285883 ], [ 10.0860444, 47.1314377 ], [ 10.1184945, 47.13092 ], [ 10.1419654, 47.1362928 ], [ 10.1579715, 47.1369503 ], [ 10.1863818, 47.1381174 ], [ 10.2018309, 47.1364955 ], [ 10.2040272, 47.1366379 ], [ 10.2040174, 47.136647 ], [ 10.2034094, 47.1372143 ], [ 10.2034295, 47.1391836 ], [ 10.2034623, 47.1423954 ], [ 10.2147176, 47.1438291 ], [ 10.221983, 47.1493954 ], [ 10.2257076, 47.1526732 ], [ 10.2127741, 47.1575893 ], [ 10.2068811, 47.1624039 ], [ 10.2118719, 47.1712243 ], [ 10.2038927, 47.1761448 ], [ 10.1969891, 47.1930467 ], [ 10.2116034, 47.2044237 ], [ 10.2121297, 47.2048333 ], [ 10.2139417, 47.2062434 ], [ 10.2138622, 47.2071645 ], [ 10.2125777, 47.2220421 ], [ 10.2094977, 47.2251842 ], [ 10.2093027, 47.2253832 ], [ 10.2094294, 47.2256314 ], [ 10.2105513, 47.2278272 ], [ 10.2082061, 47.2313903 ], [ 10.207862, 47.231913 ], [ 10.2075163, 47.2324381 ], [ 10.1980134, 47.2356383 ], [ 10.2003271, 47.2377473 ], [ 10.2114418, 47.2478776 ], [ 10.2137198, 47.2478105 ] ] ] ] } },
{ "type": "Feature", "properties": { "id": "AT-08-05", "start_date": null, "end_date": "2021-10-01" }, "geometry": { "type": "MultiPolygon", "coordinates": [ [ [ [ 9.7518867, 47.037397 ], [ 9.7843099, 47.03833 ], [ 9.7929462, 47.0313641 ], [ 9.8360684, 47.0133456 ], [ 9.8616474, 47.0223145 ], [ 9.8768601, 47.021495 ], [ 9.881425, 47.018311 ], [ 9.8711155, 47.0135382 ], [ 9.8734125, 47.0064414 ], [ 9.8888053, 47.0008175 ], [ 9.8915608, 46.9888018 ], [ 9.8849097, 46.9856365 ], [ 9.8707769, 46.9631729 ], [ 9.8793076, 46.9565959 ], [ 9.8766634, 46.947788 ], [ 9.8806584, 46.9352016 ], [ 9.906438, 46.9252266 ], [ 9.9123393, 46.926139 ], [ 9.9146344, 46.9337578 ], [ 9.913937, 46.9365804 ], [ 9.9113663, 46.9469843 ], [ 9.9183481, 46.9541049 ], [ 9.9199822, 46.9716989 ], [ 9.9476124, 47.0013819 ], [ 9.9557827, 47.0179443 ], [ 9.9631276, 47.0234166 ], [ 9.9599468, 47.026424 ], [ 9.9553854, 47.0301964 ], [ 9.9517007, 47.0333274 ], [ 9.9490503, 47.035536 ], [ 9.9466174, 47.0387043 ], [ 9.9451461, 47.0420918 ], [ 9.9435051, 47.0459509 ], [ 9.940713, 47.0525397 ], [ 9.9385511, 47.0558112 ], [ 9.9349663, 47.0595167 ], [ 9.9311147, 47.0630235 ], [ 9.9299289, 47.0636933 ], [ 9.9266276, 47.0655579 ], [ 9.9172527, 47.0703282 ], [ 9.9077037, 47.0756651 ], [ 9.8983093, 47.0806233 ], [ 9.8886321, 47.0856682 ], [ 9.8778387, 47.0906783 ], [ 9.8716192, 47.0940159 ], [ 9.8686901, 47.096119 ], [ 9.8671663, 47.0980743 ], [ 9.8661437, 47.1009028 ], [ 9.8651295, 47.1057332 ], [ 9.8643791, 47.1086653 ], [ 9.8628174, 47.1111913 ], [ 9.8614386, 47.1130557 ], [ 9.8591986, 47.1152749 ], [ 9.8576801, 47.117135 ], [ 9.8570415, 47.1183546 ], [ 9.8568854, 47.1207329 ], [ 9.8574137, 47.1233228 ], [ 9.8576882, 47.1255236 ], [ 9.8575696, 47.1273311 ], [ 9.8565064, 47.1286331 ], [ 9.8545881, 47.1301949 ], [ 9.851567, 47.1315322 ], [ 9.8476262, 47.1319834 ], [ 9.8449651, 47.1320925 ], [ 9.8419938, 47.1326685 ], [ 9.8402708, 47.1333782 ], [ 9.8370246, 47.1345369 ], [ 9.8366873, 47.1347832 ], [ 9.8351647, 47.1358952 ], [ 9.8340439, 47.1367137 ], [ 9.8316372, 47.1393087 ], [ 9.8267151, 47.1440185 ], [ 9.8201251, 47.1485813 ], [ 9.8134009, 47.1530443 ], [ 9.8113642, 47.1545404 ], [ 9.8060543, 47.1584409 ], [ 9.7983576, 47.1627776 ], [ 9.7897846, 47.1676584 ], [ 9.7877861, 47.1687109 ], [ 9.7831192, 47.1711684 ], [ 9.7827538, 47.1713042 ], [ 9.7750841, 47.1741551 ], [ 9.7736564, 47.1746858 ], [ 9.7672569, 47.1762966 ], [ 9.7625825, 47.1771986 ], [ 9.750988, 47.1791221 ], [ 9.7426727, 47.1800992 ], [ 9.7383089, 47.1805334 ], [ 9.734735, 47.1812221 ], [ 9.7344836, 47.1812705 ], [ 9.7307525, 47.1826777 ], [ 9.7290158, 47.18331 ], [ 9.7272892, 47.1839385 ], [ 9.7247303, 47.1848701 ], [ 9.7197719, 47.1878587 ], [ 9.7153777, 47.1908057 ], [ 9.7121839, 47.1924793 ], [ 9.707335, 47.1938503 ], [ 9.7022263, 47.1949267 ], [ 9.6948714, 47.1961218 ], [ 9.6900085, 47.1976822 ], [ 9.6819962, 47.2002854 ], [ 9.67708, 47.2026063 ], [ 9.6690411, 47.2075911 ], [ 9.6659939, 47.20996 ], [ 9.6626824, 47.2125342 ], [ 9.6575452, 47.2159912 ], [ 9.6518224, 47.2198103 ], [ 9.6471691, 47.2223291 ], [ 9.6427279, 47.223806 ], [ 9.6388983, 47.2245398 ], [ 9.6356669, 47.2247209 ], [ 9.6311989, 47.2245758 ], [ 9.626292, 47.2247022 ], [ 9.6217572, 47.2255078 ], [ 9.6161981, 47.2269472 ], [ 9.6138265, 47.2273896 ], [ 9.612399, 47.2276559 ], [ 9.6102818, 47.2245463 ], [ 9.6074296, 47.2206601 ], [ 9.6047676, 47.2165146 ], [ 9.6022957, 47.2134052 ], [ 9.5992534, 47.2105548 ], [ 9.5956407, 47.2084817 ], [ 9.5912674, 47.2064085 ], [ 9.5848637, 47.204555 ], [ 9.5848724, 47.2045468 ], [ 9.5726102, 47.1907938 ], [ 9.5734629, 47.1763985 ], [ 9.5646472, 47.1702771 ], [ 9.5794346, 47.1711221 ], [ 9.5967494, 47.1628699 ], [ 9.602256, 47.1545965 ], [ 9.6061618, 47.1487274 ], [ 9.6148893, 47.1478113 ], [ 9.6205887, 47.1514808 ], [ 9.6248155, 47.1459842 ], [ 9.6247432, 47.1326263 ], [ 9.6336772, 47.1268079 ], [ 9.6208459, 47.1106725 ], [ 9.6315645, 47.1031052 ], [ 9.6344108, 47.1010956 ], [ 9.6353781, 47.0906223 ], [ 9.633563, 47.0834331 ], [ 9.6268911, 47.0828284 ], [ 9.6235537, 47.0825259 ], [ 9.6187007, 47.0781419 ], [ 9.6115335, 47.0794102 ], [ 9.6134585, 47.0694917 ], [ 9.6070869, 47.0607711 ], [ 9.6172398, 47.0536122 ], [ 9.6299039, 47.0514061 ], [ 9.640435, 47.0538282 ], [ 9.6415165, 47.0540769 ], [ 9.6450887, 47.0597743 ], [ 9.658476, 47.0576415 ], [ 9.6774625, 47.0614044 ], [ 9.6818768, 47.0621043 ], [ 9.6838652, 47.057717 ], [ 9.6978678, 47.0523898 ], [ 9.7074586, 47.0538191 ], [ 9.7065972, 47.0487234 ], [ 9.7170787, 47.0447955 ], [ 9.7419589, 47.0427686 ], [ 9.7472698, 47.0372641 ], [ 9.7518867, 47.037397 ] ] ] ] } },
{ "type": "Feature", "properties": { "id": "AT-08-01", "start_date": "2022-10-01", "end_date": null }, "geometry": { "type": "MultiPolygon", "coordinates": [ [ [ [ 10.0341931, 47.4131769 ], [ 10.0292163, 47.4183379 ], [ 10.0233504, 47.4244201 ], [ 10.0180796, 47.432289 ], [ 10.004225, 47.433413 ], [ 9.988434, 47.4365086 ], [ 9.9722991, 47.442813 ], [ 9.9617575, 47.449964 ], [ 9.9503618, 47.4507662 ], [ 9.9332488, 47.447058 ], [ 9.9225533, 47.4402053 ], [ 9.9055592, 47.4399634 ], [ 9.8889854, 47.4432743 ], [ 9.8888349, 47.4423689 ], [ 9.8885575, 47.4401682 ], [ 9.8886259, 47.4391218 ], [ 9.8890308, 47.4372276 ], [ 9.8893984, 47.4359043 ], [ 9.8907349, 47.4348007 ], [ 9.8913641, 47.4337711 ], [ 9.892012, 47.4324562 ], [ 9.8920866, 47.4313146 ], [ 9.8917344, 47.4302555 ], [ 9.8908153, 47.4292747 ], [ 9.8890551, 47.4282685 ], [ 9.8866065, 47.4270509 ], [ 9.8848464, 47.4260447 ], [ 9.8832702, 47.4243767 ], [ 9.8822299, 47.4231062 ], [ 9.8815183, 47.4217933 ], [ 9.8819248, 47.4191889 ], [ 9.8820682, 47.4170009 ], [ 9.882059, 47.414999 ], [ 9.8811186, 47.4122063 ], [ 9.8796178, 47.4093968 ], [ 9.8779021, 47.4077245 ], [ 9.8758876, 47.4063291 ], [ 9.8743899, 47.4056166 ], [ 9.8727272, 47.4052803 ], [ 9.8704852, 47.4052124 ], [ 9.8675364, 47.4052183 ], [ 9.863613, 47.4050993 ], [ 9.8609632, 47.4048281 ], [ 9.8572238, 47.4040472 ], [ 9.8547457, 47.4033046 ], [ 9.8535412, 47.40241 ], [ 9.8521257, 47.4004605 ], [ 9.8512644, 47.3986232 ], [ 9.8509052, 47.395562 ], [ 9.8510749, 47.3929935 ], [ 9.8514809, 47.3910995 ], [ 9.8521229, 47.3898799 ], [ 9.8546111, 47.3883353 ], [ 9.8520053, 47.383994 ], [ 9.8463667, 47.3840604 ], [ 9.8381412, 47.3803456 ], [ 9.8399985, 47.3743754 ], [ 9.8317066, 47.3677418 ], [ 9.8225523, 47.3680735 ], [ 9.811408, 47.3640271 ], [ 9.7991117, 47.3656638 ], [ 9.7919717, 47.3666141 ], [ 9.790148, 47.3653516 ], [ 9.7838895, 47.3610188 ], [ 9.7824857, 47.3600469 ], [ 9.7759576, 47.3588152 ], [ 9.7734432, 47.3583408 ], [ 9.7719384, 47.3580569 ], [ 9.7650851, 47.3530727 ], [ 9.7612222, 47.3502633 ], [ 9.7569125, 47.347129 ], [ 9.7493844, 47.3466472 ], [ 9.739235, 47.3489026 ], [ 9.7326678, 47.3491016 ], [ 9.7250223, 47.3518973 ], [ 9.7237789, 47.352352 ], [ 9.7197779, 47.3512151 ], [ 9.7116395, 47.3489026 ], [ 9.7079247, 47.3541431 ], [ 9.7029496, 47.3574599 ], [ 9.6908102, 47.3591182 ], [ 9.6896161, 47.362435 ], [ 9.6775431, 47.3740437 ], [ 9.6706574, 47.3778747 ], [ 9.659598, 47.3697868 ], [ 9.6498047, 47.367426 ], [ 9.6244012, 47.3662457 ], [ 9.6193721, 47.3622117 ], [ 9.6139564, 47.3582647 ], [ 9.6077101, 47.3535923 ], [ 9.6029392, 47.3491464 ], [ 9.6001429, 47.3453012 ], [ 9.5982838, 47.341844 ], [ 9.5965336, 47.3377991 ], [ 9.5943113, 47.3311079 ], [ 9.5929251, 47.3259382 ], [ 9.5916043, 47.3223198 ], [ 9.5902162, 47.3196525 ], [ 9.5886105, 47.3179144 ], [ 9.5870926, 47.3167495 ], [ 9.5842684, 47.3145712 ], [ 9.5759575, 47.3094714 ], [ 9.567465, 47.3044841 ], [ 9.5600506, 47.3003659 ], [ 9.5568788, 47.2981754 ], [ 9.5554154, 47.2969603 ], [ 9.554029, 47.2951613 ], [ 9.5528012, 47.2927371 ], [ 9.5508511, 47.2869521 ], [ 9.548748, 47.2833071 ], [ 9.5457076, 47.2805248 ], [ 9.5417813, 47.2778916 ], [ 9.5368861, 47.2753452 ], [ 9.5338572, 47.2736354 ], [ 9.532362, 47.272513 ], [ 9.5317849, 47.2720171 ], [ 9.5307861, 47.2706602 ], [ 9.5673678, 47.2412918 ], [ 9.5516453, 47.2237532 ], [ 9.5585577, 47.2241692 ], [ 9.5603991, 47.223344 ], [ 9.5692159, 47.2193925 ], [ 9.5847254, 47.2046862 ], [ 9.5848637, 47.204555 ], [ 9.5912674, 47.2064085 ], [ 9.5956407, 47.2084817 ], [ 9.5992534, 47.2105548 ], [ 9.6022957, 47.2134052 ], [ 9.6047676, 47.2165146 ], [ 9.6074296, 47.2206601 ], [ 9.6102818, 47.2245463 ], [ 9.612399, 47.2276559 ], [ 9.6138265, 47.2273896 ], [ 9.6161981, 47.2269472 ], [ 9.6217572, 47.2255078 ], [ 9.626292, 47.2247022 ], [ 9.6311989, 47.2245758 ], [ 9.6356669, 47.2247209 ], [ 9.6388983, 47.2245398 ], [ 9.6427279, 47.223806 ], [ 9.6471691, 47.2223291 ], [ 9.6518224, 47.2198103 ], [ 9.6575452, 47.2159912 ], [ 9.6626824, 47.2125342 ], [ 9.6659939, 47.20996 ], [ 9.6690411, 47.2075911 ], [ 9.67708, 47.2026063 ], [ 9.6819962, 47.2002854 ], [ 9.6900085, 47.1976822 ], [ 9.6948714, 47.1961218 ], [ 9.7022263, 47.1949267 ], [ 9.707335, 47.1938503 ], [ 9.7121839, 47.1924793 ], [ 9.7153777, 47.1908057 ], [ 9.7197719, 47.1878587 ], [ 9.7247303, 47.1848701 ], [ 9.7272892, 47.1839385 ], [ 9.7290158, 47.18331 ], [ 9.7307525, 47.1826777 ], [ 9.7344836, 47.1812705 ], [ 9.734735, 47.1812221 ], [ 9.7383089, 47.1805334 ], [ 9.7426727, 47.1800992 ], [ 9.750988, 47.1791221 ], [ 9.7625825, 47.1771986 ], [ 9.7672569, 47.1762966 ], [ 9.7736564, 47.1746858 ], [ 9.7750841, 47.1741551 ], [ 9.7738054, 47.1933195 ], [ 9.7854042, 47.2034281 ], [ 9.8040383, 47.2121096 ], [ 9.8283767, 47.2157373 ], [ 9.8477713, 47.2214374 ], [ 9.861842, 47.2215669 ], [ 9.8852297, 47.2281731 ], [ 9.902913, 47.2363325 ], [ 9.9194555, 47.2378865 ], [ 9.9177443, 47.2509644 ], [ 9.9061455, 47.2658511 ], [ 9.9053849, 47.2812512 ], [ 9.9268712, 47.2877205 ], [ 9.9405615, 47.2957413 ], [ 9.9527307, 47.3097101 ], [ 9.9762076, 47.3238658 ], [ 9.9763435, 47.3237321 ], [ 9.9772525, 47.3233576 ], [ 9.9793664, 47.3224866 ], [ 9.9806487, 47.3220967 ], [ 9.9917435, 47.3248194 ], [ 10.0021538, 47.3294735 ], [ 10.0157016, 47.3483766 ], [ 10.0117086, 47.3555483 ], [ 10.0184111, 47.363591 ], [ 10.0200373, 47.3742156 ], [ 10.037205, 47.3802509 ], [ 10.042777, 47.3855695 ], [ 10.0494031, 47.3909899 ], [ 10.047596, 47.396512 ], [ 10.0393133, 47.4031581 ], [ 10.0341931, 47.4131769 ] ] ] ] } },
{ "type": "Feature", "properties": { "id": "AT-08-02", "start_date": "2022-10-01", "end_date": null }, "geometry": { "type": "MultiPolygon", "coordinates": [ [ [ [ 10.0978158, 47.3594381 ], [ 10.0873243, 47.3845786 ], [ 10.0834212, 47.3939283 ], [ 10.0852872, 47.3998417 ], [ 10.0690246, 47.4093392 ], [ 10.0435378, 47.4199097 ], [ 10.0292163, 47.4183379 ], [ 10.0341931, 47.4131769 ], [ 10.0393133, 47.4031581 ], [ 10.047596, 47.396512 ], [ 10.0494031, 47.3909899 ], [ 10.042777, 47.3855695 ], [ 10.037205, 47.3802509 ], [ 10.0200373, 47.3742156 ], [ 10.0184111, 47.363591 ], [ 10.0117086, 47.3555483 ], [ 10.0157016, 47.3483766 ], [ 10.0021538, 47.3294735 ], [ 9.9917435, 47.3248194 ], [ 9.9806487, 47.3220967 ], [ 9.9842261, 47.321009 ], [ 9.9910924, 47.3188275 ], [ 9.9988397, 47.3160041 ], [ 10.0071696, 47.312816 ], [ 10.013814, 47.3096736 ], [ 10.0192729, 47.3075448 ], [ 10.0244516, 47.3054077 ], [ 10.0300019, 47.3040436 ], [ 10.0343853, 47.3034079 ], [ 10.0356704, 47.3028774 ], [ 10.0365428, 47.3025172 ], [ 10.0386137, 47.3007661 ], [ 10.0408977, 47.2984569 ], [ 10.041455, 47.2978935 ], [ 10.0442272, 47.2938751 ], [ 10.0456162, 47.2918183 ], [ 10.0461542, 47.2899276 ], [ 10.0461032, 47.2884965 ], [ 10.0459006, 47.2872516 ], [ 10.0465428, 47.2859357 ], [ 10.0490263, 47.2842917 ], [ 10.0527975, 47.2822081 ], [ 10.0571217, 47.2802356 ], [ 10.0599196, 47.2780285 ], [ 10.0621993, 47.2751393 ], [ 10.0632031, 47.2724995 ], [ 10.0649998, 47.2683573 ], [ 10.0669758, 47.2658406 ], [ 10.0693355, 47.2639067 ], [ 10.0733547, 47.2623061 ], [ 10.078602, 47.2612171 ], [ 10.082865, 47.260195 ], [ 10.0868718, 47.2587843 ], [ 10.0889185, 47.2575833 ], [ 10.0952767, 47.2578711 ], [ 10.110108, 47.2669966 ], [ 10.1239409, 47.267579 ], [ 10.1346365, 47.2695204 ], [ 10.1541738, 47.2681614 ], [ 10.1637285, 47.2678702 ], [ 10.1745525, 47.2638151 ], [ 10.1771508, 47.267712 ], [ 10.1788146, 47.2702072 ], [ 10.1743477, 47.2703089 ], [ 10.1725622, 47.2793282 ], [ 10.1797821, 47.2962033 ], [ 10.1898361, 47.2940576 ], [ 10.208704, 47.3044062 ], [ 10.2123915, 47.3108682 ], [ 10.2165452, 47.3103779 ], [ 10.2111155, 47.3191331 ], [ 10.1994568, 47.3264682 ], [ 10.2078155, 47.3327201 ], [ 10.2043789, 47.3367009 ], [ 10.2174998, 47.3506029 ], [ 10.2165518, 47.3542986 ], [ 10.2248278, 47.3588583 ], [ 10.2370706, 47.3737735 ], [ 10.2356696, 47.3751223 ], [ 10.2316846, 47.3789585 ], [ 10.2363006, 47.3818409 ], [ 10.2272009, 47.3892259 ], [ 10.212679, 47.3803786 ], [ 10.2000649, 47.3832788 ], [ 10.1952812, 47.3893443 ], [ 10.181842, 47.392439 ], [ 10.1824907, 47.3880056 ], [ 10.1694783, 47.3857927 ], [ 10.1692613, 47.3706545 ], [ 10.1657727, 47.3685717 ], [ 10.1418944, 47.3669957 ], [ 10.1385649, 47.3682603 ], [ 10.1195253, 47.3754913 ], [ 10.0998225, 47.3547471 ], [ 10.0978158, 47.3594381 ] ] ] ] } },
{ "type": "Feature", "properties": { "id": "AT-08-03-02", "start_date": "2022-10-01", "end_date": null }, "geometry": { "type": "MultiPolygon", "coordinates": [ [ [ [ 9.9842261, 47.321009 ], [ 9.9806487, 47.3220967 ], [ 9.9793664, 47.3224866 ], [ 9.9772525, 47.3233576 ], [ 9.9763435, 47.3237321 ], [ 9.9762076, 47.3238658 ], [ 9.9527307, 47.3097101 ], [ 9.9405615, 47.2957413 ], [ 9.9268712, 47.2877205 ], [ 9.9053849, 47.2812512 ], [ 9.9061455, 47.2658511 ], [ 9.9177443, 47.2509644 ], [ 9.9194555, 47.2378865 ], [ 9.902913, 47.2363325 ], [ 9.8852297, 47.2281731 ], [ 9.861842, 47.2215669 ], [ 9.8477713, 47.2214374 ], [ 9.8283767, 47.2157373 ], [ 9.8040383, 47.2121096 ], [ 9.7854042, 47.2034281 ], [ 9.7738054, 47.1933195 ], [ 9.7750841, 47.1741551 ], [ 9.7827538, 47.1713042 ], [ 9.7831192, 47.1711684 ], [ 9.7877861, 47.1687109 ], [ 9.7897846, 47.1676584 ], [ 9.7983576, 47.1627776 ], [ 9.8060543, 47.1584409 ], [ 9.8134009, 47.1530443 ], [ 9.8201251, 47.1485813 ], [ 9.8267151, 47.1440185 ], [ 9.8316372, 47.1393087 ], [ 9.8340439, 47.1367137 ], [ 9.8351647, 47.1358952 ], [ 9.8366873, 47.1347832 ], [ 9.8453114, 47.1353805 ], [ 9.8554127, 47.1401446 ], [ 9.8778438, 47.1396378 ], [ 9.8947784, 47.1432867 ], [ 9.9219502, 47.1416083 ], [ 9.9892561, 47.1229106 ], [ 10.0061908, 47.1234176 ], [ 10.0396145, 47.1285883 ], [ 10.0860444, 47.1314377 ], [ 10.1184945, 47.13092 ], [ 10.1419654, 47.1362928 ], [ 10.1595425, 47.1370148 ], [ 10.1656454, 47.1493314 ], [ 10.1639611, 47.1691543 ], [ 10.1602038, 47.1812035 ], [ 10.1428426, 47.1968804 ], [ 10.1374309, 47.2063788 ], [ 10.1433019, 47.209903 ], [ 10.1495067, 47.2148658 ], [ 10.1561206, 47.2217696 ], [ 10.1618618, 47.227505 ], [ 10.1686628, 47.2348421 ], [ 10.1775565, 47.2445061 ], [ 10.1804253, 47.2473624 ], [ 10.1831966, 47.2492975 ], [ 10.1888162, 47.251883 ], [ 10.1929364, 47.2532117 ], [ 10.1998761, 47.2547966 ], [ 10.2036007, 47.2557209 ], [ 10.2059442, 47.2560354 ], [ 10.2086192, 47.256073 ], [ 10.210494, 47.2558395 ], [ 10.1929794, 47.2597262 ], [ 10.1745525, 47.2638151 ], [ 10.1637285, 47.2678702 ], [ 10.1541738, 47.2681614 ], [ 10.1346365, 47.2695204 ], [ 10.1239409, 47.267579 ], [ 10.110108, 47.2669966 ], [ 10.0952767, 47.2578711 ], [ 10.0889185, 47.2575833 ], [ 10.0868718, 47.2587843 ], [ 10.082865, 47.260195 ], [ 10.078602, 47.2612171 ], [ 10.0733547, 47.2623061 ], [ 10.0693355, 47.2639067 ], [ 10.0669758, 47.2658406 ], [ 10.0649998, 47.2683573 ], [ 10.0632031, 47.2724995 ], [ 10.0621993, 47.2751393 ], [ 10.0599196, 47.2780285 ], [ 10.0571217, 47.2802356 ], [ 10.0527975, 47.2822081 ], [ 10.0490263, 47.2842917 ], [ 10.0465428, 47.2859357 ], [ 10.0459006, 47.2872516 ], [ 10.0461032, 47.2884965 ], [ 10.0461542, 47.2899276 ], [ 10.0456162, 47.2918183 ], [ 10.0442272, 47.2938751 ], [ 10.041455, 47.2978935 ], [ 10.0408977, 47.2984569 ], [ 10.0386137, 47.3007661 ], [ 10.0365428, 47.3025172 ], [ 10.0356704, 47.3028774 ], [ 10.0343853, 47.3034079 ], [ 10.0300019, 47.3040436 ], [ 10.0244516, 47.3054077 ], [ 10.0192729, 47.3075448 ], [ 10.013814, 47.3096736 ], [ 10.0071696, 47.312816 ], [ 9.9988397, 47.3160041 ], [ 9.9910924, 47.3188275 ], [ 9.9842261, 47.321009 ] ] ] ] } },
{ "type": "Feature", "properties": { "id": "AT-08-04", "start_date": "2022-10-01", "end_date": null }, "geometry": { "type": "MultiPolygon", "coordinates": [ [ [ [ 10.186612, 47.1290712 ], [ 10.1999438, 47.1306253 ], [ 10.2093017, 47.1317161 ], [ 10.2040272, 47.1366379 ], [ 10.2018309, 47.1364955 ], [ 10.1863818, 47.1381174 ], [ 10.1595425, 47.1370148 ], [ 10.1419654, 47.1362928 ], [ 10.1184945, 47.13092 ], [ 10.0860444, 47.1314377 ], [ 10.0396145, 47.1285883 ], [ 10.0061908, 47.1234176 ], [ 9.9892561, 47.1229106 ], [ 9.9219502, 47.1416083 ], [ 9.8947784, 47.1432867 ], [ 9.8778438, 47.1396378 ], [ 9.8554127, 47.1401446 ], [ 9.8453114, 47.1353805 ], [ 9.8366873, 47.1347832 ], [ 9.8370246, 47.1345369 ], [ 9.8402708, 47.1333782 ], [ 9.8419938, 47.1326685 ], [ 9.8449651, 47.1320925 ], [ 9.8476262, 47.1319834 ], [ 9.851567, 47.1315322 ], [ 9.8545881, 47.1301949 ], [ 9.8565064, 47.1286331 ], [ 9.8575696, 47.1273311 ], [ 9.8576882, 47.1255236 ], [ 9.8574137, 47.1233228 ], [ 9.8568854, 47.1207329 ], [ 9.8570415, 47.1183546 ], [ 9.8576801, 47.117135 ], [ 9.8591986, 47.1152749 ], [ 9.8614386, 47.1130557 ], [ 9.8628174, 47.1111913 ], [ 9.8643791, 47.1086653 ], [ 9.8651295, 47.1057332 ], [ 9.8661437, 47.1009028 ], [ 9.8671663, 47.0980743 ], [ 9.8686901, 47.096119 ], [ 9.8716192, 47.0940159 ], [ 9.8778387, 47.0906783 ], [ 9.8886321, 47.0856682 ], [ 9.8983093, 47.0806233 ], [ 9.9077037, 47.0756651 ], [ 9.9172527, 47.0703282 ], [ 9.9266276, 47.0655579 ], [ 9.9299289, 47.0636933 ], [ 9.9311147, 47.0630235 ], [ 9.9349663, 47.0595167 ], [ 9.9385511, 47.0558112 ], [ 9.940713, 47.0525397 ], [ 9.9435051, 47.0459509 ], [ 9.9451461, 47.0420918 ], [ 9.9466174, 47.0387043 ], [ 9.9490503, 47.035536 ], [ 9.9517007, 47.0333274 ], [ 9.9553854, 47.0301964 ], [ 9.9599468, 47.026424 ], [ 9.9631276, 47.0234166 ], [ 9.9631467, 47.0233986 ], [ 9.9642474, 47.0223579 ], [ 9.9670054, 47.0206287 ], [ 9.9703076, 47.0191063 ], [ 9.9727087, 47.0186055 ], [ 9.9771713, 47.0180265 ], [ 9.9828509, 47.0169038 ], [ 9.9866849, 47.0157779 ], [ 9.9906085, 47.0132247 ], [ 9.9932717, 47.0112386 ], [ 9.9960185, 47.0091901 ], [ 10.003204, 47.0034918 ], [ 10.0096509, 46.9984386 ], [ 10.0151494, 46.9951683 ], [ 10.0195058, 46.9923493 ], [ 10.0225912, 46.9897623 ], [ 10.0256611, 46.9857742 ], [ 10.0258352, 46.9855479 ], [ 10.0310196, 46.9819064 ], [ 10.0355242, 46.9788922 ], [ 10.0419003, 46.9748837 ], [ 10.0476488, 46.9720004 ], [ 10.0547983, 46.9689668 ], [ 10.0642686, 46.9666669 ], [ 10.0694769, 46.9656429 ], [ 10.0695527, 46.965628 ], [ 10.0718789, 46.9651706 ], [ 10.0735875, 46.9645525 ], [ 10.0749162, 46.9635605 ], [ 10.0866711, 46.9651528 ], [ 10.0973666, 46.9713029 ], [ 10.1237491, 46.971547 ], [ 10.1310934, 46.9757443 ], [ 10.1338029, 46.9765739 ], [ 10.1362986, 46.9771595 ], [ 10.1384377, 46.9772572 ], [ 10.1402507, 46.9771419 ], [ 10.1408905, 46.9780169 ], [ 10.1409484, 46.9780961 ], [ 10.1410407, 46.9782223 ], [ 10.1412647, 46.9785285 ], [ 10.1440621, 46.9823533 ], [ 10.1448918, 46.9834876 ], [ 10.1592309, 46.9838074 ], [ 10.155421, 46.9910964 ], [ 10.1593256, 46.9989464 ], [ 10.1542289, 47.005289 ], [ 10.1313726, 47.0128692 ], [ 10.1228653, 47.0223885 ], [ 10.1345723, 47.0292999 ], [ 10.1445408, 47.0338414 ], [ 10.1568962, 47.0491261 ], [ 10.1509823, 47.0619975 ], [ 10.1347151, 47.0647407 ], [ 10.1337715, 47.0775298 ], [ 10.1338846, 47.0824502 ], [ 10.1583362, 47.114711 ], [ 10.1622805, 47.1141868 ], [ 10.1626863, 47.1141328 ], [ 10.1719708, 47.1199483 ], [ 10.1866782, 47.1195636 ], [ 10.186612, 47.1290712 ] ] ] ] } },
{ "type": "Feature", "properties": { "id": "AT-08-05-02", "start_date": "2022-10-01", "end_date": null }, "geometry": { "type": "MultiPolygon", "coordinates": [ [ [ [ 9.6208459, 47.1106725 ], [ 9.631557, 47.1031105 ], [ 9.6344108, 47.1010956 ], [ 9.6353781, 47.0906223 ], [ 9.633563, 47.0834331 ], [ 9.6235537, 47.0825259 ], [ 9.6187007, 47.0781419 ], [ 9.6115335, 47.0794102 ], [ 9.6134585, 47.0694917 ], [ 9.6070869, 47.0607711 ], [ 9.6172398, 47.0536122 ], [ 9.6299039, 47.0514061 ], [ 9.640435, 47.0538282 ], [ 9.6415165, 47.0540769 ], [ 9.6450887, 47.0597743 ], [ 9.658476, 47.0576415 ], [ 9.6774625, 47.0614044 ], [ 9.6818768, 47.0621043 ], [ 9.6838652, 47.057717 ], [ 9.6978678, 47.0523898 ], [ 9.7074586, 47.0538191 ], [ 9.7065972, 47.0487234 ], [ 9.7170787, 47.0447955 ], [ 9.7419589, 47.0427686 ], [ 9.7472698, 47.0372641 ], [ 9.7519216, 47.037398 ], [ 9.7561731, 47.0450507 ], [ 9.7552496, 47.0504007 ], [ 9.7574788, 47.0605275 ], [ 9.7567779, 47.0619594 ], [ 9.7530205, 47.0696352 ], [ 9.7448681, 47.0750489 ], [ 9.7385628, 47.0758768 ], [ 9.7367765, 47.0825444 ], [ 9.7383936, 47.1023854 ], [ 9.749216, 47.1142652 ], [ 9.7790708, 47.129628 ], [ 9.7828648, 47.1398283 ], [ 9.8068731, 47.1522057 ], [ 9.8094979, 47.1559113 ], [ 9.8060543, 47.1584409 ], [ 9.7983576, 47.1627776 ], [ 9.7897846, 47.1676584 ], [ 9.7877861, 47.1687109 ], [ 9.7831192, 47.1711684 ], [ 9.7827538, 47.1713042 ], [ 9.7750841, 47.1741551 ], [ 9.7736564, 47.1746858 ], [ 9.7672569, 47.1762966 ], [ 9.7625825, 47.1771986 ], [ 9.750988, 47.1791221 ], [ 9.7426727, 47.1800992 ], [ 9.7383089, 47.1805334 ], [ 9.734735, 47.1812221 ], [ 9.7344836, 47.1812705 ], [ 9.7307525, 47.1826777 ], [ 9.7290158, 47.18331 ], [ 9.7272892, 47.1839385 ], [ 9.7247303, 47.1848701 ], [ 9.7197719, 47.1878587 ], [ 9.7153777, 47.1908057 ], [ 9.7121839, 47.1924793 ], [ 9.707335, 47.1938503 ], [ 9.7022263, 47.1949267 ], [ 9.6948714, 47.1961218 ], [ 9.6900085, 47.1976822 ], [ 9.6819962, 47.2002854 ], [ 9.67708, 47.2026063 ], [ 9.6690411, 47.2075911 ], [ 9.6659939, 47.20996 ], [ 9.6626824, 47.2125342 ], [ 9.6575452, 47.2159912 ], [ 9.6518224, 47.2198103 ], [ 9.6471691, 47.2223291 ], [ 9.6427279, 47.223806 ], [ 9.6388983, 47.2245398 ], [ 9.6356669, 47.2247209 ], [ 9.6311989, 47.2245758 ], [ 9.626292, 47.2247022 ], [ 9.6217572, 47.2255078 ], [ 9.6161981, 47.2269472 ], [ 9.6138265, 47.2273896 ], [ 9.612399, 47.2276559 ], [ 9.6102818, 47.2245463 ], [ 9.6074296, 47.2206601 ], [ 9.6047676, 47.2165146 ], [ 9.6022957, 47.2134052 ], [ 9.5992534, 47.2105548 ], [ 9.5956407, 47.2084817 ], [ 9.5912674, 47.2064085 ], [ 9.5848637, 47.204555 ], [ 9.5848724, 47.2045468 ], [ 9.5726102, 47.1907938 ], [ 9.5734629, 47.1763985 ], [ 9.5646472, 47.1702771 ], [ 9.5794346, 47.1711221 ], [ 9.5967494, 47.1628699 ], [ 9.602261, 47.154589 ], [ 9.6061618, 47.1487274 ], [ 9.6148893, 47.1478113 ], [ 9.6205887, 47.1514808 ], [ 9.6248155, 47.1459842 ], [ 9.6247432, 47.1326263 ], [ 9.6336772, 47.1268079 ], [ 9.6208459, 47.1106725 ] ] ] ] } },
{ "type": "Feature", "properties": { "id": "AT-08-06", "start_date": "2022-10-01", "end_date": null }, "geometry": { "type": "MultiPolygon", "coordinates": [ [ [ [ 10.1350219, 46.9550728 ], [ 10.1359119, 46.9639406 ], [ 10.1367575, 46.9723647 ], [ 10.1402507, 46.9771419 ], [ 10.1384377, 46.9772572 ], [ 10.1362986, 46.9771595 ], [ 10.1338029, 46.9765739 ], [ 10.1310934, 46.9757443 ], [ 10.1237491, 46.971547 ], [ 10.0973666, 46.9713029 ], [ 10.0866711, 46.9651528 ], [ 10.0749162, 46.9635605 ], [ 10.0735875, 46.9645525 ], [ 10.0718789, 46.9651706 ], [ 10.0695527, 46.965628 ], [ 10.0694769, 46.9656429 ], [ 10.0642686, 46.9666669 ], [ 10.0547983, 46.9689668 ], [ 10.0476488, 46.9720004 ], [ 10.0419003, 46.9748837 ], [ 10.0355242, 46.9788922 ], [ 10.0310196, 46.9819064 ], [ 10.0258352, 46.9855479 ], [ 10.0256611, 46.9857742 ], [ 10.0225912, 46.9897623 ], [ 10.0195058, 46.9923493 ], [ 10.0151494, 46.9951683 ], [ 10.0096509, 46.9984386 ], [ 10.003204, 47.0034918 ], [ 9.9960185, 47.0091901 ], [ 9.9932717, 47.0112386 ], [ 9.9906085, 47.0132247 ], [ 9.9866849, 47.0157779 ], [ 9.9828509, 47.0169038 ], [ 9.9771713, 47.0180265 ], [ 9.9727087, 47.0186055 ], [ 9.9703076, 47.0191063 ], [ 9.9670054, 47.0206287 ], [ 9.9642474, 47.0223579 ], [ 9.9631467, 47.0233986 ], [ 9.9631276, 47.0234166 ], [ 9.9557827, 47.0179443 ], [ 9.9476124, 47.0013819 ], [ 9.9199822, 46.9716989 ], [ 9.9183481, 46.9541049 ], [ 9.9113663, 46.9469843 ], [ 9.9139335, 46.9365947 ], [ 9.9146344, 46.9337578 ], [ 9.9123393, 46.926139 ], [ 9.923035, 46.9182803 ], [ 9.9386298, 46.9131631 ], [ 9.9591797, 46.9160214 ], [ 9.9669902, 46.9122418 ], [ 9.9780451, 46.915848 ], [ 9.9820567, 46.9067033 ], [ 9.9902613, 46.9024287 ], [ 10.0055983, 46.8990107 ], [ 10.0180472, 46.9021403 ], [ 10.0323145, 46.8879577 ], [ 10.0520025, 46.876737 ], [ 10.050883, 46.8651753 ], [ 10.0549274, 46.861722 ], [ 10.0667773, 46.8615498 ], [ 10.0874795, 46.8612488 ], [ 10.0913981, 46.8589544 ], [ 10.0919304, 46.8514263 ], [ 10.1054021, 46.8408757 ], [ 10.1188783, 46.8441675 ], [ 10.1228352, 46.8480788 ], [ 10.1401441, 46.8474353 ], [ 10.1451402, 46.8508979 ], [ 10.1386673, 46.8676092 ], [ 10.1407271, 46.8746651 ], [ 10.1197448, 46.8830379 ], [ 10.1083043, 46.8955012 ], [ 10.1087224, 46.9083203 ], [ 10.0990059, 46.9180335 ], [ 10.0978554, 46.9258299 ], [ 10.1124478, 46.9372563 ], [ 10.1244499, 46.9409042 ], [ 10.1350219, 46.9550728 ] ] ] ] } },
{ "type": "Feature", "properties": { "id": "AT-08-03-01", "start_date": "2022-10-01", "end_date": null }, "geometry": { "type": "MultiPolygon", "coordinates": [ [ [ [ 10.2114418, 47.2478776 ], [ 10.2150207, 47.2477722 ], [ 10.2204071, 47.2476135 ], [ 10.2233148, 47.2500401 ], [ 10.2229596, 47.2506138 ], [ 10.222752, 47.2514658 ], [ 10.2222697, 47.2525248 ], [ 10.2209028, 47.2534524 ], [ 10.2196115, 47.253989 ], [ 10.2171524, 47.2547437 ], [ 10.2134942, 47.2553584 ], [ 10.210494, 47.2558395 ], [ 10.2086192, 47.256073 ], [ 10.2059442, 47.2560354 ], [ 10.2036007, 47.2557209 ], [ 10.1998761, 47.2547966 ], [ 10.1929364, 47.2532117 ], [ 10.1888162, 47.251883 ], [ 10.1831966, 47.2492975 ], [ 10.1804253, 47.2473624 ], [ 10.1775565, 47.2445061 ], [ 10.1686628, 47.2348421 ], [ 10.1618618, 47.227505 ], [ 10.1561206, 47.2217696 ], [ 10.1495067, 47.2148658 ], [ 10.1433019, 47.209903 ], [ 10.1374309, 47.2063788 ], [ 10.1428426, 47.1968804 ], [ 10.1602038, 47.1812035 ], [ 10.1639611, 47.1691543 ], [ 10.1656454, 47.1493314 ], [ 10.1595425, 47.1370148 ], [ 10.1863818, 47.1381174 ], [ 10.2018309, 47.1364955 ], [ 10.2040272, 47.1366379 ], [ 10.2040174, 47.136647 ], [ 10.2034094, 47.1372143 ], [ 10.2034295, 47.1391836 ], [ 10.2034623, 47.1423954 ], [ 10.2147176, 47.1438291 ], [ 10.221983, 47.1493954 ], [ 10.2257076, 47.1526732 ], [ 10.2127741, 47.1575893 ], [ 10.2068811, 47.1624039 ], [ 10.2118719, 47.1712243 ], [ 10.2038927, 47.1761448 ], [ 10.1969891, 47.1930467 ], [ 10.2116034, 47.2044237 ], [ 10.2121297, 47.2048333 ], [ 10.2139417, 47.2062434 ], [ 10.2125777, 47.2220421 ], [ 10.2093027, 47.2253832 ], [ 10.2094294, 47.2256314 ], [ 10.2105513, 47.2278272 ], [ 10.2082061, 47.2313903 ], [ 10.207862, 47.231913 ], [ 10.2075163, 47.2324381 ], [ 10.1980134, 47.2356383 ], [ 10.2003271, 47.2377473 ], [ 10.2114418, 47.2478776 ] ] ] ] } },
{ "type": "Feature", "properties": { "id": "AT-08-05-01", "start_date": "2022-10-01", "end_date": null }, "geometry": { "type": "MultiPolygon", "coordinates": [ [ [ [ 9.9146344, 46.9337578 ], [ 9.9139335, 46.9365947 ], [ 9.9113663, 46.9469843 ], [ 9.9183481, 46.9541049 ], [ 9.9199822, 46.9716989 ], [ 9.9476124, 47.0013819 ], [ 9.9557827, 47.0179443 ], [ 9.9631276, 47.0234166 ], [ 9.9599468, 47.026424 ], [ 9.9553854, 47.0301964 ], [ 9.9517007, 47.0333274 ], [ 9.9490503, 47.035536 ], [ 9.9466174, 47.0387043 ], [ 9.9451461, 47.0420918 ], [ 9.9435051, 47.0459509 ], [ 9.940713, 47.0525397 ], [ 9.9385511, 47.0558112 ], [ 9.9349663, 47.0595167 ], [ 9.9311147, 47.0630235 ], [ 9.9299289, 47.0636933 ], [ 9.9266276, 47.0655579 ], [ 9.9172527, 47.0703282 ], [ 9.9077037, 47.0756651 ], [ 9.8983093, 47.0806233 ], [ 9.8886321, 47.0856682 ], [ 9.8778387, 47.0906783 ], [ 9.8716192, 47.0940159 ], [ 9.8686901, 47.096119 ], [ 9.8671663, 47.0980743 ], [ 9.8661437, 47.1009028 ], [ 9.8651295, 47.1057332 ], [ 9.8643791, 47.1086653 ], [ 9.8628174, 47.1111913 ], [ 9.8614386, 47.1130557 ], [ 9.8591986, 47.1152749 ], [ 9.8576801, 47.117135 ], [ 9.8570415, 47.1183546 ], [ 9.8568854, 47.1207329 ], [ 9.8574137, 47.1233228 ], [ 9.8576882, 47.1255236 ], [ 9.8575696, 47.1273311 ], [ 9.8565064, 47.1286331 ], [ 9.8545881, 47.1301949 ], [ 9.851567, 47.1315322 ], [ 9.8476262, 47.1319834 ], [ 9.8449651, 47.1320925 ], [ 9.8419938, 47.1326685 ], [ 9.8402708, 47.1333782 ], [ 9.8370246, 47.1345369 ], [ 9.8366873, 47.1347832 ], [ 9.8351647, 47.1358952 ], [ 9.8340439, 47.1367137 ], [ 9.8316372, 47.1393087 ], [ 9.8267151, 47.1440185 ], [ 9.8201251, 47.1485813 ], [ 9.8134009, 47.1530443 ], [ 9.8094979, 47.1559113 ], [ 9.8068731, 47.1522057 ], [ 9.7828648, 47.1398283 ], [ 9.7790708, 47.129628 ], [ 9.749216, 47.1142652 ], [ 9.7383936, 47.1023854 ], [ 9.7367765, 47.0825444 ], [ 9.7385628, 47.0758768 ], [ 9.7448681, 47.0750489 ], [ 9.7530205, 47.0696352 ], [ 9.7567779, 47.0619594 ], [ 9.7574788, 47.0605275 ], [ 9.7552496, 47.0504007 ], [ 9.7561731, 47.0450507 ], [ 9.7519216, 47.037398 ], [ 9.7843099, 47.03833 ], [ 9.7929462, 47.0313641 ], [ 9.8360684, 47.0133456 ], [ 9.8616474, 47.0223145 ], [ 9.8768601, 47.021495 ], [ 9.881425, 47.018311 ], [ 9.8711155, 47.0135382 ], [ 9.8734125, 47.0064414 ], [ 9.8888053, 47.0008175 ], [ 9.8915608, 46.9888018 ], [ 9.8849097, 46.9856365 ], [ 9.8707769, 46.9631729 ], [ 9.8793076, 46.9565959 ], [ 9.8766634, 46.947788 ], [ 9.8806584, 46.9352016 ], [ 9.906438, 46.9252266 ], [ 9.9123393, 46.926139 ], [ 9.9146344, 46.9337578 ] ] ] ] } },
{ "type": "Feature", "properties": { "id": "AT-08-07", "start_date": "2022-10-01", "end_date": null }, "geometry": { "type": "MultiPolygon", "coordinates": [ [ [ [ 10.0369601, 47.4888606 ], [ 10.0283051, 47.4864238 ], [ 10.0108642, 47.4815132 ], [ 9.9993526, 47.482829 ], [ 9.987786, 47.4984086 ], [ 9.995402, 47.5028299 ], [ 9.9655937, 47.5231005 ], [ 9.9682878, 47.5252139 ], [ 9.9678673, 47.5282018 ], [ 9.966927, 47.5348823 ], [ 9.9696309, 47.5421101 ], [ 9.9682057, 47.5464401 ], [ 9.9590086, 47.543352 ], [ 9.956895, 47.5376848 ], [ 9.941354, 47.5381749 ], [ 9.9225853, 47.529861 ], [ 9.9145464, 47.5320713 ], [ 9.9068645, 47.5425482 ], [ 9.8809122, 47.5483125 ], [ 9.8756586, 47.5444598 ], [ 9.8784913, 47.5395153 ], [ 9.8744967, 47.5285262 ], [ 9.858472, 47.5339471 ], [ 9.8501655, 47.5417733 ], [ 9.8297487, 47.544599 ], [ 9.8201629, 47.5512078 ], [ 9.8259498, 47.5596387 ], [ 9.8209515, 47.5706884 ], [ 9.8275252, 47.5794601 ], [ 9.8205987, 47.5876768 ], [ 9.8000369, 47.596298 ], [ 9.7906895, 47.5937174 ], [ 9.7767622, 47.5955483 ], [ 9.7563967, 47.5794283 ], [ 9.7558348, 47.572545 ], [ 9.7478666, 47.5707954 ], [ 9.7472611, 47.5560417 ], [ 9.7418564, 47.5546106 ], [ 9.7359777, 47.547293 ], [ 9.7352736, 47.5461006 ], [ 9.736718, 47.5404265 ], [ 9.7362925, 47.5363618 ], [ 9.7353856, 47.5341886 ], [ 9.7353813, 47.534188 ], [ 9.7361475, 47.5318766 ], [ 9.7373094, 47.5304761 ], [ 9.7377027, 47.5300022 ], [ 9.7404075, 47.5281034 ], [ 9.7414613, 47.5275257 ], [ 9.7477542, 47.5240759 ], [ 9.749311, 47.5229724 ], [ 9.7504755, 47.5218838 ], [ 9.7524529, 47.5190142 ], [ 9.7533301, 47.5173422 ], [ 9.7535423, 47.5160396 ], [ 9.7530457, 47.5150471 ], [ 9.7519898, 47.5142365 ], [ 9.7504504, 47.5134979 ], [ 9.7503185, 47.5134347 ], [ 9.74392, 47.5113555 ], [ 9.7399449, 47.5104317 ], [ 9.7338813, 47.5094657 ], [ 9.730912, 47.5092568 ], [ 9.7275283, 47.5092767 ], [ 9.716091, 47.5101196 ], [ 9.7119361, 47.5102635 ], [ 9.7079445, 47.5100529 ], [ 9.7045057, 47.5094211 ], [ 9.7008368, 47.5082997 ], [ 9.6992039, 47.5074835 ], [ 9.69759, 47.5058815 ], [ 9.6968085, 47.5032128 ], [ 9.6966458, 47.5029913 ], [ 9.6961272, 47.5022853 ], [ 9.6948316, 47.5015349 ], [ 9.6913941, 47.5003038 ], [ 9.690057, 47.4996535 ], [ 9.6887384, 47.4986698 ], [ 9.685888, 47.49602 ], [ 9.6841742, 47.4949768 ], [ 9.6810037, 47.4942003 ], [ 9.6796884, 47.4940851 ], [ 9.6791613, 47.4941299 ], [ 9.6786819, 47.4941706 ], [ 9.6776882, 47.4947978 ], [ 9.6762586, 47.4972608 ], [ 9.6753743, 47.4980356 ], [ 9.674415, 47.4982834 ], [ 9.6731429, 47.4983748 ], [ 9.6712263, 47.4981877 ], [ 9.6700426, 47.4980721 ], [ 9.6676591, 47.4973902 ], [ 9.6655684, 47.4963187 ], [ 9.6647247, 47.495372 ], [ 9.6636955, 47.4928108 ], [ 9.6629794, 47.4918221 ], [ 9.6609544, 47.4906938 ], [ 9.6588362, 47.4901446 ], [ 9.6571581, 47.49006 ], [ 9.6552252, 47.490192 ], [ 9.6503755, 47.4911287 ], [ 9.646939, 47.4922162 ], [ 9.6458772, 47.4927936 ], [ 9.644957, 47.4935511 ], [ 9.6435145, 47.4956006 ], [ 9.6429362, 47.4978333 ], [ 9.6432686, 47.4990577 ], [ 9.6449011, 47.5021381 ], [ 9.6454058, 47.504295 ], [ 9.6454159, 47.5051459 ], [ 9.6450687, 47.505774 ], [ 9.6441022, 47.5064201 ], [ 9.6432323, 47.5066955 ], [ 9.6420874, 47.5067414 ], [ 9.6385298, 47.5062173 ], [ 9.6361751, 47.505339 ], [ 9.6352169, 47.5044565 ], [ 9.6334988, 47.5020125 ], [ 9.6310364, 47.4997424 ], [ 9.6276688, 47.4972367 ], [ 9.6241725, 47.4952611 ], [ 9.6209119, 47.493852 ], [ 9.6173059, 47.4926268 ], [ 9.6134381, 47.4916139 ], [ 9.6094161, 47.4908417 ], [ 9.6039728, 47.4902216 ], [ 9.5985701, 47.4900979 ], [ 9.5929399, 47.4904423 ], [ 9.5878945, 47.4912395 ], [ 9.5849637, 47.4920142 ], [ 9.5827905, 47.4929464 ], [ 9.580706, 47.4941918 ], [ 9.5756597, 47.497677 ], [ 9.5726417, 47.4991876 ], [ 9.5688713, 47.5003418 ], [ 9.5658989, 47.5010392 ], [ 9.5633353, 47.5013682 ], [ 9.5616295, 47.501351 ], [ 9.5640858, 47.493937 ], [ 9.5831151, 47.4819661 ], [ 9.596628, 47.4626262 ], [ 9.6037118, 47.4625367 ], [ 9.6073565, 47.4704031 ], [ 9.6229731, 47.4573874 ], [ 9.6532469, 47.4545494 ], [ 9.6612943, 47.4503451 ], [ 9.6546609, 47.4457151 ], [ 9.6493068, 47.4408953 ], [ 9.6471434, 47.4386807 ], [ 9.6461267, 47.436646 ], [ 9.6456758, 47.4340575 ], [ 9.6461509, 47.4302834 ], [ 9.6474768, 47.4263937 ], [ 9.6500184, 47.4201838 ], [ 9.6511383, 47.4147145 ], [ 9.6515676, 47.4100809 ], [ 9.651801, 47.4059538 ], [ 9.6590904, 47.3988714 ], [ 9.6737475, 47.3912405 ], [ 9.6739938, 47.383918 ], [ 9.6706574, 47.3778747 ], [ 9.6775431, 47.3740437 ], [ 9.6896161, 47.362435 ], [ 9.6908102, 47.3591182 ], [ 9.7029496, 47.3574599 ], [ 9.7079247, 47.3541431 ], [ 9.7116395, 47.3489026 ], [ 9.7197779, 47.3512151 ], [ 9.7237789, 47.352352 ], [ 9.7250223, 47.3518973 ], [ 9.7326678, 47.3491016 ], [ 9.739235, 47.3489026 ], [ 9.7493844, 47.3466472 ], [ 9.7569125, 47.347129 ], [ 9.7612222, 47.3502633 ], [ 9.7650851, 47.3530727 ], [ 9.7719384, 47.3580569 ], [ 9.7734432, 47.3583408 ], [ 9.7759576, 47.3588152 ], [ 9.7824857, 47.3600469 ], [ 9.7838895, 47.3610188 ], [ 9.790148, 47.3653516 ], [ 9.7919717, 47.3666141 ], [ 9.7991117, 47.3656638 ], [ 9.811408, 47.3640271 ], [ 9.8225523, 47.3680735 ], [ 9.8317066, 47.3677418 ], [ 9.8399985, 47.3743754 ], [ 9.8381412, 47.3803456 ], [ 9.8463667, 47.3840604 ], [ 9.8520053, 47.383994 ], [ 9.8546111, 47.3883353 ], [ 9.8521229, 47.3898799 ], [ 9.8514809, 47.3910995 ], [ 9.8510749, 47.3929935 ], [ 9.8509052, 47.395562 ], [ 9.8512644, 47.3986232 ], [ 9.8521257, 47.4004605 ], [ 9.8535412, 47.40241 ], [ 9.8547457, 47.4033046 ], [ 9.8572238, 47.4040472 ], [ 9.8609632, 47.4048281 ], [ 9.863613, 47.4050993 ], [ 9.8675364, 47.4052183 ], [ 9.8704852, 47.4052124 ], [ 9.8727272, 47.4052803 ], [ 9.8743899, 47.4056166 ], [ 9.8758876, 47.4063291 ], [ 9.8779021, 47.4077245 ], [ 9.8796178, 47.4093968 ], [ 9.8811186, 47.4122063 ], [ 9.882059, 47.414999 ], [ 9.8820682, 47.4170009 ], [ 9.8819248, 47.4191889 ], [ 9.8815183, 47.4217933 ], [ 9.8822299, 47.4231062 ], [ 9.8832702, 47.4243767 ], [ 9.8848464, 47.4260447 ], [ 9.8866065, 47.4270509 ], [ 9.8890551, 47.4282685 ], [ 9.8908153, 47.4292747 ], [ 9.8917344, 47.4302555 ], [ 9.8920866, 47.4313146 ], [ 9.892012, 47.4324562 ], [ 9.8913641, 47.4337711 ], [ 9.8907349, 47.4348007 ], [ 9.8893984, 47.4359043 ], [ 9.8890308, 47.4372276 ], [ 9.8886259, 47.4391218 ], [ 9.8885575, 47.4401682 ], [ 9.8888349, 47.4423689 ], [ 9.8889854, 47.4432743 ], [ 9.9055592, 47.4399634 ], [ 9.9225533, 47.4402053 ], [ 9.9332488, 47.447058 ], [ 9.9503618, 47.4507662 ], [ 9.9617575, 47.449964 ], [ 9.9722991, 47.442813 ], [ 9.988434, 47.4365086 ], [ 10.004225, 47.433413 ], [ 10.0180796, 47.432289 ], [ 10.0233504, 47.4244201 ], [ 10.0292163, 47.4183379 ], [ 10.0435378, 47.4199097 ], [ 10.0690246, 47.4093392 ], [ 10.074774, 47.414866 ], [ 10.0951544, 47.4177258 ], [ 10.1044556, 47.4301573 ], [ 10.0934264, 47.4419533 ], [ 10.0913351, 47.4583186 ], [ 10.0884359, 47.4600755 ], [ 10.0702362, 47.4555285 ], [ 10.064532, 47.4636278 ], [ 10.0539987, 47.4665256 ], [ 10.0476922, 47.4848872 ], [ 10.047205, 47.4863055 ], [ 10.0369601, 47.4888606 ] ] ] ] } }
]
}