{
"type": "FeatureCollection",
"name": "AD_micro-regions",
"crs": { "type": "name", "properties": { "name": "urn:ogc:def:crs:OGC:1.3:CRS84" } },
"features": [
{ "type": "Feature", "properties": { "id": "AD-01", "elevation": "low_high" }, "geometry": { "type": "MultiPolygon", "coordinates": [ [ [ [ 1.7787446, 42.5731655 ], [ 1.7744554, 42.5777846 ], [ 1.738611, 42.6163864 ], [ 1.6983333, 42.6261063 ], [ 1.5597222, 42.6559677 ], [ 1.4944733, 42.6510164 ], [ 1.4865277, 42.6504135 ], [ 1.4800652, 42.6427163 ], [ 1.4473962, 42.6038056 ], [ 1.4458332, 42.601944 ], [ 1.4407614, 42.5948132 ], [ 1.4348187, 42.5886179 ], [ 1.4295838, 42.588804 ], [ 1.4282501, 42.5888513 ], [ 1.4278635, 42.5881496 ], [ 1.4280978, 42.5877792 ], [ 1.4281008, 42.5877726 ], [ 1.4290722, 42.5857546 ], [ 1.4286732, 42.5815479 ], [ 1.4292813, 42.5798823 ], [ 1.4336137, 42.5744856 ], [ 1.435148, 42.5741667 ], [ 1.4426748, 42.5726024 ], [ 1.4443027, 42.5716481 ], [ 1.4452677, 42.5669882 ], [ 1.4451863, 42.5669212 ], [ 1.4459813, 42.5663461 ], [ 1.4474052, 42.5653161 ], [ 1.4491241, 42.5650582 ], [ 1.4508449, 42.5646644 ], [ 1.4526935, 42.5639093 ], [ 1.4542377, 42.563016 ], [ 1.4543694, 42.5623832 ], [ 1.4554738, 42.5622561 ], [ 1.4565866, 42.5615404 ], [ 1.4587914, 42.5615578 ], [ 1.4597152, 42.5612029 ], [ 1.4626653, 42.5605016 ], [ 1.465808, 42.5591679 ], [ 1.4702283, 42.5584327 ], [ 1.4760695, 42.5611494 ], [ 1.4779335, 42.5636089 ], [ 1.4805377, 42.5657117 ], [ 1.4841506, 42.5657847 ], [ 1.4864806, 42.5656214 ], [ 1.4888591, 42.566364 ], [ 1.4909314, 42.5671043 ], [ 1.4928213, 42.5677525 ], [ 1.4945932, 42.5680829 ], [ 1.4959313, 42.5687721 ], [ 1.4969606, 42.5696402 ], [ 1.4995164, 42.570882 ], [ 1.5018847, 42.5723939 ], [ 1.5025386, 42.5738477 ], [ 1.5064466, 42.5747825 ], [ 1.5087174, 42.5744825 ], [ 1.5108001, 42.574498 ], [ 1.5115897, 42.5750019 ], [ 1.5136068, 42.5753337 ], [ 1.5152547, 42.5757987 ], [ 1.5181136, 42.5773139 ], [ 1.5201327, 42.5775099 ], [ 1.5226304, 42.5785696 ], [ 1.5242851, 42.5785364 ], [ 1.5257613, 42.5780944 ], [ 1.5274766, 42.5781068 ], [ 1.5292525, 42.578165 ], [ 1.5311462, 42.5785862 ], [ 1.531384, 42.5791313 ], [ 1.5322369, 42.5794997 ], [ 1.5330297, 42.5797771 ], [ 1.5346844, 42.5797437 ], [ 1.5367084, 42.5795772 ], [ 1.5391594, 42.5795495 ], [ 1.5429505, 42.5801199 ], [ 1.5458281, 42.5802762 ], [ 1.5486297, 42.5815639 ], [ 1.5501531, 42.5822086 ], [ 1.5508089, 42.5836168 ], [ 1.5535635, 42.5838173 ], [ 1.5549055, 42.5842795 ], [ 1.5558887, 42.5840601 ], [ 1.5577867, 42.5841639 ], [ 1.5604796, 42.5844091 ], [ 1.5613332, 42.584732 ], [ 1.5622551, 42.584512 ], [ 1.5650734, 42.5845316 ], [ 1.5655624, 42.5846255 ], [ 1.5656432, 42.5830866 ], [ 1.566206, 42.582185 ], [ 1.5665181, 42.5817344 ], [ 1.5663509, 42.5804201 ], [ 1.5664294, 42.5790623 ], [ 1.5664328, 42.5787907 ], [ 1.5671107, 42.5784784 ], [ 1.5670638, 42.5773462 ], [ 1.566896, 42.5760772 ], [ 1.5668451, 42.5752619 ], [ 1.5664833, 42.5748066 ], [ 1.5660001, 42.5742599 ], [ 1.5657654, 42.5734433 ], [ 1.5658485, 42.5717233 ], [ 1.5658623, 42.5706367 ], [ 1.5667347, 42.5694655 ], [ 1.5674829, 42.5684293 ], [ 1.5674966, 42.5673427 ], [ 1.5679488, 42.5654895 ], [ 1.5685189, 42.5639992 ], [ 1.5700077, 42.5625153 ], [ 1.571557, 42.5610771 ], [ 1.5724315, 42.5597248 ], [ 1.5728166, 42.5583238 ], [ 1.5725263, 42.5570541 ], [ 1.5748732, 42.5554854 ], [ 1.5772784, 42.5541435 ], [ 1.5789987, 42.5537025 ], [ 1.5810745, 42.5542147 ], [ 1.5838167, 42.5553199 ], [ 1.5886967, 42.5568923 ], [ 1.5904726, 42.5569042 ], [ 1.591875, 42.5574116 ], [ 1.5938336, 42.5575153 ], [ 1.595919, 42.5572575 ], [ 1.5978235, 42.5567721 ], [ 1.5995431, 42.556376 ], [ 1.6010894, 42.5551185 ], [ 1.6012278, 42.5538064 ], [ 1.6014919, 42.5522234 ], [ 1.6018751, 42.5509129 ], [ 1.6024383, 42.5499205 ], [ 1.6045934, 42.5489386 ], [ 1.6058874, 42.5482679 ], [ 1.6066373, 42.5470051 ], [ 1.6081816, 42.5458833 ], [ 1.6094203, 42.5447142 ], [ 1.6101734, 42.5431797 ], [ 1.6102378, 42.5429084 ], [ 1.6109677, 42.5433207 ], [ 1.6133468, 42.5440606 ], [ 1.6139033, 42.5436115 ], [ 1.6150016, 42.5439355 ], [ 1.6155462, 42.5444824 ], [ 1.6167003, 42.5452596 ], [ 1.6183423, 42.546221 ], [ 1.6187666, 42.546586 ], [ 1.6202371, 42.5465049 ], [ 1.6207759, 42.5475497 ], [ 1.6210752, 42.5481403 ], [ 1.622542, 42.5483761 ], [ 1.6243789, 42.5483879 ], [ 1.625849, 42.548352 ], [ 1.6279251, 42.5454671 ], [ 1.627603, 42.5449674 ], [ 1.6299381, 42.5442578 ], [ 1.6306305, 42.5426322 ], [ 1.6298509, 42.5412237 ], [ 1.6297463, 42.5396836 ], [ 1.6290892, 42.5382758 ], [ 1.6293409, 42.5376888 ], [ 1.6302054, 42.5370604 ], [ 1.6321351, 42.5343108 ], [ 1.6336336, 42.5317847 ], [ 1.635165, 42.5317038 ], [ 1.6356667, 42.5306656 ], [ 1.6368459, 42.5292695 ], [ 1.6369866, 42.5276857 ], [ 1.6379224, 42.5261521 ], [ 1.6381807, 42.5249765 ], [ 1.6390444, 42.5243934 ], [ 1.6412509, 42.5241355 ], [ 1.6442464, 42.5244712 ], [ 1.647299, 42.5251693 ], [ 1.6502997, 42.525052 ], [ 1.6514004, 42.5251493 ], [ 1.6530714, 42.5235297 ], [ 1.653944, 42.5221314 ], [ 1.6567068, 42.5213787 ], [ 1.6587912, 42.5210744 ], [ 1.6601478, 42.5201772 ], [ 1.660048, 42.5181391 ], [ 1.659262, 42.5172741 ], [ 1.6590945, 42.5158242 ], [ 1.6591086, 42.5145565 ], [ 1.6586322, 42.5133764 ], [ 1.6586549, 42.5113391 ], [ 1.658673, 42.5097093 ], [ 1.6594816, 42.508537 ], [ 1.6618114, 42.5081437 ], [ 1.6640182, 42.5077948 ], [ 1.6653012, 42.5079837 ], [ 1.666038, 42.5077618 ], [ 1.6667221, 42.5067698 ], [ 1.6672827, 42.5058677 ], [ 1.6690606, 42.5055614 ], [ 1.6705306, 42.5054344 ], [ 1.6709639, 42.5049842 ], [ 1.6709733, 42.504124 ], [ 1.671408, 42.503538 ], [ 1.6717811, 42.5029969 ], [ 1.6725217, 42.5024128 ], [ 1.6727744, 42.5016899 ], [ 1.6729673, 42.5008308 ], [ 1.6732521, 42.5002486 ], [ 1.6742962, 42.4990198 ], [ 1.6747031, 42.4987584 ], [ 1.6758171, 42.4975878 ], [ 1.6768694, 42.4964622 ], [ 1.6789059, 42.4948443 ], [ 1.6790328, 42.4947131 ], [ 1.6863769, 42.4944822 ], [ 1.6948178, 42.4945786 ], [ 1.7029244, 42.4913977 ], [ 1.7014953, 42.4979431 ], [ 1.7088996, 42.500137 ], [ 1.7207872, 42.5026071 ], [ 1.7236109, 42.5094376 ], [ 1.7240391, 42.5199624 ], [ 1.7240557, 42.520369 ], [ 1.724097, 42.5213852 ], [ 1.7418748, 42.5606232 ], [ 1.7713888, 42.571106 ], [ 1.7776488, 42.5704125 ], [ 1.7817197, 42.5699615 ], [ 1.7803404, 42.571447 ], [ 1.7790538, 42.5728325 ], [ 1.7787446, 42.5731655 ] ] ] ] } },
{ "type": "Feature", "properties": { "id": "AD-02", "elevation": "low_high" }, "geometry": { "type": "MultiPolygon", "coordinates": [ [ [ [ 1.4459813, 42.5663461 ], [ 1.4451863, 42.5669212 ], [ 1.4414768, 42.5638679 ], [ 1.4347798, 42.5619113 ], [ 1.4279144, 42.5591493 ], [ 1.4251272, 42.5574371 ], [ 1.4229064, 42.5519664 ], [ 1.4200622, 42.5487887 ], [ 1.4185859, 42.5437467 ], [ 1.4144916, 42.5359483 ], [ 1.427687, 42.5391518 ], [ 1.4369691, 42.5424264 ], [ 1.4437772, 42.542519 ], [ 1.4516533, 42.5395949 ], [ 1.4552016, 42.5276466 ], [ 1.4591179, 42.5256069 ], [ 1.4645755, 42.5170159 ], [ 1.4683197, 42.5101312 ], [ 1.4700534, 42.5105273 ], [ 1.4715761, 42.5110372 ], [ 1.4733461, 42.5113679 ], [ 1.4745655, 42.5116943 ], [ 1.4755987, 42.5122004 ], [ 1.4769392, 42.5126182 ], [ 1.4794482, 42.5126376 ], [ 1.4804878, 42.5126909 ], [ 1.4820661, 42.5136086 ], [ 1.4834679, 42.5140268 ], [ 1.4854867, 42.5140876 ], [ 1.4866469, 42.5142776 ], [ 1.4880556, 42.5141978 ], [ 1.4890373, 42.5140241 ], [ 1.4906296, 42.5139457 ], [ 1.4925891, 42.51387 ], [ 1.4939897, 42.5143787 ], [ 1.4956463, 42.5140743 ], [ 1.4973536, 42.51454 ], [ 1.4980142, 42.5154505 ], [ 1.5011791, 42.5167421 ], [ 1.5028945, 42.5166192 ], [ 1.5038068, 42.5170335 ], [ 1.5055834, 42.5169109 ], [ 1.5058783, 42.5177281 ], [ 1.5061757, 42.5183643 ], [ 1.5083665, 42.5192861 ], [ 1.5090874, 42.5202876 ], [ 1.5111406, 42.5223404 ], [ 1.5125788, 42.5246149 ], [ 1.5134333, 42.5248023 ], [ 1.5156171, 42.5262674 ], [ 1.5180484, 42.5275531 ], [ 1.5188447, 42.5275136 ], [ 1.5199337, 42.5284725 ], [ 1.5212761, 42.5287993 ], [ 1.5222639, 42.5281726 ], [ 1.5226372, 42.5277226 ], [ 1.5242959, 42.5272819 ], [ 1.5248037, 42.5259273 ], [ 1.5256, 42.5258878 ], [ 1.5273343, 42.524361 ], [ 1.5283184, 42.524006 ], [ 1.5296685, 42.5237441 ], [ 1.5313834, 42.523666 ], [ 1.5318773, 42.5233526 ], [ 1.5329178, 42.5233601 ], [ 1.5340266, 42.5228248 ], [ 1.5351271, 42.5229233 ], [ 1.5369638, 42.5228912 ], [ 1.5380714, 42.5224464 ], [ 1.5401476, 42.5228235 ], [ 1.5413729, 42.5227417 ], [ 1.5421626, 42.5232002 ], [ 1.543508, 42.5233003 ], [ 1.544665, 42.5237613 ], [ 1.5461951, 42.5237722 ], [ 1.5463322, 42.5226413 ], [ 1.5468318, 42.5218751 ], [ 1.5469118, 42.5204268 ], [ 1.5469218, 42.5196572 ], [ 1.5480293, 42.5192122 ], [ 1.5487095, 42.5186737 ], [ 1.5487154, 42.518221 ], [ 1.5492073, 42.5180434 ], [ 1.5493444, 42.5169124 ], [ 1.5497285, 42.5156021 ], [ 1.549316, 42.5143767 ], [ 1.5485904, 42.5136924 ], [ 1.5477437, 42.5129167 ], [ 1.5473229, 42.5123251 ], [ 1.5464721, 42.5118663 ], [ 1.5458643, 42.511545 ], [ 1.5471617, 42.5106034 ], [ 1.5530128, 42.5077018 ], [ 1.5552971, 42.5061332 ], [ 1.5570121, 42.5060094 ], [ 1.5580558, 42.505745 ], [ 1.5586781, 42.5049344 ], [ 1.5593009, 42.5040785 ], [ 1.5606568, 42.5033182 ], [ 1.5607272, 42.5025943 ], [ 1.5621466, 42.5016534 ], [ 1.5640415, 42.5018024 ], [ 1.5653269, 42.501766 ], [ 1.5664843, 42.5021816 ], [ 1.5678286, 42.5023267 ], [ 1.5688624, 42.5028319 ], [ 1.5705133, 42.5029338 ], [ 1.5727782, 42.5028589 ], [ 1.5746194, 42.5024187 ], [ 1.5764442, 42.5032915 ], [ 1.5782186, 42.5033036 ], [ 1.5793811, 42.5033115 ], [ 1.5806603, 42.503773 ], [ 1.5815776, 42.5038245 ], [ 1.5823067, 42.5042369 ], [ 1.5842613, 42.5045218 ], [ 1.5854228, 42.5046203 ], [ 1.5863967, 42.5050343 ], [ 1.587003, 42.5054912 ], [ 1.5878568, 42.5057233 ], [ 1.5887151, 42.5055933 ], [ 1.5898176, 42.5055101 ], [ 1.5904907, 42.5055146 ], [ 1.59178, 42.5051611 ], [ 1.59264, 42.5048952 ], [ 1.5936212, 42.5047206 ], [ 1.5949149, 42.5040048 ], [ 1.5958977, 42.5036944 ], [ 1.5964534, 42.5032907 ], [ 1.5971887, 42.503205 ], [ 1.5978005, 42.5032091 ], [ 1.5982917, 42.5030765 ], [ 1.5987855, 42.5027176 ], [ 1.5990325, 42.5025381 ], [ 1.5994629, 42.5023598 ], [ 1.6004435, 42.5022305 ], [ 1.6009374, 42.5018716 ], [ 1.6019797, 42.5016973 ], [ 1.603028, 42.5010251 ], [ 1.604197, 42.5004895 ], [ 1.6053654, 42.4999991 ], [ 1.6073909, 42.4994691 ], [ 1.6085556, 42.4992957 ], [ 1.6099638, 42.4992143 ], [ 1.61113, 42.498905 ], [ 1.6119892, 42.4986842 ], [ 1.6128485, 42.4984634 ], [ 1.6137667, 42.4984241 ], [ 1.6144391, 42.4984738 ], [ 1.6152957, 42.4984793 ], [ 1.6158425, 42.4987998 ], [ 1.6163304, 42.4989388 ], [ 1.6180397, 42.4992668 ], [ 1.6187154, 42.4990448 ], [ 1.6187744, 42.4992263 ], [ 1.6206646, 42.4997818 ], [ 1.6221936, 42.4998369 ], [ 1.6239099, 42.4995763 ], [ 1.6242823, 42.4991259 ], [ 1.6254574, 42.4980468 ], [ 1.626325, 42.4971015 ], [ 1.6263324, 42.4964677 ], [ 1.6257275, 42.4958752 ], [ 1.6246327, 42.4953249 ], [ 1.6240858, 42.4950045 ], [ 1.6236054, 42.4942317 ], [ 1.6239187, 42.4935998 ], [ 1.6265698, 42.491851 ], [ 1.6287916, 42.4901899 ], [ 1.6307543, 42.4897496 ], [ 1.6313718, 42.4892555 ], [ 1.6315637, 42.4885323 ], [ 1.6333434, 42.4880456 ], [ 1.6350624, 42.4875131 ], [ 1.6376383, 42.4869407 ], [ 1.6398507, 42.4860491 ], [ 1.6423658, 42.485431 ], [ 1.6448845, 42.4844959 ], [ 1.6462934, 42.4843235 ], [ 1.6470947, 42.4837852 ], [ 1.6497269, 42.4836204 ], [ 1.6511357, 42.483448 ], [ 1.6524156, 42.4838633 ], [ 1.6545125, 42.4823368 ], [ 1.6561174, 42.4810337 ], [ 1.6572861, 42.4804522 ], [ 1.6580868, 42.4799591 ], [ 1.6590669, 42.4798292 ], [ 1.6596865, 42.4791086 ], [ 1.6603047, 42.4785238 ], [ 1.6604275, 42.4784792 ], [ 1.6626115, 42.4763438 ], [ 1.662802, 42.4848937 ], [ 1.6631107, 42.4915724 ], [ 1.6657308, 42.4956079 ], [ 1.670063, 42.504002 ], [ 1.6732521, 42.5002486 ], [ 1.6729673, 42.5008308 ], [ 1.6727744, 42.5016899 ], [ 1.6725217, 42.5024128 ], [ 1.6717811, 42.5029969 ], [ 1.671408, 42.503538 ], [ 1.6709733, 42.504124 ], [ 1.6709639, 42.5049842 ], [ 1.6705306, 42.5054344 ], [ 1.6690606, 42.5055614 ], [ 1.6672827, 42.5058677 ], [ 1.6667221, 42.5067698 ], [ 1.666038, 42.5077618 ], [ 1.6653012, 42.5079837 ], [ 1.6640182, 42.5077948 ], [ 1.6618114, 42.5081437 ], [ 1.6594816, 42.508537 ], [ 1.658673, 42.5097093 ], [ 1.6586549, 42.5113391 ], [ 1.6586322, 42.5133764 ], [ 1.6591086, 42.5145565 ], [ 1.6590945, 42.5158242 ], [ 1.659262, 42.5172741 ], [ 1.660048, 42.5181391 ], [ 1.6601478, 42.5201772 ], [ 1.6587912, 42.5210744 ], [ 1.6567068, 42.5213787 ], [ 1.653944, 42.5221314 ], [ 1.6530714, 42.5235297 ], [ 1.6514004, 42.5251493 ], [ 1.6502997, 42.525052 ], [ 1.647299, 42.5251693 ], [ 1.6442464, 42.5244712 ], [ 1.6412509, 42.5241355 ], [ 1.6390444, 42.5243934 ], [ 1.6381807, 42.5249765 ], [ 1.6379224, 42.5261521 ], [ 1.6369866, 42.5276857 ], [ 1.6368459, 42.5292695 ], [ 1.6356667, 42.5306656 ], [ 1.635165, 42.5317038 ], [ 1.6336336, 42.5317847 ], [ 1.6321351, 42.5343108 ], [ 1.6302054, 42.5370604 ], [ 1.6293409, 42.5376888 ], [ 1.6290892, 42.5382758 ], [ 1.6297463, 42.5396836 ], [ 1.6298509, 42.5412237 ], [ 1.6306305, 42.5426322 ], [ 1.6299381, 42.5442578 ], [ 1.627603, 42.5449674 ], [ 1.6279251, 42.5454671 ], [ 1.625849, 42.548352 ], [ 1.6243789, 42.5483879 ], [ 1.622542, 42.5483761 ], [ 1.6210752, 42.5481403 ], [ 1.6207759, 42.5475497 ], [ 1.6202371, 42.5465049 ], [ 1.6187666, 42.546586 ], [ 1.6183423, 42.546221 ], [ 1.6167003, 42.5452596 ], [ 1.6155462, 42.5444824 ], [ 1.6150016, 42.5439355 ], [ 1.6139033, 42.5436115 ], [ 1.6133468, 42.5440606 ], [ 1.6109677, 42.5433207 ], [ 1.6102378, 42.5429084 ], [ 1.6101734, 42.5431797 ], [ 1.6094203, 42.5447142 ], [ 1.6081816, 42.5458833 ], [ 1.6066373, 42.5470051 ], [ 1.6058874, 42.5482679 ], [ 1.6045934, 42.5489386 ], [ 1.6024383, 42.5499205 ], [ 1.6018751, 42.5509129 ], [ 1.6014919, 42.5522234 ], [ 1.6012278, 42.5538064 ], [ 1.6010894, 42.5551185 ], [ 1.5995431, 42.556376 ], [ 1.5978235, 42.5567721 ], [ 1.595919, 42.5572575 ], [ 1.5938336, 42.5575153 ], [ 1.591875, 42.5574116 ], [ 1.5904726, 42.5569042 ], [ 1.5886967, 42.5568923 ], [ 1.5838167, 42.5553199 ], [ 1.5810745, 42.5542147 ], [ 1.5789987, 42.5537025 ], [ 1.5772784, 42.5541435 ], [ 1.5748732, 42.5554854 ], [ 1.5725263, 42.5570541 ], [ 1.5728166, 42.5583238 ], [ 1.5724315, 42.5597248 ], [ 1.571557, 42.5610771 ], [ 1.5700077, 42.5625153 ], [ 1.5685189, 42.5639992 ], [ 1.5679488, 42.5654895 ], [ 1.5674966, 42.5673427 ], [ 1.5674829, 42.5684293 ], [ 1.5667347, 42.5694655 ], [ 1.5658623, 42.5706367 ], [ 1.5658485, 42.5717233 ], [ 1.5657654, 42.5734433 ], [ 1.5660001, 42.5742599 ], [ 1.5664833, 42.5748066 ], [ 1.5668451, 42.5752619 ], [ 1.566896, 42.5760772 ], [ 1.5670638, 42.5773462 ], [ 1.5671107, 42.5784784 ], [ 1.5664328, 42.5787907 ], [ 1.5664294, 42.5790623 ], [ 1.5663509, 42.5804201 ], [ 1.5665181, 42.5817344 ], [ 1.566206, 42.582185 ], [ 1.5656432, 42.5830866 ], [ 1.5655624, 42.5846255 ], [ 1.5650734, 42.5845316 ], [ 1.5622551, 42.584512 ], [ 1.5613332, 42.584732 ], [ 1.5604796, 42.5844091 ], [ 1.5577867, 42.5841639 ], [ 1.5558887, 42.5840601 ], [ 1.5549055, 42.5842795 ], [ 1.5535635, 42.5838173 ], [ 1.5508089, 42.5836168 ], [ 1.5501531, 42.5822086 ], [ 1.5486297, 42.5815639 ], [ 1.5458281, 42.5802762 ], [ 1.5429505, 42.5801199 ], [ 1.5391594, 42.5795495 ], [ 1.5367084, 42.5795772 ], [ 1.5346844, 42.5797437 ], [ 1.5330297, 42.5797771 ], [ 1.5322369, 42.5794997 ], [ 1.531384, 42.5791313 ], [ 1.5311462, 42.5785862 ], [ 1.5292525, 42.578165 ], [ 1.5274766, 42.5781068 ], [ 1.5257613, 42.5780944 ], [ 1.5242851, 42.5785364 ], [ 1.5226304, 42.5785696 ], [ 1.5201327, 42.5775099 ], [ 1.5181136, 42.5773139 ], [ 1.5152547, 42.5757987 ], [ 1.5136068, 42.5753337 ], [ 1.5115897, 42.5750019 ], [ 1.5108001, 42.574498 ], [ 1.5087174, 42.5744825 ], [ 1.5064466, 42.5747825 ], [ 1.5025386, 42.5738477 ], [ 1.5018847, 42.5723939 ], [ 1.4995164, 42.570882 ], [ 1.4969606, 42.5696402 ], [ 1.4959313, 42.5687721 ], [ 1.4945932, 42.5680829 ], [ 1.4928213, 42.5677525 ], [ 1.4909314, 42.5671043 ], [ 1.4888591, 42.566364 ], [ 1.4864806, 42.5656214 ], [ 1.4841506, 42.5657847 ], [ 1.4805377, 42.5657117 ], [ 1.4779335, 42.5636089 ], [ 1.4760695, 42.5611494 ], [ 1.4702283, 42.5584327 ], [ 1.465808, 42.5591679 ], [ 1.4626653, 42.5605016 ], [ 1.4597152, 42.5612029 ], [ 1.4587914, 42.5615578 ], [ 1.4565866, 42.5615404 ], [ 1.4554738, 42.5622561 ], [ 1.4543694, 42.5623832 ], [ 1.4542377, 42.563016 ], [ 1.4526935, 42.5639093 ], [ 1.4508449, 42.5646644 ], [ 1.4491241, 42.5650582 ], [ 1.4474052, 42.5653161 ], [ 1.4459813, 42.5663461 ] ] ], [ [ [ 1.6747031, 42.4987584 ], [ 1.6742962, 42.4990198 ], [ 1.6779259, 42.4947479 ], [ 1.6790328, 42.4947131 ], [ 1.6789059, 42.4948443 ], [ 1.6768694, 42.4964622 ], [ 1.6758171, 42.4975878 ], [ 1.6747031, 42.4987584 ] ] ] ] } },
{ "type": "Feature", "properties": { "id": "AD-03", "elevation": "low_high" }, "geometry": { "type": "MultiPolygon", "coordinates": [ [ [ [ 1.443181, 42.4579574 ], [ 1.4516863, 42.4469281 ], [ 1.4557885, 42.4441762 ], [ 1.4613824, 42.4414241 ], [ 1.4759267, 42.4381215 ], [ 1.4837582, 42.4356444 ], [ 1.5300015, 42.4356444 ], [ 1.5423082, 42.4370206 ], [ 1.5564796, 42.4477536 ], [ 1.5568036, 42.447818 ], [ 1.5565676, 42.4479498 ], [ 1.5591164, 42.4502154 ], [ 1.5570257, 42.4548432 ], [ 1.5601573, 42.458453 ], [ 1.5657675, 42.4591183 ], [ 1.5714845, 42.4554233 ], [ 1.5755164, 42.4520876 ], [ 1.5815328, 42.4495405 ], [ 1.5845213, 42.45692 ], [ 1.5902294, 42.4636654 ], [ 1.5987023, 42.4677743 ], [ 1.6032758, 42.4648263 ], [ 1.6102386, 42.4650216 ], [ 1.6170683, 42.4651042 ], [ 1.6227058, 42.464577 ], [ 1.6312747, 42.462494 ], [ 1.6361449, 42.466557 ], [ 1.6415602, 42.4662876 ], [ 1.6455285, 42.4684192 ], [ 1.6548012, 42.4670407 ], [ 1.6575564, 42.4697508 ], [ 1.6625714, 42.4745447 ], [ 1.6626115, 42.4763438 ], [ 1.6604275, 42.4784792 ], [ 1.6603047, 42.4785238 ], [ 1.6596865, 42.4791086 ], [ 1.6590669, 42.4798292 ], [ 1.6580868, 42.4799591 ], [ 1.6572861, 42.4804522 ], [ 1.6561174, 42.4810337 ], [ 1.6545125, 42.4823368 ], [ 1.6524156, 42.4838633 ], [ 1.6511357, 42.483448 ], [ 1.6497269, 42.4836204 ], [ 1.6470947, 42.4837852 ], [ 1.6462934, 42.4843235 ], [ 1.6448845, 42.4844959 ], [ 1.6423658, 42.485431 ], [ 1.6398507, 42.4860491 ], [ 1.6376383, 42.4869407 ], [ 1.6350624, 42.4875131 ], [ 1.6333434, 42.4880456 ], [ 1.6315637, 42.4885323 ], [ 1.6313718, 42.4892555 ], [ 1.6307543, 42.4897496 ], [ 1.6287916, 42.4901899 ], [ 1.6265698, 42.491851 ], [ 1.6239187, 42.4935998 ], [ 1.6236054, 42.4942317 ], [ 1.6240858, 42.4950045 ], [ 1.6246327, 42.4953249 ], [ 1.6257275, 42.4958752 ], [ 1.6263324, 42.4964677 ], [ 1.626325, 42.4971015 ], [ 1.6254574, 42.4980468 ], [ 1.6242823, 42.4991259 ], [ 1.6239099, 42.4995763 ], [ 1.6221936, 42.4998369 ], [ 1.6206646, 42.4997818 ], [ 1.6187744, 42.4992263 ], [ 1.6187154, 42.4990448 ], [ 1.6180397, 42.4992668 ], [ 1.6163304, 42.4989388 ], [ 1.6158425, 42.4987998 ], [ 1.6152957, 42.4984793 ], [ 1.6144391, 42.4984738 ], [ 1.6137667, 42.4984241 ], [ 1.6128485, 42.4984634 ], [ 1.6119892, 42.4986842 ], [ 1.61113, 42.498905 ], [ 1.6099638, 42.4992143 ], [ 1.6085556, 42.4992957 ], [ 1.6073909, 42.4994691 ], [ 1.6053654, 42.4999991 ], [ 1.604197, 42.5004895 ], [ 1.603028, 42.5010251 ], [ 1.6019797, 42.5016973 ], [ 1.6009374, 42.5018716 ], [ 1.6004435, 42.5022305 ], [ 1.5994629, 42.5023598 ], [ 1.5990325, 42.5025381 ], [ 1.5987855, 42.5027176 ], [ 1.5982917, 42.5030765 ], [ 1.5978005, 42.5032091 ], [ 1.5971887, 42.503205 ], [ 1.5964534, 42.5032907 ], [ 1.5958977, 42.5036944 ], [ 1.5949149, 42.5040048 ], [ 1.5936212, 42.5047206 ], [ 1.59264, 42.5048952 ], [ 1.59178, 42.5051611 ], [ 1.5904907, 42.5055146 ], [ 1.5898176, 42.5055101 ], [ 1.5887151, 42.5055933 ], [ 1.5878568, 42.5057233 ], [ 1.587003, 42.5054912 ], [ 1.5863967, 42.5050343 ], [ 1.5854228, 42.5046203 ], [ 1.5842613, 42.5045218 ], [ 1.5823067, 42.5042369 ], [ 1.5815776, 42.5038245 ], [ 1.5806603, 42.503773 ], [ 1.5793811, 42.5033115 ], [ 1.5782186, 42.5033036 ], [ 1.5764442, 42.5032915 ], [ 1.5746194, 42.5024187 ], [ 1.5727782, 42.5028589 ], [ 1.5705133, 42.5029338 ], [ 1.5688624, 42.5028319 ], [ 1.5678286, 42.5023267 ], [ 1.5664843, 42.5021816 ], [ 1.5653269, 42.501766 ], [ 1.5640415, 42.5018024 ], [ 1.5621466, 42.5016534 ], [ 1.5607272, 42.5025943 ], [ 1.5606568, 42.5033182 ], [ 1.5593009, 42.5040785 ], [ 1.5586781, 42.5049344 ], [ 1.5580558, 42.505745 ], [ 1.5570121, 42.5060094 ], [ 1.5552971, 42.5061332 ], [ 1.5530128, 42.5077018 ], [ 1.5471617, 42.5106034 ], [ 1.5458643, 42.511545 ], [ 1.5464721, 42.5118663 ], [ 1.5473229, 42.5123251 ], [ 1.5477437, 42.5129167 ], [ 1.5485904, 42.5136924 ], [ 1.549316, 42.5143767 ], [ 1.5497285, 42.5156021 ], [ 1.5493444, 42.5169124 ], [ 1.5492073, 42.5180434 ], [ 1.5487154, 42.518221 ], [ 1.5487095, 42.5186737 ], [ 1.5480293, 42.5192122 ], [ 1.5469218, 42.5196572 ], [ 1.5469118, 42.5204268 ], [ 1.5468318, 42.5218751 ], [ 1.5463322, 42.5226413 ], [ 1.5461951, 42.5237722 ], [ 1.544665, 42.5237613 ], [ 1.543508, 42.5233003 ], [ 1.5421626, 42.5232002 ], [ 1.5413729, 42.5227417 ], [ 1.5401476, 42.5228235 ], [ 1.5380714, 42.5224464 ], [ 1.5369638, 42.5228912 ], [ 1.5351271, 42.5229233 ], [ 1.5340266, 42.5228248 ], [ 1.5329178, 42.5233601 ], [ 1.5318773, 42.5233526 ], [ 1.5313834, 42.523666 ], [ 1.5296685, 42.5237441 ], [ 1.5283184, 42.524006 ], [ 1.5273343, 42.524361 ], [ 1.5256, 42.5258878 ], [ 1.5248037, 42.5259273 ], [ 1.5242959, 42.5272819 ], [ 1.5226372, 42.5277226 ], [ 1.5222639, 42.5281726 ], [ 1.5212761, 42.5287993 ], [ 1.5199337, 42.5284725 ], [ 1.5188447, 42.5275136 ], [ 1.5180484, 42.5275531 ], [ 1.5156171, 42.5262674 ], [ 1.5134333, 42.5248023 ], [ 1.5125788, 42.5246149 ], [ 1.5111406, 42.5223404 ], [ 1.5090874, 42.5202876 ], [ 1.5083665, 42.5192861 ], [ 1.5061757, 42.5183643 ], [ 1.5058783, 42.5177281 ], [ 1.5055834, 42.5169109 ], [ 1.5038068, 42.5170335 ], [ 1.5028945, 42.5166192 ], [ 1.5011791, 42.5167421 ], [ 1.4980142, 42.5154505 ], [ 1.4973536, 42.51454 ], [ 1.4956463, 42.5140743 ], [ 1.4939897, 42.5143787 ], [ 1.4925891, 42.51387 ], [ 1.4906296, 42.5139457 ], [ 1.4890373, 42.5140241 ], [ 1.4880556, 42.5141978 ], [ 1.4866469, 42.5142776 ], [ 1.4854867, 42.5140876 ], [ 1.4834679, 42.5140268 ], [ 1.4820661, 42.5136086 ], [ 1.4804878, 42.5126909 ], [ 1.4794482, 42.5126376 ], [ 1.4769392, 42.5126182 ], [ 1.4755987, 42.5122004 ], [ 1.4745655, 42.5116943 ], [ 1.4733461, 42.5113679 ], [ 1.4715761, 42.5110372 ], [ 1.4700534, 42.5105273 ], [ 1.4683197, 42.5101312 ], [ 1.4685586, 42.5096918 ], [ 1.4601147, 42.5042083 ], [ 1.4544302, 42.5015512 ], [ 1.4423966, 42.4952866 ], [ 1.4322918, 42.492808 ], [ 1.4247298, 42.492984 ], [ 1.4217839, 42.4894128 ], [ 1.4172054, 42.4836692 ], [ 1.4320301, 42.4832524 ], [ 1.4395212, 42.4775657 ], [ 1.4386612, 42.4744617 ], [ 1.4396832, 42.4675509 ], [ 1.4449233, 42.4619564 ], [ 1.443181, 42.4579574 ] ] ] ] } }
]
}
