{
"type": "FeatureCollection",
"name": "SE_micro-regions_elevation",
"crs": { "type": "name", "properties": { "name": "urn:ogc:def:crs:OGC:1.3:CRS84" } },
"features": [
{ "type": "Feature", "properties": { "id": "SE-02", "elevation": "low_high", "elevation line_visualization": null, "threshold": null }, "geometry": { "type": "MultiPolygon", "coordinates": [ [ [ [ 18.6668929, 68.068168 ], [ 18.7624251, 68.0753182 ], [ 18.8826899, 68.1101612 ], [ 18.9320299, 68.1695704 ], [ 19.0897559, 68.1797916 ], [ 19.1561087, 68.1645602 ], [ 19.2394438, 68.1617015 ], [ 19.3245061, 68.1344896 ], [ 19.4012632, 68.1117415 ], [ 19.4374779, 68.0982135 ], [ 19.5231129, 68.0985837 ], [ 19.541219, 68.100004 ], [ 19.5828201, 68.1077633 ], [ 19.6532401, 68.124394 ], [ 19.7232957, 68.1358895 ], [ 19.7817361, 68.1483842 ], [ 19.7816719, 68.1802175 ], [ 19.7687216, 68.2083697 ], [ 19.7479743, 68.2213981 ], [ 19.6800978, 68.2479381 ], [ 19.5859602, 68.2561642 ], [ 19.5456687, 68.2639667 ], [ 19.4890411, 68.2995839 ], [ 19.1127053, 68.369608 ], [ 18.6560392, 68.4604255 ], [ 18.6268223, 68.499373 ], [ 18.6268223, 68.499373 ], [ 18.6273855, 68.5052512 ], [ 18.6215283, 68.5069695 ], [ 18.5976227, 68.5159394 ], [ 18.5523052, 68.5329437 ], [ 18.485997, 68.5562805 ], [ 18.4655323, 68.5628002 ], [ 18.4353533, 68.5724146 ], [ 18.4130444, 68.5795219 ], [ 18.405669, 68.5818715 ], [ 18.405669, 68.5818715 ], [ 18.1259253, 68.5365152 ], [ 18.1115134, 68.4610472 ], [ 18.1010097, 68.4060441 ], [ 18.1228416, 68.3167652 ], [ 18.1516721, 68.198866 ], [ 18.0940546, 68.1463689 ], [ 18.0949484, 68.146293 ], [ 18.1708372, 68.1437969 ], [ 18.1919886, 68.1431195 ], [ 18.2344456, 68.1417515 ], [ 18.2668692, 68.1405876 ], [ 18.2746765, 68.1403064 ], [ 18.3416584, 68.1378782 ], [ 18.3529285, 68.1374347 ], [ 18.4142996, 68.1350058 ], [ 18.4471413, 68.1337024 ], [ 18.4514922, 68.1335424 ], [ 18.4605202, 68.1332825 ], [ 18.4638386, 68.133217 ], [ 18.4855574, 68.1327867 ], [ 18.4918267, 68.1298194 ], [ 18.5511101, 68.1015467 ], [ 18.5702158, 68.0924159 ], [ 18.57084, 68.0922159 ], [ 18.5890774, 68.0863989 ], [ 18.628314, 68.0831549 ], [ 18.6408226, 68.0821252 ], [ 18.6586383, 68.072555 ], [ 18.6668903, 68.0681683 ], [ 18.6668929, 68.068168 ] ], [ [ 18.7234267, 68.3605754 ], [ 18.722179, 68.3607726 ], [ 18.7225355, 68.3613642 ], [ 18.7218225, 68.3645847 ], [ 18.7237832, 68.3647162 ], [ 18.7312697, 68.3653076 ], [ 18.7359042, 68.3655048 ], [ 18.7398256, 68.3660305 ], [ 18.7433906, 68.3668191 ], [ 18.7523031, 68.3681334 ], [ 18.756581, 68.3668848 ], [ 18.760146, 68.3653076 ], [ 18.7642457, 68.3641247 ], [ 18.7674542, 68.3630731 ], [ 18.7690585, 68.3620215 ], [ 18.7678107, 68.3605754 ], [ 18.7647805, 68.3589321 ], [ 18.760146, 68.3578145 ], [ 18.7574723, 68.3574858 ], [ 18.7517683, 68.3576831 ], [ 18.7462426, 68.357946 ], [ 18.7419646, 68.3588006 ], [ 18.7357259, 68.3593265 ], [ 18.7298437, 68.3599839 ], [ 18.7246745, 68.3605754 ], [ 18.7234267, 68.3605754 ] ], [ [ 18.6508794, 68.3962398 ], [ 18.6638916, 68.3993898 ], [ 18.6722693, 68.4014895 ], [ 18.6695956, 68.4053604 ], [ 18.6715563, 68.407066 ], [ 18.6793993, 68.4056884 ], [ 18.6793993, 68.4052292 ], [ 18.6824295, 68.402933 ], [ 18.6811817, 68.3990617 ], [ 18.6774385, 68.3955835 ], [ 18.6751213, 68.3932863 ], [ 18.6722693, 68.3912515 ], [ 18.6706651, 68.3902012 ], [ 18.6681696, 68.3886256 ], [ 18.6685261, 68.3875752 ], [ 18.6674566, 68.3858025 ], [ 18.6631786, 68.3830446 ], [ 18.6458885, 68.3853428 ], [ 18.6425017, 68.3882974 ], [ 18.643393, 68.3914484 ], [ 18.6451755, 68.3934832 ], [ 18.6508794, 68.3962398 ] ], [ [ 18.118899, 68.4100849 ], [ 18.1134029, 68.4104976 ], [ 18.1084676, 68.4110342 ], [ 18.1057756, 68.411777 ], [ 18.1025024, 68.4127787 ], [ 18.1052407, 68.4269943 ], [ 18.1071347, 68.4276752 ], [ 18.1103744, 68.428114 ], [ 18.1137394, 68.4282377 ], [ 18.1204694, 68.4265881 ], [ 18.1234979, 68.4254332 ], [ 18.1273115, 68.4249795 ], [ 18.1371822, 68.425227 ], [ 18.1418931, 68.4247733 ], [ 18.1453703, 68.4239896 ], [ 18.1486231, 68.4235771 ], [ 18.1529976, 68.4230821 ], [ 18.1563626, 68.4224221 ], [ 18.1591668, 68.4211433 ], [ 18.1600641, 68.4199882 ], [ 18.1605128, 68.4189569 ], [ 18.1562504, 68.4182142 ], [ 18.149857, 68.4168114 ], [ 18.1418931, 68.415491 ], [ 18.1353875, 68.4129326 ], [ 18.1309008, 68.4107866 ], [ 18.1264142, 68.4093833 ], [ 18.118899, 68.4100849 ] ] ] ] } },
{ "type": "Feature", "properties": { "id": "SE-08", "elevation": "low_high", "elevation line_visualization": null, "threshold": null }, "geometry": { "type": "MultiPolygon", "coordinates": [ [ [ [ 18.0940546, 68.1463689 ], [ 17.9132517, 67.9816341 ], [ 17.912397, 67.9808553 ], [ 17.8997991, 67.969377 ], [ 17.9000038, 67.9687924 ], [ 17.9000038, 67.9687924 ], [ 17.9295307, 67.9134029 ], [ 17.9665065, 67.8770575 ], [ 18.01928, 67.8383589 ], [ 18.1014299, 67.822655 ], [ 18.2649162, 67.8135824 ], [ 18.4125164, 67.8293976 ], [ 18.4677029, 67.82672 ], [ 18.5187557, 67.825584 ], [ 18.6152261, 67.8229568 ], [ 18.6682588, 67.8233631 ], [ 18.8646171, 67.8167915 ], [ 18.9077097, 67.8148074 ], [ 18.9544912, 67.8163589 ], [ 18.9755345, 67.8215349 ], [ 19.0237942, 67.849073 ], [ 19.0736415, 67.8857532 ], [ 19.1012546, 67.9052872 ], [ 19.0429343, 67.9461846 ], [ 18.8589234, 68.0004359 ], [ 18.7534657, 68.0222795 ], [ 18.6625889, 68.0437897 ], [ 18.662355, 68.0439877 ], [ 18.6668902, 68.0681678 ], [ 18.6668929, 68.068168 ], [ 18.6668903, 68.0681683 ], [ 18.6586383, 68.072555 ], [ 18.6408226, 68.0821252 ], [ 18.628314, 68.0831549 ], [ 18.5890774, 68.0863989 ], [ 18.57084, 68.0922159 ], [ 18.5702158, 68.0924159 ], [ 18.5511101, 68.1015467 ], [ 18.4918267, 68.1298194 ], [ 18.4855574, 68.1327867 ], [ 18.4638386, 68.133217 ], [ 18.4605202, 68.1332825 ], [ 18.4514922, 68.1335424 ], [ 18.4471413, 68.1337024 ], [ 18.4142996, 68.1350058 ], [ 18.3529285, 68.1374347 ], [ 18.3416584, 68.1378782 ], [ 18.2746765, 68.1403064 ], [ 18.2668692, 68.1405876 ], [ 18.2344456, 68.1417515 ], [ 18.1919886, 68.1431195 ], [ 18.1708372, 68.1437969 ], [ 18.0949484, 68.146293 ], [ 18.0940546, 68.1463689 ] ] ] ] } },
{ "type": "Feature", "properties": { "id": "SE-07", "elevation": "low_high", "elevation line_visualization": null, "threshold": null }, "geometry": { "type": "MultiPolygon", "coordinates": [ [ [ [ 12.1935944, 62.9815649 ], [ 12.1915793, 62.981379 ], [ 12.1262117, 62.9393221 ], [ 12.0746156, 62.902373 ], [ 12.1364906, 62.7479268 ], [ 12.0559731, 62.6118976 ], [ 12.081645, 62.574076 ], [ 12.171923, 62.5570486 ], [ 12.2072148, 62.5461325 ], [ 12.2438693, 62.5288405 ], [ 12.2608662, 62.5265512 ], [ 12.2932742, 62.5267324 ], [ 12.3683867, 62.5288272 ], [ 12.4108554, 62.5358836 ], [ 12.4575608, 62.5323647 ], [ 12.6325434, 62.5495068 ], [ 12.8609859, 62.5888251 ], [ 12.9527208, 62.6028992 ], [ 12.8305641, 62.8152455 ], [ 12.8506178, 62.8282506 ], [ 12.9026267, 62.8355552 ], [ 12.9320653, 62.8438834 ], [ 13.0964792, 62.8836313 ], [ 13.3549102, 62.9010031 ], [ 13.3674705, 62.9059118 ], [ 13.3731586, 62.907795 ], [ 13.3827495, 62.9086929 ], [ 13.3850497, 62.9088663 ], [ 13.3668885, 62.9607934 ], [ 13.3671371, 62.998635 ], [ 13.3836731, 63.0299731 ], [ 13.3723505, 63.0339736 ], [ 13.316747, 63.0216283 ], [ 13.2912502, 63.0256775 ], [ 13.2627476, 63.0326367 ], [ 13.2300364, 63.0356808 ], [ 13.0949951, 62.9714305 ], [ 12.6597809, 62.9733333 ], [ 12.4619202, 62.9494008 ], [ 12.4389277, 62.9560914 ], [ 12.3928601, 62.965369 ], [ 12.3832244, 62.969796 ], [ 12.373413, 62.9721865 ], [ 12.3632245, 62.9828413 ], [ 12.3228405, 62.9784554 ], [ 12.3003851, 62.9787723 ], [ 12.2727097, 62.9839708 ], [ 12.2661442, 62.9832361 ], [ 12.2201885, 62.9836467 ], [ 12.2126958, 62.9833267 ], [ 12.1942246, 62.9816174 ], [ 12.1935944, 62.9815649 ] ], [ [ 12.3746758, 62.6917263 ], [ 12.373986, 62.6919277 ], [ 12.3721677, 62.6927044 ], [ 12.370412, 62.6967025 ], [ 12.3717914, 62.7004125 ], [ 12.3666498, 62.7030294 ], [ 12.3688444, 62.7060198 ], [ 12.3734217, 62.7075437 ], [ 12.3772466, 62.7069111 ], [ 12.3801309, 62.7063936 ], [ 12.3818865, 62.7050135 ], [ 12.3844573, 62.7031444 ], [ 12.3858995, 62.702368 ], [ 12.3867146, 62.7019654 ], [ 12.3887211, 62.7009589 ], [ 12.3905395, 62.7001537 ], [ 12.3958692, 62.6958397 ], [ 12.3961827, 62.6954082 ], [ 12.3969351, 62.6951781 ], [ 12.397813, 62.6948042 ], [ 12.3978757, 62.694344 ], [ 12.3979384, 62.6939988 ], [ 12.3976248, 62.6935386 ], [ 12.3965589, 62.6930208 ], [ 12.3964962, 62.6915825 ], [ 12.3960573, 62.6908633 ], [ 12.3956184, 62.690777 ], [ 12.3948032, 62.6903455 ], [ 12.3941135, 62.6903743 ], [ 12.3941135, 62.6902592 ], [ 12.3932357, 62.6901729 ], [ 12.3933611, 62.6898277 ], [ 12.393173, 62.6895975 ], [ 12.3916681, 62.6894249 ], [ 12.3900379, 62.6887632 ], [ 12.3874671, 62.6879577 ], [ 12.3850844, 62.6884755 ], [ 12.380946, 62.6899428 ], [ 12.3772466, 62.691151 ], [ 12.3746758, 62.6917263 ] ], [ [ 12.5396786, 62.5523357 ], [ 12.5399482, 62.5537857 ], [ 12.540847, 62.5550285 ], [ 12.5410717, 62.557079 ], [ 12.5422402, 62.5573689 ], [ 12.5431839, 62.5578453 ], [ 12.5464196, 62.5603305 ], [ 12.5493407, 62.5607653 ], [ 12.5514978, 62.5595228 ], [ 12.5535651, 62.5577003 ], [ 12.5541043, 62.5567269 ], [ 12.5544639, 62.5564369 ], [ 12.5552278, 62.5563541 ], [ 12.5565311, 62.5563955 ], [ 12.5576097, 62.5563955 ], [ 12.558104, 62.5563333 ], [ 12.559632, 62.5553806 ], [ 12.5600814, 62.5541378 ], [ 12.5606207, 62.5523978 ], [ 12.5605308, 62.5522528 ], [ 12.5600814, 62.5520043 ], [ 12.5599466, 62.5513621 ], [ 12.5589129, 62.5511549 ], [ 12.5577894, 62.5505542 ], [ 12.5571603, 62.5501399 ], [ 12.5544508, 62.5492592 ], [ 12.551432, 62.548667 ], [ 12.5532954, 62.5469701 ], [ 12.5543865, 62.5461744 ], [ 12.5508237, 62.545582 ], [ 12.54988, 62.5459549 ], [ 12.5467791, 62.5483582 ], [ 12.5442625, 62.550202 ], [ 12.5399033, 62.5520664 ], [ 12.5396786, 62.5523357 ] ], [ [ 12.2127528, 62.5683838 ], [ 12.2119385, 62.5697772 ], [ 12.2124038, 62.5709562 ], [ 12.2163591, 62.5723494 ], [ 12.2195001, 62.572671 ], [ 12.2218267, 62.5731532 ], [ 12.2234554, 62.5736355 ], [ 12.2265964, 62.5743321 ], [ 12.227876, 62.5737962 ], [ 12.2322966, 62.5719207 ], [ 12.2356703, 62.5699916 ], [ 12.2427665, 62.5692413 ], [ 12.2470708, 62.5672048 ], [ 12.2575407, 62.5615231 ], [ 12.2568427, 62.560183 ], [ 12.2564937, 62.5581458 ], [ 12.2560284, 62.5562157 ], [ 12.2553304, 62.5545536 ], [ 12.2540508, 62.5533204 ], [ 12.2513751, 62.5519798 ], [ 12.2502118, 62.5511755 ], [ 12.2485831, 62.5496203 ], [ 12.2471872, 62.5491377 ], [ 12.2459075, 62.5488159 ], [ 12.2441625, 62.5488696 ], [ 12.2414869, 62.5497276 ], [ 12.2375316, 62.5507465 ], [ 12.2354376, 62.5511219 ], [ 12.233111, 62.5521943 ], [ 12.2332273, 62.5529986 ], [ 12.2340416, 62.5543391 ], [ 12.2328783, 62.555197 ], [ 12.2309006, 62.5560013 ], [ 12.2288067, 62.5562693 ], [ 12.2279923, 62.5564302 ], [ 12.2252004, 62.5573416 ], [ 12.2229901, 62.5588427 ], [ 12.2215941, 62.5603438 ], [ 12.2200818, 62.5617911 ], [ 12.2201981, 62.5629168 ], [ 12.2198491, 62.5642569 ], [ 12.2183368, 62.5653825 ], [ 12.2150795, 62.5666688 ], [ 12.2127528, 62.5683838 ] ], [ [ 12.3049684, 62.5354189 ], [ 12.3027386, 62.5343906 ], [ 12.300991, 62.534196 ], [ 12.3003883, 62.5344739 ], [ 12.2993638, 62.5361416 ], [ 12.3011718, 62.5389763 ], [ 12.3034618, 62.5408382 ], [ 12.30533, 62.5402825 ], [ 12.3079213, 62.5396989 ], [ 12.3084637, 62.5388652 ], [ 12.3078611, 62.5378647 ], [ 12.3062942, 62.536225 ], [ 12.3049684, 62.5354189 ] ], [ [ 12.8043957, 62.8662437 ], [ 12.8055976, 62.8661371 ], [ 12.806666, 62.8657869 ], [ 12.8080348, 62.8651778 ], [ 12.8085356, 62.8647819 ], [ 12.809003, 62.8644622 ], [ 12.8094037, 62.8641576 ], [ 12.8094371, 62.864051 ], [ 12.8096374, 62.8638835 ], [ 12.8095038, 62.8635637 ], [ 12.8093035, 62.8626348 ], [ 12.8093035, 62.8620409 ], [ 12.8093369, 62.861584 ], [ 12.8090364, 62.8609901 ], [ 12.8086692, 62.8604266 ], [ 12.8092033, 62.859726 ], [ 12.8078345, 62.8591168 ], [ 12.8050968, 62.8586904 ], [ 12.801224, 62.8577156 ], [ 12.7983194, 62.8570911 ], [ 12.797251, 62.8566799 ], [ 12.7975181, 62.8563143 ], [ 12.7962828, 62.8555528 ], [ 12.795782, 62.8550349 ], [ 12.7964164, 62.8547454 ], [ 12.7959823, 62.8545779 ], [ 12.7953814, 62.8546997 ], [ 12.7937454, 62.8556441 ], [ 12.7948138, 62.8562534 ], [ 12.7957486, 62.8567104 ], [ 12.7969839, 62.8573501 ], [ 12.7975849, 62.8578984 ], [ 12.7971509, 62.8587818 ], [ 12.7966501, 62.8598022 ], [ 12.7958822, 62.8608073 ], [ 12.7958822, 62.8616449 ], [ 12.7963162, 62.8627262 ], [ 12.7970507, 62.8637465 ], [ 12.7980857, 62.8642033 ], [ 12.7994211, 62.8647058 ], [ 12.7992542, 62.8653758 ], [ 12.7994211, 62.8658174 ], [ 12.800623, 62.8660001 ], [ 12.8026262, 62.8661828 ], [ 12.8043957, 62.8662437 ] ], [ [ 12.7059231, 62.8780715 ], [ 12.7059728, 62.8779358 ], [ 12.7059231, 62.8776795 ], [ 12.7058404, 62.8773251 ], [ 12.7057908, 62.8770009 ], [ 12.7058239, 62.8768048 ], [ 12.7058404, 62.8765636 ], [ 12.7055262, 62.876458 ], [ 12.7045504, 62.8759302 ], [ 12.702417, 62.8754401 ], [ 12.7017058, 62.8747539 ], [ 12.7012758, 62.8743165 ], [ 12.700515, 62.8741054 ], [ 12.69729, 62.8742713 ], [ 12.6956527, 62.8746483 ], [ 12.6951234, 62.8757718 ], [ 12.6952226, 62.8765636 ], [ 12.695388, 62.8772271 ], [ 12.6959173, 62.877868 ], [ 12.696678, 62.8782902 ], [ 12.69729, 62.8784938 ], [ 12.6983484, 62.8787275 ], [ 12.6994731, 62.8788557 ], [ 12.7005315, 62.8789461 ], [ 12.7013916, 62.8790215 ], [ 12.7019869, 62.8790065 ], [ 12.7024996, 62.8789763 ], [ 12.7034589, 62.8789009 ], [ 12.7040377, 62.8788029 ], [ 12.7044347, 62.8786521 ], [ 12.7049639, 62.8785164 ], [ 12.7053774, 62.8783807 ], [ 12.7056254, 62.87826 ], [ 12.7059231, 62.8780715 ] ] ] ] } },
{ "type": "Feature", "properties": { "id": "SE-03", "elevation": "low_high", "elevation line_visualization": null, "threshold": null }, "geometry": { "type": "MultiPolygon", "coordinates": [ [ [ [ 13.3850497, 62.9088663 ], [ 13.3882698, 62.9091089 ], [ 13.4272108, 62.9085978 ], [ 13.5825647, 62.8779488 ], [ 13.6503835, 62.8766035 ], [ 13.7225196, 62.878005 ], [ 13.7909259, 62.8684943 ], [ 13.8907346, 62.8878059 ], [ 13.9684585, 62.9448784 ], [ 14.0108407, 63.0250326 ], [ 14.0080929, 63.1078391 ], [ 13.8798415, 63.210708 ], [ 13.7305361, 63.2421867 ], [ 13.5578939, 63.2642042 ], [ 13.4328916, 63.2808337 ], [ 13.3713706, 63.3129099 ], [ 13.3272935, 63.3570437 ], [ 13.264907, 63.4381252 ], [ 13.059366, 63.530915 ], [ 12.9238145, 63.5527386 ], [ 12.815822, 63.5505287 ], [ 12.7771296, 63.5309435 ], [ 12.7570874, 63.4740865 ], [ 12.7128911, 63.4272862 ], [ 12.5404402, 63.3567652 ], [ 12.4227548, 63.3219372 ], [ 12.3735606, 63.3073361 ], [ 12.3253361, 63.2998583 ], [ 12.2321347, 63.3136993 ], [ 12.1958472, 63.3174263 ], [ 12.1399117, 63.3241008 ], [ 12.1069662, 63.3437594 ], [ 12.0967243, 63.3545667 ], [ 12.0840878, 63.3553451 ], [ 11.9748787, 63.269268 ], [ 12.2177217, 63.0007051 ], [ 12.1909231, 62.9816751 ], [ 12.190735, 62.9813434 ], [ 12.1938013, 62.981584 ], [ 12.1935944, 62.9815649 ], [ 12.1942246, 62.9816174 ], [ 12.2126958, 62.9833267 ], [ 12.2201885, 62.9836467 ], [ 12.2661442, 62.9832361 ], [ 12.2727097, 62.9839708 ], [ 12.3003851, 62.9787723 ], [ 12.3228405, 62.9784554 ], [ 12.3632245, 62.9828413 ], [ 12.373413, 62.9721865 ], [ 12.3832244, 62.969796 ], [ 12.3928601, 62.965369 ], [ 12.4389277, 62.9560914 ], [ 12.4619202, 62.9494008 ], [ 12.6597809, 62.9733333 ], [ 13.0949951, 62.9714305 ], [ 13.2300364, 63.0356808 ], [ 13.2627476, 63.0326367 ], [ 13.2912502, 63.0256775 ], [ 13.316747, 63.0216283 ], [ 13.3723505, 63.0339736 ], [ 13.3836731, 63.0299731 ], [ 13.3671371, 62.998635 ], [ 13.3668885, 62.9607934 ], [ 13.3850497, 62.9088663 ] ], [ [ 13.0537964, 63.4369178 ], [ 13.06408, 63.4371439 ], [ 13.065657, 63.4375557 ], [ 13.0677888, 63.4384255 ], [ 13.0688003, 63.4386516 ], [ 13.0701633, 63.4384618 ], [ 13.0707308, 63.4385073 ], [ 13.0717674, 63.4377802 ], [ 13.070569, 63.4363284 ], [ 13.0712722, 63.4349981 ], [ 13.0743617, 63.4342307 ], [ 13.0750379, 63.4339775 ], [ 13.0757122, 63.4333743 ], [ 13.0763866, 63.4326204 ], [ 13.0750379, 63.4318664 ], [ 13.0733521, 63.4311877 ], [ 13.0730149, 63.4304337 ], [ 13.073091, 63.4297947 ], [ 13.0739647, 63.4295896 ], [ 13.0760494, 63.429378 ], [ 13.0795896, 63.429001 ], [ 13.0838042, 63.4290764 ], [ 13.0870073, 63.4296042 ], [ 13.0907161, 63.4302075 ], [ 13.0927391, 63.4307353 ], [ 13.0940878, 63.4305091 ], [ 13.0954364, 63.4299059 ], [ 13.0966165, 63.4291518 ], [ 13.097628, 63.4285485 ], [ 13.0989767, 63.4272665 ], [ 13.1009997, 63.4262862 ], [ 13.1011683, 63.4261353 ], [ 13.101674, 63.4253812 ], [ 13.1011683, 63.424627 ], [ 13.1008311, 63.4237973 ], [ 13.101674, 63.422666 ], [ 13.1022781, 63.4217511 ], [ 13.1023483, 63.420554 ], [ 13.1024897, 63.4193082 ], [ 13.1023096, 63.4189212 ], [ 13.1024273, 63.418351 ], [ 13.1043607, 63.4171346 ], [ 13.1046813, 63.4166314 ], [ 13.1047092, 63.4166279 ], [ 13.1049789, 63.4165059 ], [ 13.1048112, 63.4161249 ], [ 13.1053482, 63.4157445 ], [ 13.1062143, 63.415541 ], [ 13.106645, 63.4154616 ], [ 13.1075744, 63.4150471 ], [ 13.107743, 63.4147453 ], [ 13.1074058, 63.4144435 ], [ 13.107167, 63.4139444 ], [ 13.1066288, 63.4133966 ], [ 13.1061555, 63.4131703 ], [ 13.1047734, 63.4132167 ], [ 13.1034897, 63.4131192 ], [ 13.101941, 63.4131361 ], [ 13.1005651, 63.4135236 ], [ 13.099886, 63.4134729 ], [ 13.0996563, 63.4131609 ], [ 13.0992358, 63.4128009 ], [ 13.0999285, 63.4122672 ], [ 13.1007284, 63.4120577 ], [ 13.1021096, 63.4120798 ], [ 13.103164, 63.4121285 ], [ 13.1039043, 63.4122991 ], [ 13.1050027, 63.4122649 ], [ 13.1066665, 63.4125353 ], [ 13.1080802, 63.4122555 ], [ 13.1095272, 63.4118393 ], [ 13.1101434, 63.4113633 ], [ 13.1109241, 63.410647 ], [ 13.1118476, 63.4104299 ], [ 13.1125637, 63.4096747 ], [ 13.1131042, 63.4092058 ], [ 13.1146549, 63.408709 ], [ 13.1165093, 63.4081808 ], [ 13.1272986, 63.4056904 ], [ 13.1301645, 63.4041809 ], [ 13.1299959, 63.402294 ], [ 13.1289844, 63.4001806 ], [ 13.1330304, 63.39701 ], [ 13.1441569, 63.3936882 ], [ 13.1552834, 63.3910455 ], [ 13.161521, 63.39097 ], [ 13.1701187, 63.3907435 ], [ 13.1755133, 63.3899884 ], [ 13.1787164, 63.3888557 ], [ 13.1805708, 63.387874 ], [ 13.1830996, 63.3840224 ], [ 13.178885, 63.3840224 ], [ 13.1761877, 63.3844756 ], [ 13.1739961, 63.3850042 ], [ 13.1706244, 63.3857595 ], [ 13.1662413, 63.3862881 ], [ 13.1621953, 63.3862881 ], [ 13.159498, 63.3863636 ], [ 13.1541033, 63.385986 ], [ 13.1525861, 63.3848532 ], [ 13.1500573, 63.3841735 ], [ 13.1441569, 63.3840979 ], [ 13.1369078, 63.3855329 ], [ 13.1348848, 63.3862881 ], [ 13.1298274, 63.3881761 ], [ 13.1267929, 63.3887047 ], [ 13.123084, 63.3894598 ], [ 13.117015, 63.3907435 ], [ 13.1109461, 63.3913476 ], [ 13.1055514, 63.3918761 ], [ 13.1018426, 63.3923291 ], [ 13.0969537, 63.3938392 ], [ 13.0944249, 63.3947452 ], [ 13.0905475, 63.3963306 ], [ 13.0853215, 63.3981424 ], [ 13.0836356, 63.3986708 ], [ 13.0832985, 63.3991238 ], [ 13.0844785, 63.3997276 ], [ 13.0811069, 63.4007089 ], [ 13.0649229, 63.4050866 ], [ 13.0583482, 63.4063696 ], [ 13.047896, 63.407728 ], [ 13.0445244, 63.4086335 ], [ 13.0436815, 63.4103691 ], [ 13.0384554, 63.4124064 ], [ 13.0335665, 63.4135381 ], [ 13.028509, 63.4147453 ], [ 13.0248002, 63.416405 ], [ 13.020417, 63.4185928 ], [ 13.0187312, 63.4196488 ], [ 13.0182254, 63.4202523 ], [ 13.0178883, 63.4234202 ], [ 13.0165396, 63.4260599 ], [ 13.015703, 63.42726 ], [ 13.016134, 63.4294806 ], [ 13.0159963, 63.4303648 ], [ 13.0160252, 63.4311464 ], [ 13.0169228, 63.4330254 ], [ 13.0179702, 63.4339555 ], [ 13.0195654, 63.4343154 ], [ 13.021126, 63.4345173 ], [ 13.0239139, 63.4349981 ], [ 13.0271912, 63.4355396 ], [ 13.0314838, 63.4362586 ], [ 13.0340279, 63.4365464 ], [ 13.0445244, 63.4368424 ], [ 13.0537964, 63.4369178 ] ], [ [ 12.9217327, 63.3961096 ], [ 12.9199298, 63.3959174 ], [ 12.9187278, 63.39511 ], [ 12.9191571, 63.3945332 ], [ 12.9191571, 63.3938796 ], [ 12.9188995, 63.3933028 ], [ 12.9188137, 63.3932644 ], [ 12.9176975, 63.3933413 ], [ 12.9165814, 63.3949946 ], [ 12.9161521, 63.3960712 ], [ 12.9165814, 63.3986855 ], [ 12.9149502, 63.3994928 ], [ 12.9129755, 63.4014918 ], [ 12.9121169, 63.4039519 ], [ 12.9135765, 63.4053356 ], [ 12.9176975, 63.407142 ], [ 12.9242226, 63.4095632 ], [ 12.9280002, 63.4098322 ], [ 12.932894, 63.4101012 ], [ 12.9352979, 63.4100628 ], [ 12.9358989, 63.4097938 ], [ 12.9364999, 63.4092173 ], [ 12.9373585, 63.4088715 ], [ 12.9381312, 63.4085256 ], [ 12.9386463, 63.408295 ], [ 12.939419, 63.4076417 ], [ 12.939419, 63.4073342 ], [ 12.9397624, 63.406604 ], [ 12.9407068, 63.4055278 ], [ 12.9413937, 63.4050281 ], [ 12.9419947, 63.404221 ], [ 12.9430249, 63.4033753 ], [ 12.9435401, 63.4029525 ], [ 12.9456006, 63.4025681 ], [ 12.9472318, 63.4024144 ], [ 12.9497217, 63.4019531 ], [ 12.9514388, 63.4018378 ], [ 12.9539286, 63.4018378 ], [ 12.9563325, 63.4019531 ], [ 12.9573628, 63.40203 ], [ 12.9579638, 63.4024144 ], [ 12.9595092, 63.4033369 ], [ 12.9606253, 63.4043363 ], [ 12.9615697, 63.4052203 ], [ 12.9644029, 63.4076417 ], [ 12.9637161, 63.4084872 ], [ 12.9619131, 63.4090636 ], [ 12.961999, 63.4095632 ], [ 12.9641454, 63.4111388 ], [ 12.9656049, 63.4118689 ], [ 12.9681806, 63.4122916 ], [ 12.970327, 63.4129833 ], [ 12.9706704, 63.4131754 ], [ 12.9707563, 63.4175555 ], [ 12.9794277, 63.417786 ], [ 12.9828619, 63.4173634 ], [ 12.9841497, 63.4167487 ], [ 12.9850083, 63.4159034 ], [ 12.9853517, 63.4152503 ], [ 12.9856093, 63.4145202 ], [ 12.9855234, 63.4135596 ], [ 12.9852658, 63.4129448 ], [ 12.9862102, 63.4121379 ], [ 12.9869829, 63.4112541 ], [ 12.9877556, 63.4103702 ], [ 12.9877556, 63.4093711 ], [ 12.9875839, 63.4084487 ], [ 12.9869829, 63.4079107 ], [ 12.9812306, 63.4068346 ], [ 12.9793418, 63.4060275 ], [ 12.9782257, 63.4049513 ], [ 12.9777106, 63.4034138 ], [ 12.9767661, 63.4024913 ], [ 12.9743622, 63.4018762 ], [ 12.9716148, 63.4008768 ], [ 12.9689533, 63.3995313 ], [ 12.9672362, 63.3989546 ], [ 12.9626, 63.3979935 ], [ 12.9584789, 63.3974168 ], [ 12.9520397, 63.3966094 ], [ 12.9464591, 63.396225 ], [ 12.9395907, 63.3961481 ], [ 12.9327223, 63.3960712 ], [ 12.9254245, 63.3959558 ], [ 12.9217327, 63.3961096 ] ], [ [ 13.7944438, 63.1200737 ], [ 13.7987961, 63.1203911 ], [ 13.8011828, 63.1202641 ], [ 13.8056755, 63.1195024 ], [ 13.8084834, 63.1187407 ], [ 13.8101682, 63.1180424 ], [ 13.8132569, 63.1168997 ], [ 13.8164861, 63.1156935 ], [ 13.8166265, 63.1151856 ], [ 13.8155033, 63.1150586 ], [ 13.8126953, 63.1155665 ], [ 13.8119934, 63.1149951 ], [ 13.8124145, 63.1129 ], [ 13.8142397, 63.1091537 ], [ 13.8108702, 63.105915 ], [ 13.8079219, 63.1040732 ], [ 13.8037099, 63.103184 ], [ 13.7917762, 63.1000082 ], [ 13.7792809, 63.094799 ], [ 13.7728226, 63.092766 ], [ 13.7715591, 63.0876191 ], [ 13.7715591, 63.0866023 ], [ 13.7731034, 63.0863481 ], [ 13.7745074, 63.0864116 ], [ 13.7787193, 63.0864752 ], [ 13.7816676, 63.0863481 ], [ 13.7863007, 63.0859668 ], [ 13.7882663, 63.0855219 ], [ 13.7886875, 63.0850135 ], [ 13.7898107, 63.0840602 ], [ 13.7900915, 63.0831069 ], [ 13.7892491, 63.0819628 ], [ 13.7884067, 63.0813908 ], [ 13.7848968, 63.0811365 ], [ 13.78251, 63.0811365 ], [ 13.7801233, 63.0813272 ], [ 13.7766134, 63.0818992 ], [ 13.7752094, 63.0829797 ], [ 13.7722611, 63.0846322 ], [ 13.7684703, 63.0861574 ], [ 13.7665048, 63.0873013 ], [ 13.7639776, 63.0890171 ], [ 13.7556942, 63.093719 ], [ 13.7496572, 63.0976578 ], [ 13.7481128, 63.1012786 ], [ 13.7483936, 63.1028665 ], [ 13.7495168, 63.1042002 ], [ 13.7503591, 63.1062325 ], [ 13.7513419, 63.1078201 ], [ 13.7540095, 63.1097252 ], [ 13.7570982, 63.1105507 ], [ 13.7615909, 63.1106142 ], [ 13.7658028, 63.1109951 ], [ 13.7670664, 63.1120746 ], [ 13.7683299, 63.112773 ], [ 13.7707167, 63.1142968 ], [ 13.7726822, 63.1158205 ], [ 13.7733842, 63.1167092 ], [ 13.7739458, 63.117725 ], [ 13.7767538, 63.1181693 ], [ 13.7774557, 63.1181059 ], [ 13.7797021, 63.1179154 ], [ 13.7819484, 63.1181059 ], [ 13.7837736, 63.1182328 ], [ 13.7864411, 63.1182328 ], [ 13.7879855, 63.1183598 ], [ 13.7898107, 63.1188676 ], [ 13.7924782, 63.1193754 ], [ 13.7944438, 63.1200737 ] ] ] ] } },
{ "type": "Feature", "properties": { "id": "SE-09", "elevation": "low_high", "elevation line_visualization": null, "threshold": null }, "geometry": { "type": "MultiPolygon", "coordinates": [ [ [ [ 15.0130649, 65.1559471 ], [ 15.025165, 65.1303841 ], [ 15.025165, 65.1303841 ], [ 15.0508209, 65.1141946 ], [ 15.0687801, 65.0904321 ], [ 14.9970989, 65.0348697 ], [ 14.8307272, 64.8748087 ], [ 14.8441855, 64.8387621 ], [ 15.0156884, 64.7900214 ], [ 15.1485603, 64.7921056 ], [ 15.4198711, 64.7866515 ], [ 15.5823677, 64.7867008 ], [ 15.6771141, 64.8142752 ], [ 15.6483304, 64.9526133 ], [ 15.6081531, 64.9901607 ], [ 15.5639405, 65.0211839 ], [ 15.6024244, 65.0720556 ], [ 15.681958, 65.1185127 ], [ 15.6999171, 65.1444071 ], [ 15.6999171, 65.1745852 ], [ 15.7178763, 65.2047291 ], [ 15.8307626, 65.2380626 ], [ 15.8589842, 65.2455837 ], [ 15.8927427, 65.2561901 ], [ 15.9308209, 65.2681342 ], [ 15.9564769, 65.289593 ], [ 15.9744361, 65.3174633 ], [ 15.9667393, 65.3378114 ], [ 15.9539113, 65.3474445 ], [ 15.8897714, 65.3645613 ], [ 15.9032365, 65.4167788 ], [ 15.7472553, 65.4453196 ], [ 15.6019443, 65.4286944 ], [ 15.5172906, 65.4203778 ], [ 15.3766518, 65.3891472 ], [ 15.2971183, 65.3634919 ], [ 15.2688967, 65.3356703 ], [ 15.1662728, 65.3206772 ], [ 15.1098297, 65.294955 ], [ 15.0456898, 65.2627668 ], [ 15.025165, 65.2316142 ], [ 15.025165, 65.211184 ], [ 15.025165, 65.1864315 ], [ 15.0130649, 65.1559471 ] ], [ [ 15.0293203, 64.841941 ], [ 15.0288779, 64.8423798 ], [ 15.0287304, 64.8429859 ], [ 15.0288779, 64.8434666 ], [ 15.0305494, 64.8439472 ], [ 15.0319259, 64.8440099 ], [ 15.0333516, 64.8440099 ], [ 15.0349739, 64.8440935 ], [ 15.0364979, 64.8443025 ], [ 15.0374812, 64.8444906 ], [ 15.0399884, 64.8448458 ], [ 15.0434297, 64.8449294 ], [ 15.0440688, 64.8447204 ], [ 15.0452487, 64.8444279 ], [ 15.0460353, 64.8440099 ], [ 15.0468218, 64.8434666 ], [ 15.0473135, 64.8428814 ], [ 15.0474609, 64.8426306 ], [ 15.0480017, 64.8422335 ], [ 15.0493782, 64.8417738 ], [ 15.049919, 64.8416484 ], [ 15.0509022, 64.8416066 ], [ 15.0542944, 64.8416066 ], [ 15.0561134, 64.8415648 ], [ 15.0595547, 64.8410632 ], [ 15.0610295, 64.8405616 ], [ 15.0644216, 64.8393075 ], [ 15.0666831, 64.8384296 ], [ 15.0695344, 64.8378444 ], [ 15.0712059, 64.8368619 ], [ 15.0715992, 64.8360258 ], [ 15.0714517, 64.8351269 ], [ 15.0714026, 64.8342698 ], [ 15.0695836, 64.833998 ], [ 15.0651099, 64.8340189 ], [ 15.0618161, 64.8344788 ], [ 15.0603412, 64.8344997 ], [ 15.0591614, 64.8341235 ], [ 15.0577357, 64.8333708 ], [ 15.0548843, 64.8327855 ], [ 15.053557, 64.8320955 ], [ 15.0488375, 64.8309247 ], [ 15.0448554, 64.8307784 ], [ 15.0412666, 64.8311965 ], [ 15.0360063, 64.832451 ], [ 15.0338478, 64.8335158 ], [ 15.0335482, 64.8336635 ], [ 15.0308935, 64.8339562 ], [ 15.0285338, 64.8336635 ], [ 15.0266656, 64.8333499 ], [ 15.0240109, 64.8328273 ], [ 15.0226836, 64.8331618 ], [ 15.0210612, 64.8335381 ], [ 15.0212579, 64.8338099 ], [ 15.0228802, 64.8346879 ], [ 15.022831, 64.835315 ], [ 15.0244534, 64.8360885 ], [ 15.0247483, 64.836423 ], [ 15.024355, 64.8377608 ], [ 15.0239617, 64.838785 ], [ 15.0235685, 64.8391612 ], [ 15.0247975, 64.8398927 ], [ 15.0263707, 64.8407288 ], [ 15.0284354, 64.8413976 ], [ 15.0293203, 64.841941 ] ], [ [ 15.4828522, 65.268253 ], [ 15.4860718, 65.2680004 ], [ 15.4872791, 65.2679162 ], [ 15.4947244, 65.2669059 ], [ 15.4973403, 65.2664008 ], [ 15.5100174, 65.2623593 ], [ 15.5162553, 65.2594962 ], [ 15.516859, 65.2584014 ], [ 15.5166577, 65.2562959 ], [ 15.5134382, 65.2539375 ], [ 15.5098161, 65.2525897 ], [ 15.5063953, 65.2512419 ], [ 15.5027733, 65.2501468 ], [ 15.4993525, 65.2494728 ], [ 15.4957305, 65.2491358 ], [ 15.4886877, 65.2482091 ], [ 15.4838583, 65.2473666 ], [ 15.4816449, 65.2466926 ], [ 15.4784253, 65.2455972 ], [ 15.4762118, 65.2445861 ], [ 15.4750045, 65.243912 ], [ 15.4731935, 65.2439963 ], [ 15.4717849, 65.2444176 ], [ 15.4685654, 65.2456815 ], [ 15.4657482, 65.2468611 ], [ 15.4629311, 65.2477879 ], [ 15.4607176, 65.2498098 ], [ 15.4587054, 65.2518316 ], [ 15.4591079, 65.2538532 ], [ 15.4603152, 65.256717 ], [ 15.461925, 65.2581487 ], [ 15.4647421, 65.2603383 ], [ 15.4703764, 65.2632855 ], [ 15.4733947, 65.2651379 ], [ 15.477218, 65.2668218 ], [ 15.4828522, 65.268253 ] ] ] ] } },
{ "type": "Feature", "properties": { "id": "SE-01", "elevation": "low_high", "elevation line_visualization": null, "threshold": null }, "geometry": { "type": "MultiPolygon", "coordinates": [ [ [ [ 14.5114554, 65.568687 ], [ 14.7216172, 65.5613177 ], [ 14.9325751, 65.5585652 ], [ 14.9362994, 65.5589703 ], [ 15.0592571, 65.5722847 ], [ 15.0818527, 65.5732088 ], [ 15.6811466, 65.5869414 ], [ 15.8317748, 65.6209065 ], [ 15.9529132, 65.7071755 ], [ 15.9587352, 65.7113048 ], [ 15.7271804, 65.7713053 ], [ 15.527859, 65.8240282 ], [ 15.4390524, 65.8731479 ], [ 15.3824794, 65.9064689 ], [ 15.3469568, 65.9300897 ], [ 15.2851211, 65.9606571 ], [ 15.2009193, 66.0083121 ], [ 15.1406355, 66.0461632 ], [ 15.0592214, 66.0896488 ], [ 14.9671225, 66.1402426 ], [ 14.9533288, 66.1482385 ], [ 14.9533289, 66.1482386 ], [ 14.9537268, 66.1500019 ], [ 14.9537263, 66.1500019 ], [ 14.8578763, 66.1454325 ], [ 14.7217059, 66.1403467 ], [ 14.5383054, 66.1333978 ], [ 14.5156813, 66.1325589 ], [ 14.5183346, 66.1245088 ], [ 14.5278515, 66.0956358 ], [ 14.5287953, 66.0955595 ], [ 14.5746628, 65.9609436 ], [ 14.5843897, 65.8995244 ], [ 14.6254777, 65.8118074 ], [ 14.6254777, 65.8118074 ], [ 14.5414696, 65.7007518 ], [ 14.5114554, 65.568687 ] ], [ [ 15.0785987, 65.8356705 ], [ 15.0867846, 65.8368129 ], [ 15.0938542, 65.8390974 ], [ 15.1011098, 65.8418385 ], [ 15.1165512, 65.8446555 ], [ 15.1249231, 65.8437419 ], [ 15.1301323, 65.8433612 ], [ 15.1336671, 65.8430567 ], [ 15.1381321, 65.8422192 ], [ 15.1409227, 65.8414578 ], [ 15.1448296, 65.8407725 ], [ 15.1472481, 65.8397827 ], [ 15.1489225, 65.8382597 ], [ 15.146876, 65.835899 ], [ 15.1407367, 65.8325479 ], [ 15.13776, 65.8306437 ], [ 15.133295, 65.8286631 ], [ 15.1284579, 65.8274442 ], [ 15.1247371, 65.8263777 ], [ 15.1180396, 65.8250825 ], [ 15.1146908, 65.8243968 ], [ 15.1133885, 65.822873 ], [ 15.1120862, 65.8193677 ], [ 15.1115281, 65.8154048 ], [ 15.1098537, 65.8114412 ], [ 15.1024121, 65.8093067 ], [ 15.0986912, 65.8078582 ], [ 15.0964587, 65.8073245 ], [ 15.0936681, 65.8070957 ], [ 15.0905054, 65.8072482 ], [ 15.0882729, 65.8077819 ], [ 15.088645, 65.8095354 ], [ 15.0882729, 65.8130419 ], [ 15.0875287, 65.8164718 ], [ 15.083994, 65.8194439 ], [ 15.0785987, 65.822873 ], [ 15.0720873, 65.8258444 ], [ 15.0678083, 65.8279775 ], [ 15.0640875, 65.8293487 ], [ 15.0631573, 65.8304152 ], [ 15.0681804, 65.8322432 ], [ 15.0682516, 65.8322667 ], [ 15.0785987, 65.8356705 ] ], [ [ 15.2519918, 65.725939 ], [ 15.2533066, 65.7257588 ], [ 15.2571468, 65.7255483 ], [ 15.2626511, 65.7249695 ], [ 15.2652112, 65.7253905 ], [ 15.2682834, 65.7254431 ], [ 15.2722517, 65.7259167 ], [ 15.2753239, 65.7256536 ], [ 15.277244, 65.7253905 ], [ 15.2790361, 65.7250221 ], [ 15.2810842, 65.7248116 ], [ 15.2832603, 65.7249168 ], [ 15.2858205, 65.7254957 ], [ 15.2877406, 65.7257588 ], [ 15.2890207, 65.7257588 ], [ 15.2904288, 65.7254957 ], [ 15.293501, 65.7250747 ], [ 15.2969572, 65.7248116 ], [ 15.2984933, 65.7245484 ], [ 15.3007974, 65.7240748 ], [ 15.3013094, 65.723759 ], [ 15.3011814, 65.7236538 ], [ 15.3013094, 65.7208643 ], [ 15.3009254, 65.7175481 ], [ 15.2992613, 65.7160215 ], [ 15.2974692, 65.7152844 ], [ 15.2951651, 65.7145474 ], [ 15.2908128, 65.713705 ], [ 15.2876126, 65.7130732 ], [ 15.2833883, 65.7115989 ], [ 15.2796761, 65.7113357 ], [ 15.2760919, 65.7108091 ], [ 15.272365, 65.7105144 ], [ 15.2694355, 65.7102826 ], [ 15.2645712, 65.7102299 ], [ 15.2594509, 65.7108618 ], [ 15.2549706, 65.7113357 ], [ 15.2517704, 65.711283 ], [ 15.2495943, 65.711441 ], [ 15.2478022, 65.7117569 ], [ 15.245242, 65.7125993 ], [ 15.244346, 65.7147579 ], [ 15.2433219, 65.7163373 ], [ 15.2433219, 65.7182324 ], [ 15.2433219, 65.7200221 ], [ 15.2431939, 65.7217064 ], [ 15.24409, 65.7229696 ], [ 15.24473, 65.7242327 ], [ 15.2460101, 65.7249695 ], [ 15.2498503, 65.7262325 ], [ 15.2519918, 65.725939 ] ] ] ] } }
]
}
