[
  {
    "id": "IT-21-TO-05",
    "start_date": "2022-03-04",
    "end_date": null
  },
  {
    "id": "IT-21-TO-03",
    "start_date": "2022-03-04",
    "end_date": null
  },
  {
    "id": "IT-21-TO-04",
    "start_date": "2022-03-04",
    "end_date": null
  },
  {
    "id": "IT-21-CN-01",
    "start_date": "2022-03-04",
    "end_date": null
  },
  {
    "id": "IT-21-CN-04",
    "start_date": "2022-03-04",
    "end_date": null
  },
  {
    "id": "IT-21-CN-05",
    "start_date": "2022-03-04",
    "end_date": null
  },
  {
    "id": "IT-21-VB-01",
    "start_date": "2022-03-04",
    "end_date": null
  },
  {
    "id": "IT-21-VB-03",
    "start_date": "2022-03-04",
    "end_date": null
  },
  {
    "id": "IT-21-VB-02",
    "start_date": "2022-03-04",
    "end_date": null
  },
  {
    "id": "IT-21-TO-02",
    "start_date": "2022-03-04",
    "end_date": null
  },
  {
    "id": "IT-21-CN-02",
    "start_date": "2022-03-04",
    "end_date": null
  },
  {
    "id": "IT-21-CN-03",
    "start_date": "2022-03-04",
    "end_date": null
  },
  {
    "id": "IT-21-TO-01",
    "start_date": "2022-03-04",
    "end_date": null
  },
  {
    "id": "IT-21-VC-01",
    "start_date": "2022-03-04",
    "end_date": null
  },
  {
    "id": "IT-21-VC-01",
    "start_date": null,
    "end_date": "2022-03-04"
  },
  {
    "id": "IT-21-VB-03",
    "start_date": null,
    "end_date": "2022-03-04"
  },
  {
    "id": "IT-21-VB-02",
    "start_date": null,
    "end_date": "2022-03-04"
  },
  {
    "id": "IT-21-VB-01",
    "start_date": null,
    "end_date": "2022-03-04"
  },
  {
    "id": "IT-21-TO-03",
    "start_date": null,
    "end_date": "2022-03-04"
  },
  {
    "id": "IT-21-CN-05",
    "start_date": null,
    "end_date": "2022-03-04"
  },
  {
    "id": "IT-21-CN-02",
    "start_date": null,
    "end_date": "2022-03-04"
  },
  {
    "id": "IT-21-CN-04",
    "start_date": null,
    "end_date": "2022-03-04"
  },
  {
    "id": "IT-21-TO-01",
    "start_date": null,
    "end_date": "2022-03-04"
  },
  {
    "id": "IT-21-CN-01",
    "start_date": null,
    "end_date": "2022-03-04"
  },
  {
    "id": "IT-21-CN-03",
    "start_date": null,
    "end_date": "2022-03-04"
  },
  {
    "id": "IT-21-TO-02",
    "start_date": null,
    "end_date": "2022-03-04"
  },
  {
    "id": "IT-21-TO-04",
    "start_date": null,
    "end_date": "2022-03-04"
  }
]