[
  {
    "id": "IT-25-BS-02"
  },
  {
    "id": "IT-25-LC-01"
  },
  {
    "id": "IT-25-BS-01"
  },
  {
    "id": "IT-25-BG-01"
  },
  {
    "id": "IT-25-BG-02"
  },
  {
    "id": "IT-25-SO-02"
  },
  {
    "id": "IT-25-SO-01"
  },
  {
    "id": "IT-25-SO-03"
  },
  {
    "id": "IT-25-VA-01"
  },
  {
    "id": "IT-25-PV-01"
  },
  {
    "id": "IT-25-BS-02"
  },
  {
    "id": "IT-25-LC-01"
  },
  {
    "id": "IT-25-BS-01"
  },
  {
    "id": "IT-25-BG-01"
  },
  {
    "id": "IT-25-BG-02"
  },
  {
    "id": "IT-25-SO-02"
  },
  {
    "id": "IT-25-SO-01"
  },
  {
    "id": "IT-25-SO-03"
  },
  {
    "id": "IT-25-VA-01"
  }
]