{
  "type": "FeatureCollection",
  "name": "AT-07_outline",
  "crs": {
    "type": "name",
    "properties": { "name": "urn:ogc:def:crs:OGC:1.3:CRS84" }
  },
  "features": [
    {
      "type": "Feature",
      "properties": {
        "id": "AT-07",
        "aws": [
          {
            "name": "LWD Tirol",
            "url": [
              { "en": "https://avalanche.report" },
              { "de": "https://lawinen.report" },
              { "it": "https://valanghe.report" },
              { "oc": "https://oc.avalanche.report" },
              { "ca": "https://ca.avalanche.report" },
              { "es": "https://es.avalanche.report" },
              { "fr": "https://fr.avalanche.report" }
            ]
          }
        ]
      },
      "geometry": {
        "type": "MultiPolygon",
        "coordinates": [
          [
            [
              [12.370244281832599, 46.741555857500153],
              [12.357481075461466, 46.774853024032431],
              [12.313620331575221, 46.783725934065032],
              [12.283745077267687, 46.783284034913308],
              [12.280348810929041, 46.792230504598912],
              [12.287731388574699, 46.795149767904157],
              [12.289761180851578, 46.805315377252541],
              [12.283069731688647, 46.81523000568103],
              [12.303587226267014, 46.832445583761789],
              [12.306203511136749, 46.840250137737627],
              [12.29591133222724, 46.843728236432455],
              [12.291933483483522, 46.850087696911295],
              [12.29181142348838, 46.862415716760161],
              [12.291782706742316, 46.865315684940285],
              [12.275776488548537, 46.872904738998265],
              [12.278066066680783, 46.877891162836065],
              [12.27372706170679, 46.883698027407178],
              [12.24229689266523, 46.890562280674473],
              [12.236592275952578, 46.888474773833771],
              [12.232230983866181, 46.880408856598478],
              [12.222767463952, 46.879993438759151],
              [12.216091086439189, 46.874279220653548],
              [12.200533912182873, 46.890312010544974],
              [12.197813393051554, 46.893115206410066],
              [12.200275790678297, 46.896431780558572],
              [12.194805163406086, 46.903780617612185],
              [12.170543858874991, 46.910129923879076],
              [12.163243867006727, 46.907212679376279],
              [12.145267847168611, 46.914646234992603],
              [12.153171372672713, 46.916392362266279],
              [12.168908679904428, 46.937081292650106],
              [12.158217055307233, 46.950311904409801],
              [12.138487273205383, 46.956754717417489],
              [12.132307018774684, 46.962860615431822],
              [12.137099955582855, 46.966517953922875],
              [12.138267850665136, 46.98189424508471],
              [12.131302173223881, 46.984324662569271],
              [12.127656098220333, 46.985596782292056],
              [12.130849670223606, 46.993222426112524],
              [12.121225009683789, 47.006613502518704],
              [12.125886911358171, 47.012716746918436],
              [12.147292368901883, 47.024787857630578],
              [12.164453412036732, 47.018434075481096],
              [12.173498946552735, 47.02344655690716],
              [12.204845121049532, 47.026567235743492],
              [12.216495595629128, 47.045022967326389],
              [12.216883457508073, 47.058555304852931],
              [12.240688061769884, 47.069175046583396],
              [12.260851960133069, 47.072721198518103],
              [12.284097334263198, 47.092411667901288],
              [12.308987319050392, 47.09327632270886],
              [12.312788757470614, 47.102476207297627],
              [12.326424303367578, 47.107292740034922],
              [12.345790216621669, 47.109485621667545],
              [12.359129873521971, 47.117048036710798],
              [12.363713050377049, 47.141049717492493],
              [12.399669277968528, 47.152710204505539],
              [12.417243262695743, 47.142157330365869],
              [12.434662754940508, 47.150481152085369],
              [12.450198976526023, 47.143892246397655],
              [12.464851062492249, 47.144400381509236],
              [12.481521773294668, 47.151398048763056],
              [12.483370553648333, 47.157825460418913],
              [12.497507623681726, 47.156958321614624],
              [12.521333230746526, 47.150257965586484],
              [12.527549796801534, 47.137673187678999],
              [12.544650278639802, 47.128572650153295],
              [12.553140598298985, 47.127497864062263],
              [12.565536310434515, 47.135245574567108],
              [12.58749800773573, 47.132332958024477],
              [12.58976599499494, 47.128833918543563],
              [12.59229338011574, 47.124934408443508],
              [12.617468899282988, 47.121739808746675],
              [12.634404279420465, 47.109872138465818],
              [12.641261608052728, 47.105066025857916],
              [12.656133716531496, 47.099992335154653],
              [12.665387904680321, 47.093156644066831],
              [12.67620831724166, 47.090485049728237],
              [12.678396578949494, 47.088258967078517],
              [12.68820954972856, 47.078275242048292],
              [12.699935838317947, 47.073231908761265],
              [12.706958370862028, 47.056771041133892],
              [12.709445412642447, 47.052619076412292],
              [12.710777885087404, 47.050394453689336],
              [12.712547353348546, 47.048023416499184],
              [12.715401535475632, 47.045955875647131],
              [12.718246840772062, 47.04463220228687],
              [12.72064978662568, 47.043901252893619],
              [12.726024949277539, 47.043083793354093],
              [12.726319274958644, 47.043039027923371],
              [12.732852443742706, 47.042776296776033],
              [12.736492633906328, 47.042640047717661],
              [12.739820863100148, 47.042515474772344],
              [12.745266665369636, 47.042555901982226],
              [12.751564563469364, 47.043469259857758],
              [12.755906423164946, 47.044533083679148],
              [12.758857145776124, 47.045415346349301],
              [12.765919272185943, 47.042561265967237],
              [12.769081755225033, 47.041283133564356],
              [12.771869552779663, 47.040156191161529],
              [12.764558855737377, 47.037359281545776],
              [12.756053533136939, 47.0341043719922],
              [12.754412598052548, 47.028554105953546],
              [12.753731189698687, 47.0262489759196],
              [12.745920947354305, 47.020747389351641],
              [12.743268732112073, 47.018878769868081],
              [12.735159293422695, 47.013164061034537],
              [12.735362522328831, 47.012011632470994],
              [12.736872206318731, 47.003449250576331],
              [12.736449763966933, 47.003166433286815],
              [12.724618875192297, 46.995244011977697],
              [12.72653472155544, 46.993135377738632],
              [12.737889402673401, 46.980633997611797],
              [12.738413547098201, 46.978957355894515],
              [12.741555243786868, 46.968905377299315],
              [12.745177435689858, 46.959775742291683],
              [12.750986495936143, 46.956000759273401],
              [12.752651534196669, 46.955993081548563],
              [12.760261655608529, 46.955957679195208],
              [12.768855602376783, 46.947129684364462],
              [12.769611916750081, 46.94635260103027],
              [12.772263383673179, 46.945265005507615],
              [12.786403552587652, 46.939463103872178],
              [12.78448283156602, 46.934299549978093],
              [12.783668456470407, 46.932109919347383],
              [12.78699714809467, 46.930269182415159],
              [12.791432415828153, 46.927816169059533],
              [12.793730858911534, 46.926544812058168],
              [12.800493024170827, 46.924835014870389],
              [12.806167049352434, 46.923399955440722],
              [12.808433804110907, 46.922826552843411],
              [12.820441231903981, 46.920722533999836],
              [12.821363613161431, 46.917964072995424],
              [12.821738654989842, 46.916842394054562],
              [12.825878487327108, 46.915534791991881],
              [12.834255481355235, 46.912888186713332],
              [12.837828034537928, 46.911759215459433],
              [12.832287310341536, 46.903738143600329],
              [12.831184465734735, 46.902141281509834],
              [12.831493084363348, 46.90188790267095],
              [12.831829934014236, 46.901611342183124],
              [12.842265815602412, 46.89304135007589],
              [12.842071798318351, 46.888497626546069],
              [12.840905773648027, 46.861173961446816],
              [12.843435507632302, 46.859991901794125],
              [12.856982474741427, 46.853660006161789],
              [12.858809760049155, 46.852805688074085],
              [12.866402978302665, 46.849254991070659],
              [12.875745537824406, 46.844884929873594],
              [12.878965359117768, 46.844225671812097],
              [12.886777126063819, 46.84262576515723],
              [12.888632821465688, 46.839153897012899],
              [12.895790198987596, 46.825758457551494],
              [12.898346729304665, 46.824962123827085],
              [12.904290526757061, 46.823110375127541],
              [12.907519479997935, 46.822483781737034],
              [12.963390872700462, 46.798922514145474],
              [12.963395345919803, 46.796747000835893],
              [12.963416381653079, 46.78651406337962],
              [12.963418703445392, 46.785384375230727],
              [12.960307087281118, 46.784302875453854],
              [12.953803946927316, 46.782042170935298],
              [12.950518124745866, 46.777339659675562],
              [12.945016505936731, 46.769463939556573],
              [12.932049187883599, 46.764194837652802],
              [12.93050453073524, 46.763567017852068],
              [12.92889422428749, 46.764102246813756],
              [12.927324528382641, 46.764558825457627],
              [12.924894854223078, 46.765173375575365],
              [12.92292105700912, 46.765787846420004],
              [12.921810853149765, 46.766133447156776],
              [12.919891741094398, 46.766983454964077],
              [12.917803578226437, 46.768175627665784],
              [12.915462708167565, 46.769766782065851],
              [12.912035661635384, 46.771982328686057],
              [12.907526770624919, 46.774250814980455],
              [12.903773387977383, 46.775607819465719],
              [12.899914156886338, 46.777046573278263],
              [12.876706954190679, 46.762805273923952],
              [12.856898298785071, 46.760205296453606],
              [12.841366624501216, 46.749533421511138],
              [12.832717544677244, 46.747993416005556],
              [12.826650623082347, 46.751591860280271],
              [12.813647708163119, 46.7482496383777],
              [12.810127248310311, 46.756302563699684],
              [12.79588620878436, 46.755066789343665],
              [12.791357559280609, 46.756349776103434],
              [12.786948982772413, 46.752262737402376],
              [12.748331379389247, 46.747042277757323],
              [12.73846164350361, 46.741314986771151],
              [12.724075172213922, 46.74301118105366],
              [12.712151560405726, 46.735282420736446],
              [12.714121300453755, 46.730111781075365],
              [12.712812604284329, 46.726128251703734],
              [12.70984474368905, 46.717092151607133],
              [12.709107577137829, 46.714847251493765],
              [12.714751117060681, 46.710150663567092],
              [12.719917574160702, 46.704102072840783],
              [12.72083842617487, 46.703023823971122],
              [12.721054171588534, 46.702771194856233],
              [12.719350494114707, 46.70290281112905],
              [12.717477750768067, 46.703249680018303],
              [12.71466817501376, 46.703805634029365],
              [12.711134344803376, 46.704143245957269],
              [12.708224196878183, 46.704412794213155],
              [12.704694504231931, 46.704393116057858],
              [12.700855917474739, 46.704157323265399],
              [12.696397902915756, 46.703632203100753],
              [12.692253131951871, 46.702965847726389],
              [12.690124150724944, 46.702512291052187],
              [12.690381811105604, 46.701148220315432],
              [12.692614816053212, 46.68932361163732],
              [12.686523199945089, 46.686041830363244],
              [12.685325865737617, 46.680142878730322],
              [12.690312976977385, 46.675151427821248],
              [12.690602425411496, 46.657431668908849],
              [12.658881474031304, 46.657392256105254],
              [12.658134373812697, 46.65715716699647],
              [12.641925854716693, 46.652055126796256],
              [12.632427447442076, 46.656171140039149],
              [12.631118371904478, 46.661425461386955],
              [12.618766256716293, 46.661780378860477],
              [12.612571341520777, 46.657972291339931],
              [12.601354099531305, 46.656596483621897],
              [12.576595558254505, 46.656668481759866],
              [12.56920971578403, 46.651410821186879],
              [12.55701870683802, 46.656480533579447],
              [12.551243955735579, 46.658881208156934],
              [12.520264838751775, 46.677195642144063],
              [12.506348302111682, 46.677869187491375],
              [12.502265742901804, 46.680745268651897],
              [12.49597404744646, 46.676822056127705],
              [12.479931117430375, 46.67724280857982],
              [12.474185018159279, 46.686816037315481],
              [12.446444361987719, 46.69011190707473],
              [12.442498170175734, 46.688417170994263],
              [12.428165233715808, 46.694988064967994],
              [12.427311539323293, 46.699119328248436],
              [12.414841173731851, 46.700467872001241],
              [12.377689795981706, 46.722111872101038],
              [12.370530364302075, 46.740808882478994],
              [12.370244281832599, 46.741555857500153]
            ],
            [
              [12.856982474741427, 46.853660006161789],
              [12.856492341024934, 46.852598268861854],
              [12.855125122815252, 46.849636462236774],
              [12.856982474741427, 46.853660006161789]
            ]
          ],
          [
            [
              [12.102295295925792, 47.235349758692067],
              [12.09434143313549, 47.221469858702385],
              [12.086167600429691, 47.215336398999426],
              [12.089373285806385, 47.205854594362222],
              [12.081809500273531, 47.194123651354005],
              [12.086801798721323, 47.169208148073288],
              [12.098266644119448, 47.14411944251836],
              [12.110936706205411, 47.13950616587411],
              [12.114603093032832, 47.12793275616125],
              [12.128239695829537, 47.109502585237763],
              [12.125898873469961, 47.092459106131912],
              [12.136463765513019, 47.080651700908867],
              [12.134153818012448, 47.077380399200656],
              [12.119159894621729, 47.073174245063647],
              [12.098304282101719, 47.077727034807715],
              [12.081792822173407, 47.069289556902319],
              [12.076829448926414, 47.057541615044308],
              [12.04315054022365, 47.060098680059305],
              [12.035550157060198, 47.057070976016561],
              [12.030353598919119, 47.049411108393763],
              [12.021021382989256, 47.046263794693864],
              [11.998342685684678, 47.048546747243776],
              [11.986194952689781, 47.046488273288496],
              [11.979369993786484, 47.049411898863816],
              [11.968616660386177, 47.040180885989095],
              [11.955987714074709, 47.042620000834134],
              [11.946378002857184, 47.033148727318782],
              [11.932910471058102, 47.037473029000154],
              [11.915617527036005, 47.032663190361426],
              [11.914236583398269, 47.028688176134466],
              [11.895285838834765, 47.020616320009346],
              [11.892688871040615, 47.016454892968696],
              [11.879713930618871, 47.016209416328941],
              [11.873932206393187, 47.010225875133372],
              [11.867247329179095, 47.011336846461411],
              [11.852284785906345, 47.000286453626401],
              [11.845077101400831, 47.001802961185142],
              [11.83616146648942, 46.992998491675976],
              [11.81344154031337, 46.989768975942916],
              [11.789336964825173, 46.989951345813672],
              [11.781634864266335, 46.992432709520941],
              [11.770365281207212, 46.982985424315302],
              [11.76511516635524, 46.973408099853792],
              [11.746891075406412, 46.969055584656537],
              [11.727391269066011, 46.972640349713309],
              [11.72433554257989, 46.980503314773422],
              [11.711467734114002, 46.993306033633672],
              [11.688345876352749, 46.995515600301637],
              [11.664393210949262, 46.991883039254915],
              [11.63500536047094, 47.003041357826447],
              [11.627088061544329, 47.0133405685431],
              [11.614618048663324, 47.012698037147992],
              [11.602201053048562, 47.006494298112642],
              [11.589868545715278, 47.005451463163787],
              [11.581105572119091, 47.001832204156585],
              [11.577856136061301, 46.99551669935974],
              [11.537764367252372, 46.984115786484594],
              [11.53296856910484, 46.991263272256674],
              [11.516310075089764, 46.99952303388222],
              [11.512505329635575, 47.005282955267141],
              [11.508027425035017, 47.006058333431874],
              [11.508027869322392, 47.006058873124275],
              [11.478625474141552, 47.011149190228892],
              [11.470635575279346, 47.003357752609588],
              [11.469463305168921, 46.995183811448207],
              [11.452924188214398, 46.992656635680426],
              [11.442758413773294, 46.977193722804323],
              [11.434822499280035, 46.974103549675995],
              [11.425057290246242, 46.969528424581803],
              [11.401198958567459, 46.965174288722672],
              [11.382327882830328, 46.970439528624105],
              [11.375895688524245, 46.979610317908616],
              [11.358444378063895, 46.990795663635339],
              [11.345677974277502, 46.990710952368133],
              [11.336961700404181, 46.984852126650587],
              [11.320718734768159, 46.992808023414028],
              [11.307727593533722, 46.984302031500846],
              [11.289573617289385, 46.985686931815131],
              [11.2711867913143, 46.979811567492753],
              [11.262564478967056, 46.980556466286757],
              [11.256611242778918, 46.97446972737125],
              [11.249225905651272, 46.974492814841959],
              [11.241412087928143, 46.970156312801699],
              [11.221267609687828, 46.969396211873068],
              [11.206858741937531, 46.962508343810683],
              [11.202838361499536, 46.968045381454132],
              [11.195349584607492, 46.970763107777749],
              [11.186517304994403, 46.969839476235478],
              [11.175353969150519, 46.962680697726938],
              [11.164457410468941, 46.965818365126111],
              [11.16240422511315, 46.95023537723597],
              [11.168260511611058, 46.944993883213897],
              [11.166816003193944, 46.942458546954285],
              [11.138476109562532, 46.92775567895152],
              [11.114841509448212, 46.931399856282475],
              [11.109512805083998, 46.926110738733698],
              [11.109090982546206, 46.915957987580001],
              [11.097692874092749, 46.913866521089489],
              [11.097535934110484, 46.908400231160535],
              [11.097045387928679, 46.891310670400131],
              [11.101618418875253, 46.889930870422454],
              [11.089050221977242, 46.878823843826929],
              [11.077641603596232, 46.859144422510248],
              [11.071880754216162, 46.856950848628422],
              [11.07483161113983, 46.843582721350799],
              [11.070277182004311, 46.838385750900578],
              [11.07675177331272, 46.835447562473725],
              [11.083392771427528, 46.822801564224498],
              [11.057542409803002, 46.809519335764314],
              [11.039484110543958, 46.805170078273072],
              [11.044412088760472, 46.801343568049532],
              [11.035752265359527, 46.793192794948347],
              [11.022419538528931, 46.765414395190774],
              [11.014206560999485, 46.772336071309184],
              [10.996337483571866, 46.767178109598539],
              [10.950477242675587, 46.775151631358661],
              [10.918269203511427, 46.775293116039201],
              [10.907146371667194, 46.768485335374038],
              [10.894775650369294, 46.769841798108885],
              [10.889520413476307, 46.764200231263395],
              [10.883579891491888, 46.763176332469051],
              [10.868828236290469, 46.765971522220362],
              [10.867504834230111, 46.772490442622626],
              [10.853102267244612, 46.773806726309971],
              [10.840294714226633, 46.781950750133774],
              [10.833150290892666, 46.78110946815228],
              [10.825991209656298, 46.774028963001591],
              [10.814059836490687, 46.775397670319684],
              [10.786359959331726, 46.79649643787095],
              [10.778917864117529, 46.791443047536951],
              [10.757809479205932, 46.785297934814778],
              [10.729928742817387, 46.788914339521511],
              [10.7263788688715, 46.797895018428491],
              [10.745895012953262, 46.804636339150022],
              [10.749912799148964, 46.812654968376876],
              [10.763973390818551, 46.822785983337731],
              [10.7557281004615, 46.832585468567849],
              [10.722616933897127, 46.837784522768786],
              [10.716733173942753, 46.84732134829386],
              [10.716407147469209, 46.847321743599316],
              [10.703569837544309, 46.847337308772005],
              [10.693258748527724, 46.852353440135786],
              [10.696854054490622, 46.86254293532113],
              [10.69089507108723, 46.867769716636175],
              [10.671776963644675, 46.870625152948534],
              [10.66741294276841, 46.875522244517647],
              [10.651158342332556, 46.866248835738986],
              [10.624970923647576, 46.864572940549358],
              [10.607850021792366, 46.858227960627097],
              [10.595598738692427, 46.857527787034499],
              [10.589715860346862, 46.850245774973146],
              [10.564161658042849, 46.841025405430955],
              [10.551786531613798, 46.841031443586694],
              [10.556633993562645, 46.846689205649788],
              [10.552411545680666, 46.849782578811237],
              [10.520732006676528, 46.845277522954973],
              [10.505062866955591, 46.846697847803405],
              [10.49852919286819, 46.847290079724985],
              [10.481267227225842, 46.858890354644487],
              [10.469690604775934, 46.854703657705819],
              [10.466861915845547, 46.863489382959926],
              [10.469452468876305, 46.879701371158454],
              [10.464817543658349, 46.884141685545835],
              [10.471388505006429, 46.890504035957782],
              [10.474002825349963, 46.89413724287207],
              [10.475050007042674, 46.896140062050371],
              [10.476364608891894, 46.899526841137863],
              [10.478161521851279, 46.907514765433298],
              [10.479686733196411, 46.910561814770254],
              [10.481482216395458, 46.912160810985831],
              [10.482746367141972, 46.912878767994584],
              [10.484365415991098, 46.914599557858246],
              [10.485622149227673, 46.917170049247567],
              [10.485790530785488, 46.918076644780491],
              [10.486350193063902, 46.920138952547461],
              [10.487114031946016, 46.923016897102059],
              [10.487208145687237, 46.92593518137744],
              [10.487329784099503, 46.928339583012082],
              [10.487475890318052, 46.930287199980818],
              [10.487973762289197, 46.931900604161186],
              [10.488903722213406, 46.933238982207151],
              [10.490244407913833, 46.934702010481985],
              [10.491643709691948, 46.936009078781488],
              [10.478439563981524, 46.940139196994352],
              [10.456598760944996, 46.951938807611128],
              [10.424032203786142, 46.959020896637298],
              [10.426845285724086, 46.975524820862169],
              [10.40220958783226, 46.990806396464016],
              [10.398719652169746, 46.996826100341003],
              [10.389270363724423, 47.000527892924701],
              [10.372184176347911, 46.990657733468865],
              [10.349599673587784, 46.990851651657756],
              [10.329818324787576, 46.964622464292425],
              [10.327940921049629, 46.954160852353475],
              [10.307936807050563, 46.947861032487495],
              [10.30614112387279, 46.940637457379403],
              [10.317439704973051, 46.930628208326993],
              [10.316286086842783, 46.925329766935114],
              [10.303418639501096, 46.925416797324139],
              [10.296897040768904, 46.920089454722387],
              [10.270209936993584, 46.928118972213525],
              [10.26283016592487, 46.929040790883242],
              [10.241565963714752, 46.931696846148363],
              [10.24200766832684, 46.919454796919979],
              [10.237025599679553, 46.915762557812513],
              [10.232210875204327, 46.900637142268771],
              [10.225762656283889, 46.896331493175062],
              [10.234431737985624, 46.885158380212424],
              [10.232513050591665, 46.866347509722267],
              [10.20333591567095, 46.86443722794845],
              [10.193534047729106, 46.866314479204576],
              [10.179115859357225, 46.854277734293127],
              [10.145140214914786, 46.850897881913347],
              [10.138667272087835, 46.867609202728552],
              [10.14072706567576, 46.874665142986167],
              [10.119744750028163, 46.883037885575611],
              [10.10830425587684, 46.89550124521628],
              [10.10872239180973, 46.908320269488165],
              [10.099005884366928, 46.918033495411244],
              [10.097855353318936, 46.925829931525492],
              [10.112447750569272, 46.937256333500144],
              [10.12444988394331, 46.940904229442943],
              [10.135021949192852, 46.955072773015871],
              [10.136757468272721, 46.972364699579003],
              [10.140250650543127, 46.977141927600023],
              [10.14025082688824, 46.977141812333137],
              [10.141264870514204, 46.978528420566128],
              [10.144891768727465, 46.983487562851352],
              [10.159230856100901, 46.983807436729407],
              [10.155420955031682, 46.991096389297098],
              [10.159325601178612, 46.998946421430134],
              [10.154228925118726, 47.005288961908825],
              [10.131372575337457, 47.01286918779472],
              [10.122865312593239, 47.022388492173498],
              [10.134572258905829, 47.029299892891444],
              [10.144540804549539, 47.033841431235203],
              [10.156896154282771, 47.049126137284219],
              [10.150982318565452, 47.061997496179806],
              [10.134715060137459, 47.064740731770677],
              [10.133771516534946, 47.077529774789362],
              [10.133884610621282, 47.082450228489385],
              [10.158336225354194, 47.114710993542133],
              [10.162686331738602, 47.114132822986299],
              [10.171970814313067, 47.119948253546454],
              [10.186678238293544, 47.119563593353405],
              [10.186611999056357, 47.129071243192897],
              [10.209301677601275, 47.131716083103278],
              [10.203409418844151, 47.137214298964771],
              [10.203462345930113, 47.142395393124588],
              [10.214717554862391, 47.143829100173697],
              [10.221983015132119, 47.149395378568016],
              [10.225707617673715, 47.152673152952275],
              [10.212774062229483, 47.157589257625496],
              [10.206881123656208, 47.16240387780266],
              [10.211871916880186, 47.171224325821221],
              [10.203892716353756, 47.176144798292555],
              [10.196989057015886, 47.19304670323551],
              [10.211603409061064, 47.204423703758984],
              [10.212129716859312, 47.204833298248957],
              [10.213941676143353, 47.206243372740104],
              [10.212577705668529, 47.22204205157793],
              [10.209302656148354, 47.225383184569317],
              [10.209429440091082, 47.225631360336152],
              [10.210551276411074, 47.227827213536017],
              [10.208206105615361, 47.231390253457008],
              [10.207862027572409, 47.231912969940545],
              [10.207516345784413, 47.232438111333749],
              [10.198013395333318, 47.235638273735219],
              [10.20032713329803, 47.237747330538383],
              [10.211441830912539, 47.247877606609428],
              [10.220407057681003, 47.247613504689262],
              [10.22331484110186, 47.250040125584249],
              [10.22295960304916, 47.250613757980275],
              [10.222751976117531, 47.251465812320944],
              [10.222269713403701, 47.252524799596898],
              [10.220902842135954, 47.253452413490642],
              [10.219611462843284, 47.253988951924256],
              [10.21715238226038, 47.254743722439819],
              [10.213494184707683, 47.255358406111185],
              [10.210493960238283, 47.255839487674436],
              [10.174552515300485, 47.263815133000442],
              [10.178814632110637, 47.270207204237174],
              [10.20157958190878, 47.277162033406988],
              [10.223125365378959, 47.275899056524487],
              [10.233391225897879, 47.270700888852097],
              [10.245231407581883, 47.27864424873539],
              [10.259884853238304, 47.281713188953738],
              [10.266062163021438, 47.288166217507708],
              [10.281911991680371, 47.288381799719971],
              [10.2957573842064, 47.299513855473236],
              [10.303055999295578, 47.29975891806194],
              [10.314609605833361, 47.306264857833902],
              [10.33029330669773, 47.304602730407439],
              [10.34880936657499, 47.317482533556856],
              [10.345794217381666, 47.32131459233409],
              [10.356554174196074, 47.336549887993741],
              [10.386277610107737, 47.356418882392681],
              [10.394253826580798, 47.375582469175406],
              [10.414663434352804, 47.378997181378928],
              [10.419426019644268, 47.38439956977146],
              [10.430271252040889, 47.383869531593511],
              [10.436740717747156, 47.380382965871959],
              [10.42917130631081, 47.390894969775815],
              [10.434168040582781, 47.399912301989943],
              [10.431126469983811, 47.402865173402112],
              [10.437122765046169, 47.407096289371609],
              [10.435262284391984, 47.411163592897971],
              [10.45469032771874, 47.418556428867056],
              [10.458171359154434, 47.428194973586798],
              [10.476698131273187, 47.432086339227176],
              [10.473133964215585, 47.442929025695065],
              [10.465707304119286, 47.452885360800515],
              [10.468092508221233, 47.468029245724559],
              [10.463393255541213, 47.483001220502118],
              [10.451537713525452, 47.485918768446162],
              [10.444408431664947, 47.483947055970781],
              [10.435632797653266, 47.495305958009936],
              [10.431255619972871, 47.503926130664269],
              [10.440966432841501, 47.514611822679363],
              [10.439405878490788, 47.524408021605943],
              [10.451130908815555, 47.5548514405804],
              [10.445203807533971, 47.566954648060687],
              [10.433155490398894, 47.56971761762518],
              [10.42938155962514, 47.577464773397487],
              [10.435255481700015, 47.58386380609322],
              [10.456749031970176, 47.582898828205742],
              [10.469535144811255, 47.587264733226782],
              [10.48198432400922, 47.584479456339082],
              [10.478982455633641, 47.580525743466644],
              [10.471084938711313, 47.579869720590722],
              [10.471870690269709, 47.570163980926651],
              [10.46995749579407, 47.56858731117125],
              [10.468060734824386, 47.567024059040392],
              [10.46596247167253, 47.56529458966348],
              [10.463457566251707, 47.564393757929302],
              [10.453795884552903, 47.556371362547658],
              [10.453905591990047, 47.554370146830756],
              [10.456423907172068, 47.552900936597524],
              [10.484038365272514, 47.543674532362161],
              [10.48587449050887, 47.542450840861278],
              [10.486046812826704, 47.542335991660345],
              [10.489034596640106, 47.540344575342374],
              [10.497717597406533, 47.539100388213271],
              [10.498199647536397, 47.539030890551146],
              [10.524427706775226, 47.535246233313259],
              [10.563013418540262, 47.536003654753223],
              [10.563787795612139, 47.533879651272258],
              [10.572937237922055, 47.53358221104547],
              [10.58143164135771, 47.546677999509711],
              [10.580101952421774, 47.555018558590426],
              [10.590343561211469, 47.560033128607031],
              [10.598178550963214, 47.569774095018303],
              [10.611419860887239, 47.565515781255058],
              [10.618472252652342, 47.567252593809044],
              [10.626238810465299, 47.561027116571829],
              [10.634866119367864, 47.55927806084636],
              [10.676905421692803, 47.558936055946106],
              [10.678304619616467, 47.555478287939856],
              [10.679947047170684, 47.555718533367468],
              [10.681454254584494, 47.556182162734459],
              [10.683517994434926, 47.557123115484892],
              [10.685589004389213, 47.557921281493115],
              [10.687938064141855, 47.558439994821846],
              [10.691129434858578, 47.55921821593266],
              [10.694942581461097, 47.544292551682524],
              [10.708156044750309, 47.543737685076394],
              [10.718981724983101, 47.538215454969531],
              [10.740460320745388, 47.538411777798117],
              [10.75875863266079, 47.534522991411421],
              [10.765028822527666, 47.524948005503205],
              [10.763830460498497, 47.51964577946886],
              [10.777273472602936, 47.514036298688872],
              [10.795258526193686, 47.521188214387834],
              [10.812525363870979, 47.52036210640118],
              [10.812887235379206, 47.526593906220377],
              [10.831418550282967, 47.528718963112269],
              [10.838520589373017, 47.525656757219288],
              [10.853744175229348, 47.534367556915434],
              [10.890129242694655, 47.537633466981632],
              [10.904253257116105, 47.518451419589738],
              [10.915668479645969, 47.519365830295229],
              [10.917873607115649, 47.513454334432836],
              [10.878408636097189, 47.503564864957532],
              [10.871478506404937, 47.496887706419983],
              [10.870859269291932, 47.481645050037116],
              [10.885426440256076, 47.47902179314103],
              [10.91074661365753, 47.485679544178751],
              [10.934901894480443, 47.482695863212633],
              [10.938392218031987, 47.479277688008366],
              [10.928297222053484, 47.472314668612348],
              [10.931533470660733, 47.469065769821263],
              [10.931533487515004, 47.469065752900619],
              [10.931533516785139, 47.46906577452026],
              [10.93266507150082, 47.46792969798004],
              [10.98354470688218, 47.429886014843724],
              [10.984776164198301, 47.421163413488252],
              [10.971667400627474, 47.416595606363728],
              [10.970198926034477, 47.403561737136215],
              [10.977813009357176, 47.397798907894312],
              [10.991559364719279, 47.396407712113337],
              [11.005998157822175, 47.394336418620298],
              [11.015865391090314, 47.396320132386258],
              [11.023929482295534, 47.397108723075611],
              [11.028558186734136, 47.393482868431057],
              [11.055332777466802, 47.395791700697231],
              [11.116026200269614, 47.395700697125804],
              [11.123993403202711, 47.398776201212605],
              [11.122489639663089, 47.407214416076791],
              [11.129208185111448, 47.412591879193471],
              [11.13898778189817, 47.413504082662385],
              [11.157449183821091, 47.421369543589243],
              [11.159696352360562, 47.421711861284734],
              [11.19844932052886, 47.427607573895024],
              [11.206149378328604, 47.43399827885721],
              [11.221388534095311, 47.430526872547404],
              [11.249604767258598, 47.43259893791663],
              [11.254011301125129, 47.42758979965722],
              [11.240537591098455, 47.419430842354643],
              [11.222377883330232, 47.397077423391956],
              [11.226742187916761, 47.3950737029066],
              [11.235218163004953, 47.398101781397457],
              [11.261424784064504, 47.397958829007607],
              [11.265851014139134, 47.397934092244519],
              [11.271114150591945, 47.397904455443665],
              [11.281073626692427, 47.40074601885906],
              [11.290098712580013, 47.407543216443351],
              [11.291698656508263, 47.427875564225594],
              [11.30122926218927, 47.431354217856189],
              [11.311316277902105, 47.430140503906244],
              [11.321749010703, 47.437640009103696],
              [11.329704967240783, 47.438031146152476],
              [11.331783621394182, 47.445622332053482],
              [11.33797257424588, 47.44965215935197],
              [11.357487148086571, 47.448760450770607],
              [11.364864004274102, 47.444907520063069],
              [11.38100642487619, 47.449249876901476],
              [11.393614105021097, 47.445824352510506],
              [11.401677608293005, 47.448547024563922],
              [11.421166695162499, 47.444550508621006],
              [11.412324964732925, 47.455040604764307],
              [11.409146793206482, 47.466988137884606],
              [11.393888667704987, 47.466122399836046],
              [11.383296317543742, 47.472425916796873],
              [11.390286651359231, 47.48213912667007],
              [11.407185021478508, 47.490562954905926],
              [11.409967581582084, 47.494537018083477],
              [11.413404808833645, 47.499445154565194],
              [11.436608050547047, 47.516098490432334],
              [11.441897328750546, 47.518233227380371],
              [11.44280054551075, 47.515646833206318],
              [11.443802931613877, 47.514163180202907],
              [11.445563441430384, 47.512120516853997],
              [11.447331500580002, 47.509863638307515],
              [11.448526117333857, 47.50838987376298],
              [11.449486896527002, 47.507204557724371],
              [11.478356839132902, 47.508958382624115],
              [11.481345377817963, 47.509139512054347],
              [11.505738238972192, 47.504656945316633],
              [11.518953555006936, 47.510925185170372],
              [11.532950471622863, 47.508792423827096],
              [11.572808436924779, 47.514719599910457],
              [11.587720816633535, 47.52544996002392],
              [11.587668532603217, 47.540887798137632],
              [11.587619894900913, 47.555240814212524],
              [11.600675685802397, 47.567743616461819],
              [11.607123067612612, 47.581514405038781],
              [11.609539646655819, 47.581251500329437],
              [11.611241405097907, 47.58109096471216],
              [11.61437135921191, 47.580769165181479],
              [11.615728669834237, 47.580758259113431],
              [11.617407691470435, 47.581069138085141],
              [11.619664610147007, 47.581788659556622],
              [11.621422518406577, 47.582272098171863],
              [11.622604405837695, 47.582289741670735],
              [11.624630500421825, 47.582319959370906],
              [11.626669600310555, 47.581950308800934],
              [11.628976770518204, 47.581127435877931],
              [11.631199014839227, 47.580331600477308],
              [11.632691798535602, 47.57976626132168],
              [11.630445972738013, 47.584431528021462],
              [11.636168333494012, 47.594941689908765],
              [11.660031799286893, 47.583704352356406],
              [11.681222645991316, 47.583718664592958],
              [11.700361175273946, 47.589159028224977],
              [11.721141750025405, 47.588664398972007],
              [11.747542671773783, 47.588030555426087],
              [11.775022466884456, 47.590423466559152],
              [11.817072797218607, 47.58462620725183],
              [11.828537322938143, 47.585728088937501],
              [11.830253051505094, 47.582018010983816],
              [11.844196248073976, 47.581270309420141],
              [11.847817137139105, 47.582504600593964],
              [11.855344885431595, 47.602164931798384],
              [11.865627183732411, 47.601604671875187],
              [11.894551455175803, 47.608393882555895],
              [11.903021233751813, 47.608482137060875],
              [11.914499445402445, 47.613877743176047],
              [11.933750248288264, 47.612756364795011],
              [11.968909535253637, 47.61719236487879],
              [11.976717410243975, 47.61465882752622],
              [11.981315986067756, 47.618922784522788],
              [12.008534790723113, 47.625186229216055],
              [12.021418326542438, 47.611204460235342],
              [12.028003216984997, 47.611153926446654],
              [12.035103637002937, 47.617153006470375],
              [12.049658868047073, 47.614879711322644],
              [12.059835198818428, 47.617601621348868],
              [12.077652710078809, 47.61349015435713],
              [12.082813163276917, 47.609616236030462],
              [12.115383428535585, 47.611442638558884],
              [12.129183383324659, 47.605940299141579],
              [12.140258304888331, 47.605507508296149],
              [12.149339582659382, 47.608542991245386],
              [12.16199036732765, 47.613188411072244],
              [12.178770191426208, 47.614699102689322],
              [12.181316270030576, 47.61081218367827],
              [12.177860273752767, 47.601081534088159],
              [12.180337151802002, 47.602892049901442],
              [12.182422121690404, 47.604127207663183],
              [12.18431167021777, 47.604646132493642],
              [12.186628285482838, 47.604955029455617],
              [12.189267731621527, 47.604936589500532],
              [12.194224233393925, 47.605316475515089],
              [12.197809526273494, 47.605566325969967],
              [12.201179051392577, 47.606028202505662],
              [12.203818727853211, 47.606617275212258],
              [12.205892106313499, 47.60786024466713],
              [12.207339707189417, 47.609302938566202],
              [12.208126207690034, 47.612024739454689],
              [12.208058746422635, 47.615166690087577],
              [12.206287653846944, 47.618934707653267],
              [12.20406304271428, 47.624126689433318],
              [12.202670740515178, 47.629898220520403],
              [12.202276753505446, 47.633465475916616],
              [12.201541455334732, 47.636039031021575],
              [12.199933643887176, 47.639617076903285],
              [12.19914863910636, 47.641363946861553],
              [12.19580425761368, 47.645485489780626],
              [12.192855701546504, 47.648799485355099],
              [12.189809531967111, 47.652768827422022],
              [12.186670328687521, 47.657213698208636],
              [12.185219060553633, 47.659650973225233],
              [12.184176499624925, 47.662679487201316],
              [12.182635858708121, 47.666553085212044],
              [12.180995215011803, 47.669036409275499],
              [12.178486610836764, 47.672510893641387],
              [12.175341726811615, 47.676050327926589],
              [12.170564390904985, 47.681644402838771],
              [12.168253269661372, 47.685692047073168],
              [12.167149716994821, 47.688234935468728],
              [12.165671333377622, 47.692379518643797],
              [12.164619020733213, 47.696868418008485],
              [12.164073899649502, 47.70038358948149],
              [12.181112908324565, 47.700585370909714],
              [12.184319899983356, 47.700506035672099],
              [12.196367225615838, 47.70831644623145],
              [12.203612328886589, 47.707273041344408],
              [12.226617411263623, 47.718290658713087],
              [12.249482857880952, 47.741633497472797],
              [12.25690337806196, 47.743232331879625],
              [12.265256602923293, 47.73254468686158],
              [12.246995131220482, 47.711299575562791],
              [12.243279261091205, 47.692070661069188],
              [12.256971429536003, 47.679275743398676],
              [12.26322765385253, 47.678138091274789],
              [12.2847664321552, 47.689859029962825],
              [12.30575120808893, 47.692610454009177],
              [12.312358718683688, 47.693475947251216],
              [12.333862699501774, 47.696474581178016],
              [12.335084301810078, 47.693079365217592],
              [12.339044893925717, 47.690898591453525],
              [12.353226211876272, 47.690969345200564],
              [12.364016145770028, 47.683893237889848],
              [12.369125751481388, 47.685136541975268],
              [12.393125315435478, 47.69097245156641],
              [12.400591650708368, 47.692786733339425],
              [12.429322627236512, 47.69682187840295],
              [12.440042370199169, 47.695548044947778],
              [12.44281678271094, 47.692232894033843],
              [12.439099008421904, 47.675969354127659],
              [12.452402884128086, 47.668094770074909],
              [12.46578626063245, 47.64956118563741],
              [12.491429299436756, 47.636756397607378],
              [12.499140609728608, 47.624688687347472],
              [12.512696955991245, 47.624714627713644],
              [12.524949242640728, 47.630783238897735],
              [12.535877780298149, 47.636598383454597],
              [12.575435733216798, 47.632298419300234],
              [12.56957376706981, 47.616402562060877],
              [12.573949357405281, 47.605476753792466],
              [12.62543037180407, 47.596669120133832],
              [12.653374790551451, 47.587907656685516],
              [12.666266726591497, 47.57884538929833],
              [12.652267397829062, 47.569840602073299],
              [12.639381057156937, 47.553411258868351],
              [12.62820791868787, 47.549457291926899],
              [12.644351450872437, 47.538160158161631],
              [12.654066110131906, 47.536743261158747],
              [12.659593758899412, 47.512788100280098],
              [12.664343999233111, 47.507787986556849],
              [12.669212002490115, 47.508095326968316],
              [12.672916718163709, 47.499554078205058],
              [12.697537764219003, 47.487488449870597],
              [12.699374273488768, 47.478252371534943],
              [12.684529804485164, 47.474913152793285],
              [12.677653923983888, 47.468856584619004],
              [12.664917411975704, 47.464897050166201],
              [12.641399247736212, 47.468030937384015],
              [12.632800971978877, 47.465271265240034],
              [12.632933416351889, 47.451339492329794],
              [12.638266858485776, 47.449150489742536],
              [12.63822676944611, 47.441127257993429],
              [12.632394558646482, 47.432088077111153],
              [12.625174396429642, 47.422949990564518],
              [12.619955195249718, 47.416882396452856],
              [12.6030928265266, 47.414491031686509],
              [12.591875788253544, 47.405532334039236],
              [12.590984349806927, 47.400174709080503],
              [12.577599575934995, 47.392207634889822],
              [12.554829955131366, 47.399077017464748],
              [12.554209685092099, 47.399264058658076],
              [12.545248517062008, 47.39788932977703],
              [12.542816242666769, 47.394895551056592],
              [12.526382043465389, 47.391155626260414],
              [12.506156292859734, 47.394545812791968],
              [12.497461953855112, 47.381512523480737],
              [12.482170765627568, 47.377963525079792],
              [12.477659107055326, 47.368737314172634],
              [12.48803733320136, 47.359766010192807],
              [12.485909920224078, 47.352950431661647],
              [12.494768141457662, 47.348646780925691],
              [12.497380587875259, 47.34737729259659],
              [12.495060212216325, 47.337672901247878],
              [12.486920568314526, 47.337783969541441],
              [12.478548478698153, 47.326936863872795],
              [12.469875090487758, 47.324209108840911],
              [12.441689175779045, 47.328669911834986],
              [12.418276405308495, 47.321594968414423],
              [12.410118878790483, 47.313793721074255],
              [12.406882162041075, 47.314030260806717],
              [12.406882162041073, 47.314030260806824],
              [12.39140622519372, 47.315161229806634],
              [12.374796969569118, 47.311362044216523],
              [12.342267512771922, 47.32166240626826],
              [12.335358575241957, 47.328186387097325],
              [12.316317459401764, 47.325431567465159],
              [12.313594705888296, 47.329865665630869],
              [12.296347248907523, 47.332768382453153],
              [12.291540320365934, 47.322254584666197],
              [12.264379291179228, 47.302152350653607],
              [12.252470512830213, 47.30772509184726],
              [12.248092014924623, 47.30327615646604],
              [12.237519198139941, 47.301070689154699],
              [12.230143320956049, 47.311730297695284],
              [12.21920718201136, 47.311057564117029],
              [12.21127637662525, 47.306193427273108],
              [12.200252847854747, 47.299430048734258],
              [12.164826277989896, 47.301393887795001],
              [12.165117135756866, 47.299013344009055],
              [12.144478318891659, 47.287781775770554],
              [12.114384112238838, 47.306417137995084],
              [12.078573687831936, 47.275177357523781],
              [12.076638970986879, 47.268140003364692],
              [12.091866099995636, 47.259518508341287],
              [12.102059759220547, 47.257524021107294],
              [12.110466720525899, 47.240748836637152],
              [12.102754329351216, 47.236150556043441],
              [12.102295295925792, 47.235349758692067]
            ]
          ]
        ]
      }
    }
  ]
}
