{
"type": "FeatureCollection",
"name": "AT-03_outline",
"crs": { "type": "name", "properties": { "name": "urn:ogc:def:crs:OGC:1.3:CRS84" } },
"features": [
{
  "type": "Feature",
  "properties": {
    "id": "AT-03",
    "aws": [
      {
        "name": "LWD Niederösterreich",
        "url": [{ "de": "https://www.lawinenwarndienst-niederoesterreich.at" }]
      }
    ]
  },
  "geometry": {
    "type": "MultiPolygon",
    "coordinates": [
      [
        [
          [16.009723943905524, 47.674733371397494],
          [16.011055137930416, 47.67511869133682],
          [16.018042734372038, 47.677141234772016],
          [16.0265992045662, 47.679870011455172],
          [16.034819088174629, 47.683226398310659],
          [16.036819432853754, 47.684043156884933],
          [16.050604857055447, 47.689981284787471],
          [16.062032851996623, 47.694258541137593],
          [16.072471391996174, 47.698165157035149],
          [16.083590968281506, 47.701852539608296],
          [16.083911694697989, 47.701958892375579],
          [16.099566880944337, 47.70714988127358],
          [16.115253742967109, 47.710679168120159],
          [16.124066104190447, 47.711830324601955],
          [16.124615675473297, 47.71190211410994],
          [16.129989886079191, 47.712604132329254],
          [16.132331202736722, 47.715176339299134],
          [16.135325967304659, 47.718352216121893],
          [16.135708372756572, 47.718644228130842],
          [16.138168854709335, 47.720523059133029],
          [16.140650957842656, 47.720688150941506],
          [16.141832253237602, 47.720697255037884],
          [16.144263378867901, 47.720715991414949],
          [16.146492015066976, 47.720602851220463],
          [16.148444135767583, 47.720669508198412],
          [16.150257699256777, 47.721311205162969],
          [16.15330495499293, 47.722837384250809],
          [16.156703135684761, 47.72458356284443],
          [16.159907697662366, 47.725877045890449],
          [16.164814030375776, 47.727300145684858],
          [16.171437753966007, 47.729138109132911],
          [16.177895790168563, 47.731036961392803],
          [16.178409129638265, 47.73117144807663],
          [16.184626796694442, 47.733271724434466],
          [16.190496518113996, 47.735241616014321],
          [16.19262472538945, 47.73541751196565],
          [16.195248270017888, 47.735352391135415],
          [16.197379615414643, 47.735585291402259],
          [16.199015671874356, 47.736059147972632],
          [16.200134603221169, 47.736374337673979],
          [16.201013582037358, 47.73646477764251],
          [16.201924360680465, 47.736558482154706],
          [16.203447736408414, 47.736520554354819],
          [16.205287752611529, 47.736074527548524],
          [16.207895668526621, 47.735723659167327],
          [16.212280773539657, 47.735328348266201],
          [16.217192420602533, 47.73526271454643],
          [16.22177182761866, 47.735319539274208],
          [16.224733847021781, 47.735245261860499],
          [16.226768090859853, 47.73525137607507],
          [16.228561055071935, 47.735492198035693],
          [16.229920253613358, 47.736054271907264],
          [16.230877501575726, 47.736450108919968],
          [16.232243131738127, 47.737055782961022],
          [16.234269912023603, 47.737954629531998],
          [16.23602873097806, 47.738734585240564],
          [16.239697263118082, 47.740700275989006],
          [16.24387708044047, 47.742710116666643],
          [16.246781223113814, 47.744637722873016],
          [16.248400014973456, 47.746311919496812],
          [16.249887720659455, 47.748675462340984],
          [16.250930054686393, 47.750650065068648],
          [16.252292019914453, 47.752273541414205],
          [16.254933482469372, 47.754036096782265],
          [16.257634307269068, 47.755339721879245],
          [16.260125461992789, 47.756210794464053],
          [16.262066780381893, 47.757285362426018],
          [16.263071456570025, 47.758574770847019],
          [16.264215112639988, 47.76083254678688],
          [16.264989786532123, 47.764071602738845],
          [16.265107734676388, 47.765037948405308],
          [16.265302837308194, 47.766636339481394],
          [16.266261428511147, 47.768612947615708],
          [16.26759718503914, 47.771266004571636],
          [16.269375715836738, 47.774250802268817],
          [16.271001061472898, 47.777525332380826],
          [16.27208958991314, 47.780298981668466],
          [16.272097742087421, 47.781956732756207],
          [16.271557777711635, 47.784428839574872],
          [16.270090835063172, 47.788525327579812],
          [16.268877569656535, 47.791089388536825],
          [16.278659030595751, 47.792812357037882],
          [16.289414443589383, 47.789571782619603],
          [16.29525819445918, 47.787810992370368],
          [16.303341705161007, 47.785375237450673],
          [16.293560982586307, 47.768184830819905],
          [16.298821675788467, 47.761351102998056],
          [16.296115350330975, 47.742085184859953],
          [16.291061745031627, 47.726811727606965],
          [16.294750140931868, 47.715444568991728],
          [16.302337899563479, 47.707280512588341],
          [16.304516103575022, 47.697396638608929],
          [16.308940228543129, 47.695347181733439],
          [16.308504659155791, 47.687207601739885],
          [16.323690220290274, 47.683162887776604],
          [16.334825375272519, 47.678648636612827],
          [16.35689323477175, 47.679815871310424],
          [16.351603325366526, 47.671623021819478],
          [16.372436209229843, 47.642585571279106],
          [16.367574524034151, 47.635427696707545],
          [16.371225832332751, 47.623410505336892],
          [16.356124777078641, 47.620751910392578],
          [16.347995252208353, 47.616093916981278],
          [16.353327489277969, 47.609239797436388],
          [16.344429040976891, 47.602917784020839],
          [16.329083053525743, 47.598151078492094],
          [16.330985564674496, 47.589624539470677],
          [16.329829268554469, 47.581871636952549],
          [16.317879368189065, 47.569819544940565],
          [16.313419875863275, 47.565320174602881],
          [16.31396956551438, 47.564575758167564],
          [16.314541544280399, 47.563488882689612],
          [16.314878369152773, 47.56197929567341],
          [16.315006336356817, 47.560510863601301],
          [16.314724717139246, 47.559267470734163],
          [16.3133302598374, 47.557016661604123],
          [16.312102128824275, 47.554904460958106],
          [16.311485633097675, 47.553466754133545],
          [16.311125593651454, 47.550528536553792],
          [16.311105387254184, 47.550363625947696],
          [16.310873183535168, 47.548554904320575],
          [16.310921954713503, 47.546929095436475],
          [16.310942576958716, 47.545427714979283],
          [16.311333363436507, 47.544250254860458],
          [16.312118659161886, 47.543205495637814],
          [16.312714628663105, 47.542744490594899],
          [16.316037863387002, 47.541503401995314],
          [16.316886447494902, 47.540885211956905],
          [16.317476313228664, 47.540119455073352],
          [16.318173572626105, 47.539386637032216],
          [16.319241688097339, 47.538679903594151],
          [16.321138676381043, 47.537701447224784],
          [16.321758827716863, 47.537470897159224],
          [16.32381199914261, 47.536745617991834],
          [16.324509410433702, 47.53641567784706],
          [16.325254664998951, 47.535843246308019],
          [16.326160488372967, 47.535069203950215],
          [16.326887930324716, 47.533942457854785],
          [16.328186692845261, 47.53172875698673],
          [16.328788375018512, 47.530247928620454],
          [16.329884476901352, 47.529111537599981],
          [16.332135472218447, 47.527873496299421],
          [16.334769363942868, 47.526875540080518],
          [16.336566383803181, 47.52600662717569],
          [16.337573158218966, 47.525158372819995],
          [16.338233287394765, 47.523783159455895],
          [16.338342449732206, 47.522922659911522],
          [16.338305532748297, 47.521351283794473],
          [16.338321291660193, 47.519778527948802],
          [16.338553846700929, 47.518307299591505],
          [16.339423219311978, 47.516150592622843],
          [16.338633219606816, 47.515199761113358],
          [16.326401718272223, 47.500473014845639],
          [16.328353367601721, 47.498152778666011],
          [16.320722454679089, 47.494338487682093],
          [16.311147169333797, 47.48085408061425],
          [16.304188868880765, 47.469348761816391],
          [16.290185698922812, 47.464190204803536],
          [16.281135622368705, 47.455497556367213],
          [16.269795931699139, 47.456642866831579],
          [16.253523784511003, 47.448393242673305],
          [16.242834560034822, 47.442061946641708],
          [16.241835401992187, 47.437240178742492],
          [16.222542314575996, 47.427193921004161],
          [16.207359660951326, 47.424587429589096],
          [16.171277359309336, 47.422346706109806],
          [16.140444128823468, 47.441950996035551],
          [16.138466545931543, 47.44968293156893],
          [16.132169136134777, 47.452882807082858],
          [16.13781204475859, 47.461617380018218],
          [16.133180073129839, 47.469236527096363],
          [16.126337627521686, 47.468621519987458],
          [16.115343301716116, 47.47463594486765],
          [16.11982682752642, 47.487686407044066],
          [16.112897943758284, 47.497467931771631],
          [16.121693413398763, 47.511480094869384],
          [16.109420380127769, 47.525262617396621],
          [16.097858442118223, 47.524492517983994],
          [16.094649719965691, 47.511776981481177],
          [16.087689491676752, 47.507130156551206],
          [16.082265793513844, 47.505966877643125],
          [16.077784017302129, 47.499606900145857],
          [16.074397221242556, 47.502657158703094],
          [16.065229333545943, 47.50184441802395],
          [16.065454736184623, 47.486446783686603],
          [16.056413181358934, 47.484904795927783],
          [16.019579111486621, 47.515893509805046],
          [16.008002860182369, 47.517857774924138],
          [16.00305998777521, 47.51662594839015],
          [16.000261321779938, 47.515928472404973],
          [15.976320105707346, 47.520434113303594],
          [15.9587032689791, 47.518209658751523],
          [15.922342142591875, 47.52950496730827],
          [15.921848827963887, 47.529658194937106],
          [15.914115619989985, 47.530169593959201],
          [15.903370066610741, 47.543297362952806],
          [15.905533244616345, 47.559800968957219],
          [15.888008632896858, 47.572092003287281],
          [15.872977807765004, 47.573435393708117],
          [15.864382888959621, 47.565575230986141],
          [15.851250248512869, 47.565853362284962],
          [15.846907796606331, 47.568416112781925],
          [15.845206684792707, 47.578850576482203],
          [15.844003365508595, 47.586230363300288],
          [15.845671470823602, 47.58869477167238],
          [15.860729680185175, 47.610936031645274],
          [15.860504603697253, 47.616709543916606],
          [15.856651618494977, 47.620515886556319],
          [15.840725433269073, 47.618010861717231],
          [15.837065812985694, 47.62008364055815],
          [15.833208393127464, 47.622268361951399],
          [15.830745549271512, 47.629803274678046],
          [15.830745506959659, 47.629803404119173],
          [15.82976784349184, 47.632794199747643],
          [15.822759765480273, 47.637736972953995],
          [15.804080660621414, 47.636041922069637],
          [15.797418559423908, 47.637802706549863],
          [15.789068439549487, 47.64000954781617],
          [15.782690663458823, 47.639070621557558],
          [15.781392754921313, 47.64226625883822],
          [15.746175922643252, 47.63185524295011],
          [15.740699328410376, 47.633724677678693],
          [15.744700508595232, 47.638773155279679],
          [15.742438883832301, 47.642224214127644],
          [15.725007100837315, 47.646611734897483],
          [15.727235603902814, 47.657288734952424],
          [15.728512263959658, 47.663404362387631],
          [15.723586755304797, 47.675754923120557],
          [15.720082950144397, 47.684538816455095],
          [15.714789935941065, 47.697805360651593],
          [15.719219278579278, 47.709710437509464],
          [15.71451678342833, 47.712949986024604],
          [15.697503850103928, 47.713602941886613],
          [15.687316796722394, 47.706663663360828],
          [15.678066906080218, 47.70036196176023],
          [15.671121943975157, 47.709565037845486],
          [15.670288765220787, 47.710669009997893],
          [15.656710133544092, 47.716040950186482],
          [15.651963990412225, 47.717918474621165],
          [15.634975418693474, 47.717537232617062],
          [15.619518877414249, 47.739988154427309],
          [15.619518844496548, 47.739988202230613],
          [15.619518805435268, 47.739988258955663],
          [15.611907365346061, 47.751040443415249],
          [15.606341736190121, 47.750841561709954],
          [15.568840234555509, 47.749501466397383],
          [15.561390361051354, 47.745602104852999],
          [15.552024130738138, 47.74946870018784],
          [15.528698920292761, 47.746069309606192],
          [15.514699285268369, 47.746824352843909],
          [15.509913460778685, 47.753210174647307],
          [15.511535340023896, 47.75393165824444],
          [15.513415661324128, 47.754991567089256],
          [15.514656941692543, 47.755968277782408],
          [15.515627850905114, 47.757235856183378],
          [15.516996944286593, 47.758442947259695],
          [15.514956577029702, 47.763500992048435],
          [15.508281695132915, 47.767178242320547],
          [15.507043586541803, 47.767860298315611],
          [15.451039305073275, 47.772604545498474],
          [15.450983179066268, 47.772685916162665],
          [15.449870779654939, 47.772779539972447],
          [15.449924345353653, 47.772973779097455],
          [15.449884481959851, 47.773736529489589],
          [15.449495460135786, 47.774600935482169],
          [15.448404254546494, 47.775573463984799],
          [15.447314927120894, 47.776593572885595],
          [15.446305750269065, 47.777850333412715],
          [15.445313777636374, 47.779535403436306],
          [15.443728404283689, 47.782279087154187],
          [15.441858494509852, 47.784980316440091],
          [15.440528465256845, 47.787052519067736],
          [15.439988257183614, 47.788620759342386],
          [15.439769024793934, 47.78925716986118],
          [15.439965726128673, 47.790634729308678],
          [15.440041877480885, 47.790783117799307],
          [15.43926377976495, 47.790893717031999],
          [15.433965987033533, 47.791646741709712],
          [15.423481593229219, 47.785196109629894],
          [15.415876605397772, 47.784832549950892],
          [15.411281206779348, 47.784612863724732],
          [15.404561827160867, 47.798477333280324],
          [15.403674164954841, 47.800308617792766],
          [15.406484217416271, 47.812653165834234],
          [15.401153626305936, 47.815056373754764],
          [15.391350761486873, 47.812961246129326],
          [15.390632181098441, 47.816481206228048],
          [15.374908330860121, 47.825542395634699],
          [15.360685952226047, 47.82406434523493],
          [15.355324730743089, 47.82649178586739],
          [15.345763208250697, 47.825726422400436],
          [15.344722281251627, 47.825699273907297],
          [15.333478964939095, 47.827670243784667],
          [15.323091510983437, 47.820635790940187],
          [15.316720261015311, 47.822737948432781],
          [15.303460541055989, 47.821185740107616],
          [15.298748527732004, 47.820634131519142],
          [15.298756928466773, 47.820559925048002],
          [15.298587291039752, 47.819270500927509],
          [15.298380853392546, 47.818625235423767],
          [15.298026618937978, 47.817517980240602],
          [15.296969588037749, 47.815726272787764],
          [15.296218226481876, 47.81446235399364],
          [15.294536030207098, 47.811224030401206],
          [15.294335650140567, 47.80958000332943],
          [15.294527422928232, 47.807147960265567],
          [15.294687714901547, 47.8057641625145],
          [15.294846217306995, 47.804332770960308],
          [15.294725706194617, 47.803001364602821],
          [15.294586521323659, 47.802720042846019],
          [15.293884559828234, 47.801301208378952],
          [15.292995961061591, 47.800220955088392],
          [15.291462779651075, 47.798913511259244],
          [15.290576048366173, 47.797880831848154],
          [15.290033637844157, 47.796604194705431],
          [15.289973240265263, 47.79498602409658],
          [15.290096215024413, 47.794019340000631],
          [15.290191809125435, 47.793267878198037],
          [15.289933740241262, 47.792034043639362],
          [15.289405611423131, 47.791138148101126],
          [15.288459076631675, 47.790392206884498],
          [15.287171864277777, 47.789985388044109],
          [15.286389676625774, 47.789855752894404],
          [15.28441396690897, 47.789936782588484],
          [15.282934392831894, 47.790057024434162],
          [15.28089158125311, 47.790234373255743],
          [15.2795542319957, 47.790211892371708],
          [15.279477315839545, 47.790210598936397],
          [15.278628050859613, 47.79017728861929],
          [15.277423897870236, 47.790102325410551],
          [15.275444639041316, 47.790088014379478],
          [15.273756687895565, 47.790306889520252],
          [15.272285879475426, 47.790664962552839],
          [15.270186447927337, 47.791224056467406],
          [15.268246347706237, 47.791585682978116],
          [15.264826339617912, 47.791777638963055],
          [15.263349680140516, 47.791719531528415],
          [15.262245745891322, 47.791635658844122],
          [15.261294486236814, 47.791563377094889],
          [15.259666563756205, 47.791495304017943],
          [15.258536529954974, 47.791514152721852],
          [15.256634833848787, 47.791688716242092],
          [15.254741846143116, 47.792101217585817],
          [15.253498668219871, 47.792413426025988],
          [15.25271105616214, 47.792611223874133],
          [15.250061961198078, 47.793607687468921],
          [15.247826126559087, 47.794311500388559],
          [15.244827160434587, 47.795408886232508],
          [15.24148009427819, 47.796654812478998],
          [15.238344777441975, 47.797897145375686],
          [15.236044874714043, 47.79879227038505],
          [15.217179525710337, 47.79602747355527],
          [15.201180463117048, 47.772851916376879],
          [15.202511771469926, 47.769915088064252],
          [15.210217554231129, 47.768327053193865],
          [15.209869873450241, 47.762783095139945],
          [15.205676830085556, 47.758881920735405],
          [15.200090253372084, 47.753683756620191],
          [15.186230584226934, 47.756206279660333],
          [15.182802493911312, 47.7568301887652],
          [15.16833628140515, 47.754201296434005],
          [15.158081925932427, 47.75826994160024],
          [15.153544701665831, 47.757840218351696],
          [15.145184968244248, 47.757048453603694],
          [15.141365600719078, 47.76014760283983],
          [15.137713223162299, 47.759480049238633],
          [15.130906363494038, 47.747518466388335],
          [15.089338099317539, 47.74143506927917],
          [15.0746888682429, 47.74116119808712],
          [15.056564612385159, 47.740822358395434],
          [15.039602935523453, 47.750113709571025],
          [15.034988892254914, 47.752640924309127],
          [15.016433092924409, 47.747180704452397],
          [14.997170759077823, 47.741511970433109],
          [14.990598802735738, 47.74070395636631],
          [14.986657191179404, 47.740219333949867],
          [14.972894508642831, 47.743879194914818],
          [14.967772729881352, 47.737819087106502],
          [14.950590757059492, 47.732126436008876],
          [14.927601164232479, 47.710584205294417],
          [14.901087642168779, 47.710867273059556],
          [14.876799301764045, 47.715912509896164],
          [14.876154133781846, 47.718063881607613],
          [14.872109879023586, 47.731547783461764],
          [14.863378559698152, 47.739680594764536],
          [14.861060520374709, 47.741839524162963],
          [14.857563179538163, 47.740562410604319],
          [14.840462367774036, 47.733664023471178],
          [14.831220843537851, 47.739044636426129],
          [14.832359122972106, 47.743932239226368],
          [14.832361120661696, 47.743940816602901],
          [14.81878338456769, 47.744305912184643],
          [14.814393575096103, 47.741655803746653],
          [14.81045410359542, 47.739277446776903],
          [14.799302881022085, 47.73817896288481],
          [14.767483580457737, 47.726285149602873],
          [14.762875687035642, 47.731514247935841],
          [14.761497205482323, 47.733078464372902],
          [14.743429363860313, 47.739930351614966],
          [14.740341757832891, 47.741101177052848],
          [14.737823154986229, 47.748606152707815],
          [14.745922117888627, 47.755171777008378],
          [14.735066568098421, 47.758704356717956],
          [14.732143522203447, 47.761343687339192],
          [14.722535451772394, 47.770018234746011],
          [14.715121468243893, 47.784577126581226],
          [14.712350332413079, 47.790017772624239],
          [14.73174370063481, 47.799515453008063],
          [14.730532057328727, 47.804620597301692],
          [14.71815874087039, 47.810773714232404],
          [14.712940564887319, 47.813368437056738],
          [14.709116771808736, 47.819260302129862],
          [14.725631748258149, 47.841124133241891],
          [14.711368872099776, 47.845873886686356],
          [14.710137651604979, 47.850349647539893],
          [14.723172063109299, 47.859097113234775],
          [14.729405594078365, 47.860593802505939],
          [14.755538277809389, 47.866867864258232],
          [14.762419794683268, 47.872143157597193],
          [14.769724860790951, 47.879642929944005],
          [14.772226342563606, 47.883074458929457],
          [14.759362995299831, 47.900125352169091],
          [14.743147109846353, 47.917674661741117],
          [14.729399634931239, 47.924389739565093],
          [14.728318537339094, 47.935465435376038],
          [14.707609605624894, 47.929751558630535],
          [14.703273422785115, 47.925675139156816],
          [14.670797372974951, 47.935060046853643],
          [14.665131624359928, 47.939586798346333],
          [14.649174590460762, 47.942135786701471],
          [14.641592523761, 47.942714862909945],
          [14.62536660229247, 47.943952395194792],
          [14.622474880250492, 47.947708225018417],
          [14.615881713152334, 47.948519461844953],
          [14.607593720985411, 47.950104478132374],
          [14.579372529431131, 47.97019098779603],
          [14.569294676328985, 47.972766413853812],
          [14.566355313000773, 47.973517552765834],
          [14.560561869805564, 47.974998004664641],
          [14.555489329300835, 47.979692577929306],
          [14.532560575238403, 47.989728094553492],
          [14.50515164944469, 47.9934189833454],
          [14.493845176748973, 47.997697519841182],
          [14.492282876392089, 48.010538179503868],
          [14.473454952737896, 48.027157726320404],
          [14.469978324879815, 48.037975450067314],
          [14.474922786999853, 48.039020807417792],
          [14.482085730743433, 48.039935798957373],
          [14.494270200952762, 48.040670286573878],
          [14.49530666559207, 48.040732764835589],
          [14.512835545503728, 48.039935798957373],
          [14.524237379158006, 48.039506225458069],
          [14.526056480352402, 48.039437688984947],
          [14.546704906689014, 48.040533524528776],
          [14.562154088984073, 48.040732764835589],
          [14.567798982514983, 48.040334283446882],
          [14.577454721449346, 48.038740326883946],
          [14.577989711235542, 48.038644313395316],
          [14.59854879727528, 48.034954481205524],
          [14.619609848072884, 48.032728739817259],
          [14.645193443819952, 48.031267994140343],
          [14.676240358239816, 48.030171960334201],
          [14.704816113330709, 48.03097805637185],
          [14.708030021808431, 48.031068717010747],
          [14.741924336799579, 48.033910435003378],
          [14.749623974141263, 48.034555954854532],
          [14.764272903080759, 48.035635992896793],
          [14.781107702586832, 48.036877162948258],
          [14.796120070856153, 48.038839950622652],
          [14.808004057236973, 48.040932004367072],
          [14.813785707694942, 48.042143632164738],
          [14.819027532751072, 48.043242107026387],
          [14.846032813655532, 48.048900949970623],
          [14.846754177878692, 48.049004162246625],
          [14.881536222968169, 48.053980505422125],
          [14.928340938577547, 48.060045326697036],
          [14.960564732400524, 48.064934693343275],
          [14.987053629533998, 48.06911730679068],
          [14.991224741568004, 48.069775896831544],
          [14.991463096990639, 48.069813531265211],
          [14.991724665691393, 48.069840676440307],
          [15.014488320603459, 48.072202996416713],
          [15.039075923673964, 48.072901788682294],
          [15.051403975513505, 48.073616602611246],
          [15.059647468850462, 48.074094577171223],
          [15.080574804115658, 48.077154702393933],
          [15.084867005631867, 48.07712856793983],
          [15.094051244671499, 48.075099968013156],
          [15.114515469219315, 48.070130036613762],
          [15.11823352582099, 48.067690183303981],
          [15.119292831744323, 48.064442695798199],
          [15.121717164965995, 48.059280528277675],
          [15.126210838361326, 48.056704074329708],
          [15.132733386454362, 48.0538971074172],
          [15.132917565496532, 48.053074907179159],
          [15.133100212008575, 48.050957864671304],
          [15.133629453214718, 48.04900686652396],
          [15.133918907300842, 48.047516712278124],
          [15.134794674361912, 48.0457317509848],
          [15.135686162966621, 48.044403664989439],
          [15.136676587262729, 48.04347402064051],
          [15.138257197893209, 48.042363764849718],
          [15.139932789250683, 48.041537712940617],
          [15.141018136136832, 48.040892256425018],
          [15.141840058462458, 48.040022330597118],
          [15.142404498397033, 48.03909927194433],
          [15.142949113991305, 48.037605106535906],
          [15.143590738068104, 48.036452271557565],
          [15.144151145024907, 48.035414982470193],
          [15.145226398149831, 48.034483933131547],
          [15.146309548621275, 48.033781315105635],
          [15.147299581546037, 48.032851576634016],
          [15.14817670406303, 48.031962353397716],
          [15.14861625984161, 48.031516727732914],
          [15.149924919595321, 48.029953421660366],
          [15.15071669175272, 48.028226773222293],
          [15.15073221574875, 48.028178437086027],
          [15.155443918314706, 48.029109676278651],
          [15.161718663123837, 48.030496682063443],
          [15.168421231442624, 48.032887983156947],
          [15.169267211072874, 48.033275484456261],
          [15.170108822159399, 48.033539396703127],
          [15.173705149384249, 48.035308235803036],
          [15.185706554284176, 48.041210636533059],
          [15.195362293218606, 48.04599212671291],
          [15.197925249430847, 48.046638427751773],
          [15.212742623300516, 48.050374767134024],
          [15.23621349640262, 48.053761095944616],
          [15.243319173209573, 48.054713881332852],
          [15.257753221717802, 48.05664925819714],
          [15.279329465094706, 48.060819944895286],
          [15.281966843968725, 48.061329726778474],
          [15.288937728463798, 48.062857036181363],
          [15.294042960096309, 48.063975555171965],
          [15.320144150217068, 48.06969375336989],
          [15.348692750588285, 48.074769956653078],
          [15.349259916850047, 48.074870798918838],
          [15.351626605089384, 48.075081536614874],
          [15.370502542505694, 48.076762281015363],
          [15.377040241947334, 48.077264907799723],
          [15.388037299759883, 48.078110364677329],
          [15.401442436397421, 48.08112058414693],
          [15.412423239813288, 48.082410623962836],
          [15.428139876452583, 48.082436307598933],
          [15.437450915131297, 48.083605076255239],
          [15.448177126916766, 48.086484580706291],
          [15.452295500509063, 48.087590135321022],
          [15.460988690443639, 48.089225952118888],
          [15.470398238780849, 48.090996508673705],
          [15.475270673196965, 48.091474212708363],
          [15.488451107335178, 48.091194972064848],
          [15.491143611389763, 48.091117855774783],
          [15.500940083779511, 48.090837273003366],
          [15.508052661212687, 48.09197764349274],
          [15.508839461920738, 48.093232440002978],
          [15.508978634610523, 48.093454390594744],
          [15.510193192924154, 48.094551433922213],
          [15.512149859889581, 48.095443374289289],
          [15.515083491737846, 48.09674553354909],
          [15.517795182651893, 48.09783749436415],
          [15.519198359898093, 48.098239692737891],
          [15.520705118643312, 48.098568489362883],
          [15.521776675477096, 48.098691167411623],
          [15.523161907291311, 48.098665052605405],
          [15.524431576828594, 48.098426799572401],
          [15.525491127403422, 48.098263933466384],
          [15.526544662447936, 48.097958302839501],
          [15.528033420433665, 48.097858739810924],
          [15.528992409709735, 48.097840610360208],
          [15.530392663812043, 48.098171295969948],
          [15.531807994159227, 48.098858850958386],
          [15.535092149639746, 48.100868221989501],
          [15.537189254549446, 48.102542865416758],
          [15.53799383591641, 48.103622414413181],
          [15.552873104263673, 48.10771349374081],
          [15.577710635799503, 48.111931678139193],
          [15.595655455234571, 48.114000848802718],
          [15.603974245701117, 48.11272752292934],
          [15.61541489973964, 48.109183710181775],
          [15.618449242217309, 48.111099925198431],
          [15.620070876104014, 48.112401484642895],
          [15.620106443659187, 48.11245482059185],
          [15.620123710769628, 48.112480713769166],
          [15.621136687957931, 48.113999717267696],
          [15.622089723478227, 48.116266901032752],
          [15.623335459073877, 48.118718803110553],
          [15.624698319685445, 48.120596892209562],
          [15.62620341326925, 48.122472158646197],
          [15.626790588744942, 48.123168510556916],
          [15.634835880765717, 48.125070743262484],
          [15.637044883752734, 48.125886710456051],
          [15.643570325539988, 48.128297018735879],
          [15.65522626837782, 48.134128619474154],
          [15.657876743704621, 48.135454589449587],
          [15.681081087707451, 48.148349135179771],
          [15.690706208545636, 48.153696813840753],
          [15.693049963147526, 48.154868568258976],
          [15.708833628123275, 48.162758872176717],
          [15.721619531198131, 48.167326859920649],
          [15.730306763069109, 48.168656141578417],
          [15.731968930410055, 48.16891047509619],
          [15.733256927970022, 48.168878953567386],
          [15.742499336439062, 48.168652760917624],
          [15.744317628194278, 48.168608261118237],
          [15.745841689813354, 48.168273804856263],
          [15.75667729102152, 48.1658958622344],
          [15.766897519309007, 48.160966562766561],
          [15.776954063015538, 48.152670316052223],
          [15.777297686910762, 48.152386816225118],
          [15.777417040420792, 48.15233756575423],
          [15.787337975883952, 48.148243588235573],
          [15.805163955455145, 48.14601674139378],
          [15.814191666891517, 48.145938784244947],
          [15.82358413434544, 48.145857677185788],
          [15.836537679500521, 48.14418747306128],
          [15.845807188877489, 48.141721833713241],
          [15.850926444548813, 48.141324138789372],
          [15.859117253623989, 48.140687820464159],
          [15.863066874056718, 48.138762621877021],
          [15.87005052109442, 48.135358342989875],
          [15.879914229790421, 48.134403750943562],
          [15.894888052630218, 48.132653619155576],
          [15.909011994151872, 48.127707362743436],
          [15.913427071384323, 48.125015978193403],
          [15.917326055833554, 48.120318360251503],
          [15.922175669418921, 48.114474791626627],
          [15.922921964439519, 48.11357547996387],
          [15.924476953491856, 48.112995357109874],
          [15.927450175313629, 48.111886112996835],
          [15.935088337469628, 48.111329013769023],
          [15.939453001558253, 48.111010668625291],
          [15.947468766132598, 48.10964229585219],
          [15.958705059495131, 48.105837281977685],
          [15.967848621675332, 48.101126643712938],
          [15.972228490055198, 48.098870041548444],
          [15.97594684589466, 48.098200917813436],
          [15.979275165826886, 48.097232009766593],
          [15.982245231717833, 48.096211639875456],
          [15.986112584261354, 48.095014912185107],
          [15.989507505794474, 48.093961795094486],
          [15.990903441116993, 48.093418056955109],
          [15.993080358135478, 48.092570102967365],
          [15.996273630196161, 48.090710686614081],
          [15.998260495506788, 48.089593363469405],
          [16.000513562924525, 48.088469886344058],
          [16.004051447434673, 48.086956197670119],
          [16.010278656298233, 48.08501333506306],
          [16.017447156561218, 48.083403047811935],
          [16.029560727046722, 48.082047031352552],
          [16.035495126156821, 48.081337395044862],
          [16.041333993700935, 48.080844029202012],
          [16.045373458762363, 48.080606786956892],
          [16.047169033526767, 48.080279006496568],
          [16.04797727556792, 48.080012181707602],
          [16.04926547187474, 48.079586906831736],
          [16.050509910605232, 48.078914723019899],
          [16.05141622882649, 48.077893196729519],
          [16.05210216170429, 48.076887458226764],
          [16.052406656423166, 48.076440991202972],
          [16.054519914129656, 48.074033594058427],
          [16.057415625586298, 48.072322284238126],
          [16.059526961789565, 48.071262471014172],
          [16.059804904353179, 48.071122952420573],
          [16.061665438703056, 48.070007455154737],
          [16.062483597020151, 48.069345156231201],
          [16.063466439349757, 48.068277693559068],
          [16.063492246043417, 48.068249664671548],
          [16.064485893328285, 48.066868713703187],
          [16.066092083519514, 48.064973168319675],
          [16.068135229607641, 48.063281647659934],
          [16.072460281495836, 48.060393004816092],
          [16.075210420298031, 48.058527752322775],
          [16.076062247462495, 48.057949995786856],
          [16.07709988703834, 48.057340398252038],
          [16.079990727317504, 48.055642035078222],
          [16.080427195891264, 48.055425248433586],
          [16.083314105783582, 48.05399134542504],
          [16.085489071611441, 48.052796524574092],
          [16.087523569862672, 48.05096193062549],
          [16.088923115096083, 48.049213838675307],
          [16.089218593031784, 48.048762073085172],
          [16.09020481866229, 48.047254172569353],
          [16.090881861309942, 48.045951938292852],
          [16.091482650584247, 48.04522312877166],
          [16.092300040672221, 48.044560613842265],
          [16.093826611511343, 48.043952450854874],
          [16.095751425065831, 48.043335202413914],
          [16.097846479465375, 48.042810726230861],
          [16.100167959607255, 48.042229560324365],
          [16.10309831200275, 48.041230711453366],
          [16.105587730083165, 48.039956519339718],
          [16.108259460628062, 48.038106284863879],
          [16.110201381529205, 48.036559278123711],
          [16.111706179180345, 48.034808353814931],
          [16.112899294148431, 48.033207786517721],
          [16.11384512888808, 48.03208108015891],
          [16.114001162841966, 48.031895205509599],
          [16.11533859928954, 48.031005677498442],
          [16.115861313135216, 48.030728747562371],
          [16.116892579220405, 48.03018238601382],
          [16.11846937622736, 48.029787243690087],
          [16.12091632867034, 48.029728422822203],
          [16.123686260363638, 48.029733228957788],
          [16.126026815621788, 48.029676861188918],
          [16.127614998708523, 48.029495678697735],
          [16.127846958559662, 48.0294053722765],
          [16.129180216614881, 48.028886306243621],
          [16.131265840739804, 48.028049989441243],
          [16.133059063698941, 48.027720873263348],
          [16.134757379898652, 48.027608384246534],
          [16.136041658356532, 48.027720244364524],
          [16.137037479675918, 48.028410699693445],
          [16.137383494507763, 48.028902506899804],
          [16.137855091334139, 48.029748544277801],
          [16.138451289004177, 48.030067043480663],
          [16.13862284123579, 48.030158689310632],
          [16.140028942565838, 48.030553374330559],
          [16.1416103887011, 48.030326432042926],
          [16.142862454990741, 48.029838784644973],
          [16.143831479114738, 48.02884351669033],
          [16.144858240392672, 48.0275955245367],
          [16.145031165432904, 48.027385337252319],
          [16.147094145058606, 48.026134841820316],
          [16.149446239837207, 48.025506080977287],
          [16.149677213282445, 48.025481915734886],
          [16.153005139268942, 48.025133735318249],
          [16.156469615555512, 48.02459208792304],
          [16.16152616240452, 48.023554184131861],
          [16.164697960398513, 48.022333459781237],
          [16.166426088467787, 48.021205110158675],
          [16.166890141213397, 48.020336303640725],
          [16.16683431852281, 48.019308714869382],
          [16.166765585124296, 48.019185523582614],
          [16.166173561093672, 48.018124423063014],
          [16.165109084533903, 48.017350142861623],
          [16.163585126657008, 48.015958271972742],
          [16.162678518948784, 48.014951458598709],
          [16.162443329116034, 48.013756755347124],
          [16.162998657306026, 48.013000061909096],
          [16.164073748907651, 48.012402160857242],
          [16.16475401174192, 48.012339661878165],
          [16.166616883291901, 48.012168510626609],
          [16.168491762274176, 48.012179814393562],
          [16.170665353748113, 48.012984074172302],
          [16.173982397854594, 48.014446240840485],
          [16.176451874243313, 48.015986279512141],
          [16.178720177278738, 48.016959563597851],
          [16.18131957262554, 48.017753174759157],
          [16.183547490342235, 48.017984220960621],
          [16.1869573165289, 48.018014631861128],
          [16.188257159229586, 48.01789667511413],
          [16.191281235066164, 48.017622248436261],
          [16.194968758409775, 48.016502275737139],
          [16.1991858524114, 48.014168618638173],
          [16.202381622822141, 48.011860091172956],
          [16.205011930793368, 48.01019683820175],
          [16.206333353235181, 48.009361227544467],
          [16.210393112320219, 48.007540757235866],
          [16.212370960310729, 48.006814550808464],
          [16.213106726446938, 48.006544396938352],
          [16.214324425893871, 48.006097249691194],
          [16.213767230733279, 48.001453701701813],
          [16.213568143995403, 47.999794452473438],
          [16.208340077410291, 47.989130026800758],
          [16.207822841931645, 47.981708771956541],
          [16.210549480226259, 47.974027551528934],
          [16.21082153163891, 47.973261091650336],
          [16.212036903974159, 47.965963286985527],
          [16.212363392992028, 47.964002679635364],
          [16.219224660677398, 47.954972674530005],
          [16.219937944662057, 47.954330395967794],
          [16.216612434149411, 47.950048571163038],
          [16.213189846071749, 47.942958556096599],
          [16.210480297176925, 47.936442544457357],
          [16.209917880325655, 47.932771059193641],
          [16.209482042320971, 47.929925706586921],
          [16.209054218811243, 47.92398316371073],
          [16.209047943846976, 47.923889906040735],
          [16.207878940648531, 47.906513387643955],
          [16.207770748282069, 47.904904877397406],
          [16.207057709099228, 47.897041414146265],
          [16.206344669916387, 47.890327750870448],
          [16.205631630733546, 47.886395055712583],
          [16.204775983714132, 47.883517283554063],
          [16.203635121021566, 47.880543416675948],
          [16.201781219146156, 47.87747343845502],
          [16.197075160539388, 47.872676231096513],
          [16.192677160194421, 47.868129215540741],
          [16.191228239240015, 47.866631113637837],
          [16.187663043325777, 47.861928865171144],
          [16.184949035528177, 47.857895396993769],
          [16.184240455248116, 47.856842276561508],
          [16.182529161209249, 47.85329096426981],
          [16.18153090635326, 47.849547424254744],
          [16.181103082843599, 47.845515615577185],
          [16.181245690680107, 47.84148349158766],
          [16.181668760734212, 47.838540267723289],
          [16.169933957176877, 47.833504513549848],
          [16.162827940885798, 47.830337319008827],
          [16.161191201339179, 47.829607786715407],
          [16.155740095835007, 47.82717802977492],
          [16.147461834006744, 47.824500279923754],
          [16.131712133226905, 47.819405377579912],
          [16.119067571717707, 47.812809673498414],
          [16.112881102541532, 47.808305818259427],
          [16.107193170398265, 47.804164559759307],
          [16.100965014264681, 47.80102508063861],
          [16.098514423176351, 47.799789738217605],
          [16.096228003335671, 47.799372952324376],
          [16.091328048579868, 47.79847974020015],
          [16.083900557091994, 47.799040243178105],
          [16.081286080088109, 47.791072522361219],
          [16.073429136136653, 47.781322122283967],
          [16.068847429719114, 47.775635414483212],
          [16.064520247280029, 47.767292487925332],
          [16.061775115581238, 47.761999100543008],
          [16.061317735948215, 47.761117091069458],
          [16.060443060910455, 47.760183659657741],
          [16.055216828149778, 47.754606003128004],
          [16.048961637132344, 47.747929407969458],
          [16.039895592160001, 47.731758955287468],
          [16.036266513486371, 47.726672555968399],
          [16.031894978583484, 47.720268213002178],
          [16.036789325234544, 47.711892517044355],
          [16.035086221559212, 47.711366890503058],
          [16.032089028919778, 47.709774504732337],
          [16.030754931442516, 47.708790099127569],
          [16.027262741312413, 47.706213188699095],
          [16.014314565117019, 47.694899094583576],
          [16.012335435905303, 47.693359916329342],
          [16.009057210416927, 47.69192095060059],
          [16.0055071049545, 47.690898483795017],
          [16.002654969681402, 47.690309611464222],
          [15.998211278391592, 47.689638416823797],
          [15.994827757032214, 47.689002102582492],
          [15.991244057961302, 47.687893937307891],
          [15.987992281222803, 47.686584239480105],
          [15.984563557955491, 47.684832420176676],
          [15.981082682172355, 47.682146448576091],
          [15.978992016694058, 47.680486652048003],
          [15.978799495854341, 47.680333800947643],
          [15.97654179456713, 47.679053173418069],
          [15.975573142093872, 47.678631359670867],
          [15.97372720746303, 47.6780155033466],
          [15.970851236294521, 47.67723954185864],
          [15.959719607798274, 47.674739354699938],
          [15.957910635369446, 47.674481108575471],
          [15.956006078037714, 47.674476873821284],
          [15.953665148106305, 47.674811903914559],
          [15.95126757242504, 47.675632727438064],
          [15.949527583558984, 47.676101008775639],
          [15.946995990122023, 47.676253779824933],
          [15.944095552924983, 47.676081403542391],
          [15.940429613743337, 47.67578509473892],
          [15.94041305937137, 47.675783756686123],
          [15.93820540127652, 47.67535736150198],
          [15.935861590260348, 47.675029275253081],
          [15.934450182672199, 47.675013534690457],
          [15.934124163397849, 47.675020896561122],
          [15.931843436380024, 47.675072397834356],
          [15.931778378812336, 47.67504082154705],
          [15.931626599186904, 47.674563729863387],
          [15.930057141543406, 47.670881865724311],
          [15.929866997761227, 47.669340660060641],
          [15.929106422632815, 47.667799408606356],
          [15.929106422632815, 47.666900324111722],
          [15.929866997761227, 47.665872779895395],
          [15.931386394531211, 47.665231294747386],
          [15.931388148017984, 47.665230554425484],
          [15.93424030474938, 47.664973662011505],
          [15.936902317698699, 47.664973662011505],
          [15.938803755519643, 47.664331425411781],
          [15.939754474430099, 47.663689180862036],
          [15.939878652934469, 47.663520613602245],
          [15.940708796987526, 47.662393712808111],
          [15.944837378266318, 47.66301350707878],
          [15.95268080927767, 47.663976883467441],
          [15.955869942235839, 47.664599254590954],
          [15.963376397020419, 47.666064137613049],
          [15.964555811577766, 47.666263313500998],
          [15.966868891921257, 47.666653937145334],
          [15.972883586125, 47.667669660585744],
          [15.981440056319261, 47.670238393994708],
          [15.988808127875286, 47.672485931387676],
          [15.993086362972365, 47.673288599713139],
          [15.993807084837488, 47.673326044797072],
          [15.996176199431412, 47.673449131887637],
          [15.999266035890354, 47.673609663565415],
          [16.003306591259921, 47.673770194746268],
          [16.009723943905524, 47.674733371397494]
        ]
      ]
    ]
  }
}
]
}
