{
  "type": "FeatureCollection",
  "name": "IT-25-SO-LI_outline",
  "crs": {
    "type": "name",
    "properties": { "name": "urn:ogc:def:crs:OGC:1.3:CRS84" }
  },
  "features": [
    {
      "type": "Feature",
      "properties": {
        "id": "IT-25-SO-LI",
        "aws": [
          {
            "name": "ALPSOLUT",
            "url": [
              {
                "en": "https://www.livigno.eu/en/avalanche-bulletin"
              },
              {
                "it": "https://www.livigno.eu/bollettino-valanghe"
              }
            ]
          },
          {
            "name": "AINEVA",
            "url": [
              {
                "en": "https://bollettini-en.aineva.it"
              },
              {
                "it": "https://bollettini.aineva.it"
              },
              {
                "de": "https://bollettini-de.aineva.it"
              },
              {
                "es": "https://bollettini-es.aineva.it"
              },
              {
                "fr": "https://bollettini-fr.aineva.it"
              },
              {
                "oc": "https://bollettini-oc.aineva.it"
              },
              {
                "ca": "https://bollettini-ca.aineva.it"
              }
            ]
          },
          {
            "name": "METEOMONT Carabinieri",
            "url": [
              {
                "it": "https://meteomont.carabinieri.it/home?lang=en"
              }
            ]
          }
        ]
      },
      "geometry": {
        "type": "MultiPolygon",
        "coordinates": [
          [
            [
              [10.0766, 46.428],
              [10.065, 46.4263],
              [10.0613, 46.4279],
              [10.0564, 46.4401],
              [10.0423, 46.4424],
              [10.0401, 46.4465],
              [10.0426, 46.453],
              [10.0533, 46.4633],
              [10.0511, 46.4719],
              [10.0452, 46.477],
              [10.0435, 46.4813],
              [10.0476, 46.4874],
              [10.0453, 46.4926],
              [10.0481, 46.4996],
              [10.0427, 46.5087],
              [10.0511, 46.5134],
              [10.0538, 46.5209],
              [10.0522, 46.532],
              [10.0442, 46.538],
              [10.0468, 46.544],
              [10.0613, 46.5462],
              [10.0683, 46.5514],
              [10.072, 46.559],
              [10.0842, 46.5665],
              [10.0794, 46.5746],
              [10.096, 46.5786],
              [10.1006, 46.5844],
              [10.0975, 46.5946],
              [10.1021, 46.6107],
              [10.117, 46.6064],
              [10.1293, 46.6059],
              [10.1386, 46.6106],
              [10.1891, 46.6272],
              [10.1897, 46.6256],
              [10.192, 46.6031],
              [10.1981, 46.5857],
              [10.2027, 46.5765],
              [10.1956, 46.5686],
              [10.2057, 46.5548],
              [10.2002, 46.5438],
              [10.2112, 46.5371],
              [10.2106, 46.5295],
              [10.2176, 46.4943],
              [10.2124, 46.4818],
              [10.1993, 46.4772],
              [10.1923, 46.4711],
              [10.1935, 46.461],
              [10.1816, 46.4607],
              [10.1712, 46.4512],
              [10.1654, 46.4512],
              [10.1559, 46.442],
              [10.1332, 46.4368],
              [10.0907, 46.4285],
              [10.0819, 46.4197],
              [10.0766, 46.428]
            ]
          ]
        ]
      }
    }
  ]
}
