{
  "type": "FeatureCollection",
  "name": "IT-82_outline",
  "crs": {
    "type": "name",
    "properties": { "name": "urn:ogc:def:crs:OGC:1.3:CRS84" }
  },
  "features": [
    {
      "type": "Feature",
      "properties": {
        "id": "IT-82",
        "aws": [
          {
            "name": "METEOMONT Carabinieri",
            "url": [
              {
                "it": "https://meteomont.carabinieri.it/home?lang=en"
              }
            ]
          }
        ]
      },
      "geometry": {
        "type": "MultiPolygon",
        "coordinates": [
          [
            [
              [13.907217980305763, 37.85407610706612],
              [13.916472503677262, 37.880864126310541],
              [13.944236073791714, 37.89060280952323],
              [13.942693653229799, 37.907642405797525],
              [13.907217980305751, 37.925894738185669],
              [13.899505877496191, 37.957521383831796],
              [13.928811868172588, 37.963601870566002],
              [13.922642185924927, 37.987918782702032],
              [13.951948176601309, 38.007366511479539],
              [14.02906920469704, 38.023163993664639],
              [14.083053924364073, 38.008581823297682],
              [14.336010896518129, 38.003720455150969],
              [14.356062363823028, 37.969681853846808],
              [14.303620064717919, 37.941709762354272],
              [14.369944148880265, 37.899123100764996],
              [14.368401728318362, 37.888168259466859],
              [14.163259793583663, 37.828496641442442],
              [14.079969083240231, 37.830933163225374],
              [14.044493410316207, 37.818749749764166],
              [13.99976321402068, 37.845550604240579],
              [13.921099765362984, 37.84311456523271],
              [13.907217980305763, 37.85407610706612]
            ]
          ],
          [
            [
              [15.027015308256072, 37.883298917858824],
              [15.091796971856521, 37.883298917858852],
              [15.190511887819055, 37.819968181619558],
              [15.199766411190563, 37.783406477979547],
              [15.162748317704589, 37.75170503079341],
              [15.178172523323731, 37.734629392455389],
              [15.178172523323761, 37.668729323104088],
              [15.144239270961615, 37.636978769408607],
              [15.033184990503736, 37.632092863985058],
              [14.983827532522458, 37.570991945067924],
              [14.956063962407979, 37.568546864635621],
              [14.937554915665014, 37.59543833433851],
              [14.863518728693069, 37.619876694972312],
              [14.866603569816904, 37.661403477213938],
              [14.829585476330941, 37.69802547554373],
              [14.820330952959468, 37.802908305501496],
              [14.897451981055202, 37.861382896290664],
              [14.952979121284143, 37.880864126310541],
              [15.027015308256072, 37.883298917858824]
            ]
          ],
          [
            [
              [14.92521555116968, 38.148208254704407],
              [14.96223364465564, 38.128797936185975],
              [14.974573009150973, 38.089961811822839],
              [15.027015308256077, 38.114236809210261],
              [15.10413633635182, 38.082677740034498],
              [15.16891799995226, 38.092389674472841],
              [15.283057121533961, 38.155485792958771],
              [15.465062747839937, 38.220950954053116],
              [15.505165682449725, 38.271827614991615],
              [15.548353458183358, 38.266983753010493],
              [15.551438299307172, 38.23791379758687],
              [15.452723383344631, 38.068107419337821],
              [15.391026560868022, 38.031668919854717],
              [15.252208710295672, 37.861382896290671],
              [15.196681570066717, 37.858947380360213],
              [15.184342205571395, 37.890602809523237],
              [15.036269831627569, 37.949007856653722],
              [14.943724597912635, 37.912510137285594],
              [14.919045868922021, 37.919811130640483],
              [14.909791345550536, 37.941709762354272],
              [14.878942934312217, 37.900340204722959],
              [14.807991588464137, 37.929544661136866],
              [14.76788865385433, 37.912510137285601],
              [14.743209924863697, 37.893037279078669],
              [14.659919214520299, 37.885733628911709],
              [14.607476915415202, 37.863818331741392],
              [14.551949775186229, 37.871124155196014],
              [14.511846840576448, 37.854076107066128],
              [14.434725812480695, 37.851640349706209],
              [14.397707718994727, 37.873559268709428],
              [14.36068962550876, 37.931977842444297],
              [14.382283513375592, 37.970897790086262],
              [14.363774466632625, 38.000074217515596],
              [14.548864934062415, 38.026809082927606],
              [14.721616036996911, 38.070536007694464],
              [14.730870560368414, 38.099672778561484],
              [14.770973494978151, 38.109382454939826],
              [14.777143177225822, 38.131224508355025],
              [14.795652223968824, 38.133650999854758],
              [14.87894293431223, 38.131224508355039],
              [14.92521555116968, 38.148208254704407]
            ]
          ]
        ]
      }
    }
  ]
}
