{
  "type": "FeatureCollection",
  "name": "RO_micro-regions",
  "crs": {
    "type": "name",
    "properties": { "name": "urn:ogc:def:crs:OGC:1.3:CRS84" }
  },
  "features": [
    {
      "type": "Feature",
      "properties": {
        "id": "RO",
        "aws": [
          {
            "name": "ANM",
            "url": [
              {
                "po": "https://www.meteoromania.ro/Upload-Produse/nivologie/nivologie.pdf"
              }
            ]
          }
        ]
      },
      "geometry": {
        "type": "MultiPolygon",
        "coordinates": [
          [
            [
              [22.345186769677408, 45.288949000703788],
              [22.364457744256899, 45.35861220143201],
              [22.405909771034079, 45.348436671436772],
              [22.433198817561447, 45.306026558417514],
              [22.488129539873842, 45.292409583937058],
              [22.541403623092247, 45.391500722501021],
              [22.533078604408129, 45.411344301916699],
              [22.447055048503323, 45.438467837584341],
              [22.452739716632422, 45.485042234322577],
              [22.426756662083342, 45.503084685090755],
              [22.625760144604225, 45.507787040429776],
              [22.83074626702636, 45.486608287111878],
              [22.829826410904616, 45.469268326630306],
              [22.81462991688322, 45.444762949429254],
              [22.782739346595889, 45.441537493546519],
              [22.769950883270994, 45.389644308108529],
              [22.71920222083294, 45.330676493083857],
              [22.792217253355858, 45.312143005207162],
              [22.869720487121192, 45.258986750570216],
              [22.703140123445891, 45.132937718069876],
              [22.666108285655707, 45.114067728666967],
              [22.637383962648975, 45.143773633236556],
              [22.550011606279675, 45.183927744656593],
              [22.530928873114814, 45.220032677754979],
              [22.458812410097806, 45.16430939191217],
              [22.375984803499037, 45.136156080555573],
              [22.338335896896478, 45.145391562311445],
              [22.323639976848298, 45.179156170667817],
              [22.354743104037457, 45.190266431745705],
              [22.345186769677408, 45.288949000703788]
            ]
          ],
          [
            [
              [23.764448762222024, 45.251273628534491],
              [23.785789058982026, 45.193833778550996],
              [23.745938747521954, 45.175399238369977],
              [23.653191459017499, 45.192711490554188],
              [23.624285484259381, 45.182679745883085],
              [23.588047779873087, 45.199617175307203],
              [23.527122926525045, 45.17872755137202],
              [23.431951929874387, 45.171680433048294],
              [23.373954093516915, 45.205118664254343],
              [23.393767308577306, 45.2380878411239],
              [23.390148947961883, 45.2684886277708],
              [23.373953293871374, 45.272273392922322],
              [23.392085299622995, 45.281646341033685],
              [23.371374190437859, 45.325771446322861],
              [23.380741739240435, 45.420242060540936],
              [23.429702827658382, 45.417949292231405],
              [23.453991317712351, 45.458014711217203],
              [23.419411536624132, 45.456787961906599],
              [23.419509128461744, 45.508405621444496],
              [23.376530882120022, 45.519906180953996],
              [23.393908276015473, 45.544840751930977],
              [23.342992495044957, 45.561141675544761],
              [23.370214766943469, 45.600646293707179],
              [23.2522020097039, 45.624411147594316],
              [23.277349169672874, 45.658805031094431],
              [23.307032598610903, 45.66090568193502],
              [23.305287245216689, 45.687367836747953],
              [23.333676870883675, 45.717585563575774],
              [23.249398652967177, 45.754820391930586],
              [23.292226588581066, 45.759673333745276],
              [23.33953658695242, 45.822628460496261],
              [23.457662508117856, 45.804024967635812],
              [23.486165466063429, 45.787273068355304],
              [23.465305673337543, 45.76373773023581],
              [23.478301063293717, 45.704268942489847],
              [23.512033382589173, 45.687308887514163],
              [23.57975814938715, 45.685193562072726],
              [23.643807433684753, 45.640656196554367],
              [23.632791076469438, 45.619732752212066],
              [23.652626018276688, 45.601102683619601],
              [23.601903659487906, 45.574821981679911],
              [23.598217528881335, 45.554113043393215],
              [23.636463350599129, 45.543925203078295],
              [23.664659440233926, 45.483068303979529],
              [23.651895427803296, 45.467516201244486],
              [23.608531247406056, 45.460661933036576],
              [23.63319254992183, 45.435714321523484],
              [23.621466785283747, 45.364790510715785],
              [23.670953412458822, 45.352602773279202],
              [23.779988424699081, 45.366266172857912],
              [23.794838157764822, 45.31457545089954],
              [23.764448762222024, 45.251273628534491]
            ]
          ],
          [
            [
              [25.412536344935468, 45.249649114034305],
              [25.405150403859849, 45.292249065685048],
              [25.359107949654405, 45.343517977569157],
              [25.385906270053564, 45.382464204374607],
              [25.354967486950617, 45.452045069686768],
              [25.373050474948748, 45.483661906248116],
              [25.448867390275293, 45.510671660540709],
              [25.514524890150213, 45.449479402979755],
              [25.538631696116649, 45.351262313427888],
              [25.511030816989951, 45.330516374334472],
              [25.528547767786161, 45.320964001657998],
              [25.509481489658391, 45.28501521187593],
              [25.443723599411967, 45.235783221942846],
              [25.412536344935468, 45.249649114034305]
            ]
          ],
          [
            [
              [24.453228335750175, 45.658312082030761],
              [24.46868600714193, 45.67798566938847],
              [24.487955938226573, 45.670028995247158],
              [24.653301861932857, 45.697363019569757],
              [24.84341002846471, 45.690177070283774],
              [24.892979838525484, 45.671121876039834],
              [24.894346055517747, 45.684189938236145],
              [24.923021879484399, 45.672316338076243],
              [24.938304335732184, 45.688512860815194],
              [25.068025342071493, 45.700073435223118],
              [25.116443931310101, 45.63996144495519],
              [25.110889873918637, 45.599267068448739],
              [25.194688481837161, 45.561537516260728],
              [25.16469023620694, 45.527382458640517],
              [25.149620909619912, 45.517899832081127],
              [25.130294802859034, 45.528355425348323],
              [25.087075680196431, 45.571693201656977],
              [25.052079669267012, 45.563962139876935],
              [24.824401104306297, 45.44362576227585],
              [24.802028146408997, 45.389170853166711],
              [24.696382306914217, 45.42174374176296],
              [24.646853558925869, 45.458656762005738],
              [24.615713946202227, 45.432811424193972],
              [24.59050559704168, 45.432918404726585],
              [24.315183907612042, 45.476450790630018],
              [24.251912677286299, 45.579153461428966],
              [24.270391771302933, 45.631785939369649],
              [24.453228335750175, 45.658312082030761]
            ]
          ],
          [
            [
              [23.457096436610662, 46.630686940337412],
              [23.45745131097377, 46.618133189990466],
              [23.39912641153305, 46.618173062759816],
              [23.433975526430554, 46.589349601224626],
              [23.431030676531797, 46.565029261211102],
              [23.472685031861882, 46.551357286951934],
              [23.492787312890659, 46.526505301740862],
              [23.574098421836336, 46.525031762038324],
              [23.573897269730452, 46.515420414956836],
              [23.499323900760732, 46.475798073107576],
              [23.436638216886838, 46.405149309382011],
              [23.363824336566687, 46.412169976125092],
              [23.292023646292584, 46.38601043793858],
              [23.195638465259425, 46.381520963719765],
              [23.160770197806031, 46.382473899199049],
              [23.119324287959749, 46.405910943916879],
              [23.071709651407566, 46.376490512563343],
              [23.000183441963554, 46.367731179157936],
              [22.9483190036065, 46.396450072174083],
              [22.954803103028222, 46.445518793142654],
              [22.787260422790869, 46.447704461173437],
              [22.677269412804073, 46.505305129637932],
              [22.580640020048033, 46.484012901598774],
              [22.578367743032661, 46.572839806872771],
              [22.669241254253372, 46.616347549447603],
              [22.675666620618863, 46.666675852229069],
              [22.714086982756722, 46.776940815674614],
              [22.800953140303434, 46.852463163868407],
              [22.849622219641965, 46.933618956152934],
              [22.868907983899959, 46.896011198724835],
              [22.895373033357277, 46.887837617674343],
              [22.898909254154962, 46.859628877685935],
              [22.974407356180553, 46.799024225462574],
              [23.013076930928655, 46.708436362926136],
              [23.057457654730626, 46.726776698327903],
              [23.063776130774237, 46.754512662407997],
              [23.12018803569973, 46.778890446557483],
              [23.242186656604641, 46.774956830012371],
              [23.290505782990568, 46.749730433806064],
              [23.290112485608894, 46.718068103864503],
              [23.349291304049292, 46.723127191741952],
              [23.403191148800676, 46.686882777778045],
              [23.406528923742343, 46.655951571467043],
              [23.457096436610662, 46.630686940337412]
            ]
          ],
          [
            [
              [25.40699364210619, 47.340260823803497],
              [25.520501533549677, 47.409420588135561],
              [25.542251802248771, 47.408202645718802],
              [25.57818143185095, 47.39136850827726],
              [25.586609052745899, 47.360860795752274],
              [25.611440075870373, 47.357400309118319],
              [25.656293781033927, 47.264389322380978],
              [25.688763986040236, 47.260630413902327],
              [25.716727106676643, 47.233861517013224],
              [25.741918323915797, 47.236023555423152],
              [25.7354789542905, 47.217716797046641],
              [25.75639500314896, 47.214487639257591],
              [25.74816876418268, 47.200735486043563],
              [25.789944592535843, 47.16784764763338],
              [25.860907587479129, 47.152821208220345],
              [25.959915043372131, 47.088961478969232],
              [25.92573012257882, 47.051855070901176],
              [26.024030971653861, 47.033184670880694],
              [26.067224807415737, 46.998990584044321],
              [26.053309233249216, 46.981264514420474],
              [26.071340440360053, 46.960864054386327],
              [26.102052579973218, 46.949386286670666],
              [26.071452196034521, 46.901506163410723],
              [26.00771404033415, 46.901578472974357],
              [25.927921800396877, 46.862578015532065],
              [25.885776809221259, 46.881991226995304],
              [25.852678932044082, 46.966098367877265],
              [25.787104720391621, 46.945976626273634],
              [25.741676480706854, 46.948286049197144],
              [25.652895423297558, 46.989753765391107],
              [25.646990641340825, 47.006098094558347],
              [25.601465032213454, 46.999816590566489],
              [25.533538959197447, 46.95897628390189],
              [25.424213834253564, 46.979884778601367],
              [25.322979733134641, 46.940497662010657],
              [25.143366142328489, 46.970745345422117],
              [25.062309171412046, 46.944156704533619],
              [24.996613862603148, 46.979641630719179],
              [24.901938862397493, 46.967128363196991],
              [24.870234522247696, 46.991816151710402],
              [24.779939389860878, 46.988091956437991],
              [24.755351132100937, 47.003802410055776],
              [24.716312371924491, 47.001667583767194],
              [24.683335723361278, 47.014956685566744],
              [24.69477967282528, 47.061504306465224],
              [24.723163101308614, 47.075683248046431],
              [24.697428221430062, 47.086675792081508],
              [24.691695487431183, 47.112968760510405],
              [24.715079461434353, 47.126754679988991],
              [24.691476968863608, 47.151095478938174],
              [24.713234914367941, 47.158395642156513],
              [24.691788919934144, 47.194179548723312],
              [24.713725018260341, 47.207789179156364],
              [24.847473263234743, 47.164552240557128],
              [24.936571413963133, 47.165766162152956],
              [24.980011724606719, 47.144725910390356],
              [24.969725431632451, 47.169588050910029],
              [25.04024051887432, 47.182438457083414],
              [25.049349656876583, 47.217424287175781],
              [25.08567878669956, 47.215498975569318],
              [25.091376471985416, 47.27928364320875],
              [25.183137115130211, 47.331517786869803],
              [25.193231032879851, 47.357389655800361],
              [25.225115284084389, 47.343995809310051],
              [25.179895057172203, 47.282360654390978],
              [25.21808139505789, 47.297409248469236],
              [25.248576301851877, 47.342378903645752],
              [25.40699364210619, 47.340260823803497]
            ]
          ],
          [
            [
              [24.683271093011104, 47.373128624732246],
              [24.542718421189612, 47.401336147014739],
              [24.49412346146579, 47.433539260023679],
              [24.503504330573747, 47.451878931911068],
              [24.438129635633491, 47.468735974517614],
              [24.433247165118246, 47.504928718405104],
              [24.389937481791168, 47.506301999684794],
              [24.434661435723392, 47.54653526686814],
              [24.416029052877441, 47.5903713078363],
              [24.446507544530018, 47.63287913218695],
              [24.678873267377057, 47.644529693276731],
              [24.746101648532061, 47.622967733884408],
              [24.966418035278569, 47.596279927500909],
              [25.048316656108561, 47.557329521745423],
              [24.995803178820211, 47.509474893125883],
              [24.95799041769045, 47.499792525185185],
              [24.958397994638577, 47.4720755157635],
              [24.901739033384491, 47.454783267408096],
              [24.894058656274698, 47.439610265131684],
              [24.84973353333411, 47.440345706052483],
              [24.697786001657796, 47.388273872123875],
              [24.669606750429669, 47.399702649771577],
              [24.683271093011104, 47.373128624732246]
            ]
          ]
        ]
      }
    }
  ]
}
