[
  {
    "id": "AT-03-05",
    "elevation": "low",
    "elevation line_visualization": null,
    "threshold": null
  },
  {
    "id": "AT-03-04",
    "elevation": "low",
    "elevation line_visualization": null,
    "threshold": null
  },
  {
    "id": "AT-03-01",
    "elevation": "low",
    "elevation line_visualization": null,
    "threshold": null
  },
  {
    "id": "AT-03-02",
    "elevation": "low",
    "elevation line_visualization": null,
    "threshold": null
  },
  {
    "id": "AT-03-03",
    "elevation": "low",
    "elevation line_visualization": null,
    "threshold": null
  },
  {
    "id": "AT-03-06",
    "elevation": "low",
    "elevation line_visualization": null,
    "threshold": null
  },
  {
    "id": "AT-03-05",
    "elevation": "high",
    "elevation line_visualization": null,
    "threshold": null
  },
  {
    "id": "AT-03-04",
    "elevation": "high",
    "elevation line_visualization": null,
    "threshold": null
  },
  {
    "id": "AT-03-01",
    "elevation": "high",
    "elevation line_visualization": null,
    "threshold": null
  },
  {
    "id": "AT-03-02",
    "elevation": "high",
    "elevation line_visualization": null,
    "threshold": null
  },
  {
    "id": "AT-03-03",
    "elevation": "high",
    "elevation line_visualization": null,
    "threshold": null
  },
  {
    "id": "AT-03-06",
    "elevation": "high",
    "elevation line_visualization": null,
    "threshold": null
  }
]