[
  {
    "id": "AT-02-05",
    "elevation": "low",
    "elevation line_visualization": null,
    "threshold": null,
    "start_date": null,
    "end_date": "2022-10-01"
  },
  {
    "id": "AT-02-04",
    "elevation": "low",
    "elevation line_visualization": null,
    "threshold": null,
    "start_date": null,
    "end_date": "2022-10-01"
  },
  {
    "id": "AT-02-19",
    "elevation": "low",
    "elevation line_visualization": null,
    "threshold": null,
    "start_date": null,
    "end_date": "2022-10-01"
  },
  {
    "id": "AT-02-15",
    "elevation": "low",
    "elevation line_visualization": null,
    "threshold": null,
    "start_date": null,
    "end_date": "2022-10-01"
  },
  {
    "id": "AT-02-12",
    "elevation": "low",
    "elevation line_visualization": null,
    "threshold": null,
    "start_date": null,
    "end_date": "2022-10-01"
  },
  {
    "id": "AT-02-09",
    "elevation": "low",
    "elevation line_visualization": null,
    "threshold": null,
    "start_date": null,
    "end_date": "2022-10-01"
  },
  {
    "id": "AT-02-03",
    "elevation": "low",
    "elevation line_visualization": null,
    "threshold": null,
    "start_date": null,
    "end_date": "2022-10-01"
  },
  {
    "id": "AT-02-02",
    "elevation": "low",
    "elevation line_visualization": null,
    "threshold": null,
    "start_date": null,
    "end_date": "2022-10-01"
  },
  {
    "id": "AT-02-01",
    "elevation": "low",
    "elevation line_visualization": null,
    "threshold": null,
    "start_date": null,
    "end_date": "2022-10-01"
  },
  {
    "id": "AT-02-10",
    "elevation": "low",
    "elevation line_visualization": null,
    "threshold": null,
    "start_date": null,
    "end_date": "2021-10-01"
  },
  {
    "id": "AT-02-11",
    "elevation": "low",
    "elevation line_visualization": null,
    "threshold": null,
    "start_date": null,
    "end_date": "2022-10-01"
  },
  {
    "id": "AT-02-13",
    "elevation": "low",
    "elevation line_visualization": null,
    "threshold": null,
    "start_date": null,
    "end_date": "2022-10-01"
  },
  {
    "id": "AT-02-14",
    "elevation": "low",
    "elevation line_visualization": null,
    "threshold": null,
    "start_date": null,
    "end_date": "2022-10-01"
  },
  {
    "id": "AT-02-16",
    "elevation": "low",
    "elevation line_visualization": null,
    "threshold": null,
    "start_date": null,
    "end_date": "2022-10-01"
  },
  {
    "id": "AT-02-17",
    "elevation": "low",
    "elevation line_visualization": null,
    "threshold": null,
    "start_date": null,
    "end_date": "2022-10-01"
  },
  {
    "id": "AT-02-18",
    "elevation": "low",
    "elevation line_visualization": null,
    "threshold": null,
    "start_date": null,
    "end_date": "2022-10-01"
  },
  {
    "id": "AT-02-07",
    "elevation": "low",
    "elevation line_visualization": null,
    "threshold": null,
    "start_date": null,
    "end_date": "2022-10-01"
  },
  {
    "id": "AT-02-08",
    "elevation": "low",
    "elevation line_visualization": null,
    "threshold": null,
    "start_date": null,
    "end_date": "2022-10-01"
  },
  {
    "id": "AT-02-06",
    "elevation": "high",
    "elevation line_visualization": null,
    "threshold": null,
    "start_date": null,
    "end_date": "2022-10-01"
  },
  {
    "id": "AT-02-05",
    "elevation": "high",
    "elevation line_visualization": null,
    "threshold": null,
    "start_date": null,
    "end_date": "2022-10-01"
  },
  {
    "id": "AT-02-04",
    "elevation": "high",
    "elevation line_visualization": null,
    "threshold": null,
    "start_date": null,
    "end_date": "2022-10-01"
  },
  {
    "id": "AT-02-19",
    "elevation": "high",
    "elevation line_visualization": null,
    "threshold": null,
    "start_date": null,
    "end_date": "2022-10-01"
  },
  {
    "id": "AT-02-15",
    "elevation": "high",
    "elevation line_visualization": null,
    "threshold": null,
    "start_date": null,
    "end_date": "2020-10-01"
  },
  {
    "id": "AT-02-12",
    "elevation": "high",
    "elevation line_visualization": null,
    "threshold": null,
    "start_date": null,
    "end_date": "2022-10-01"
  },
  {
    "id": "AT-02-09",
    "elevation": "high",
    "elevation line_visualization": null,
    "threshold": null,
    "start_date": null,
    "end_date": "2022-10-01"
  },
  {
    "id": "AT-02-03",
    "elevation": "high",
    "elevation line_visualization": null,
    "threshold": null,
    "start_date": null,
    "end_date": "2022-10-01"
  },
  {
    "id": "AT-02-02",
    "elevation": "high",
    "elevation line_visualization": null,
    "threshold": null,
    "start_date": null,
    "end_date": "2022-10-01"
  },
  {
    "id": "AT-02-01",
    "elevation": "high",
    "elevation line_visualization": null,
    "threshold": null,
    "start_date": null,
    "end_date": "2022-10-01"
  },
  {
    "id": "AT-02-10",
    "elevation": "high",
    "elevation line_visualization": null,
    "threshold": null,
    "start_date": null,
    "end_date": "2022-10-01"
  },
  {
    "id": "AT-02-11",
    "elevation": "high",
    "elevation line_visualization": null,
    "threshold": null,
    "start_date": null,
    "end_date": "2022-10-01"
  },
  {
    "id": "AT-02-13",
    "elevation": "high",
    "elevation line_visualization": null,
    "threshold": null,
    "start_date": null,
    "end_date": "2022-10-01"
  },
  {
    "id": "AT-02-14",
    "elevation": "high",
    "elevation line_visualization": null,
    "threshold": null,
    "start_date": null,
    "end_date": "2022-10-01"
  },
  {
    "id": "AT-02-16",
    "elevation": "high",
    "elevation line_visualization": null,
    "threshold": null,
    "start_date": null,
    "end_date": "2022-10-01"
  },
  {
    "id": "AT-02-17",
    "elevation": "high",
    "elevation line_visualization": null,
    "threshold": null,
    "start_date": null,
    "end_date": "2022-10-01"
  },
  {
    "id": "AT-02-18",
    "elevation": "high",
    "elevation line_visualization": null,
    "threshold": null,
    "start_date": null,
    "end_date": "2022-10-01"
  },
  {
    "id": "AT-02-07",
    "elevation": "high",
    "elevation line_visualization": null,
    "threshold": null,
    "start_date": null,
    "end_date": "2022-10-01"
  },
  {
    "id": "AT-02-08",
    "elevation": "high",
    "elevation line_visualization": null,
    "threshold": null,
    "start_date": null,
    "end_date": "2022-10-01"
  },
  {
    "id": "AT-02-06",
    "elevation": "low",
    "elevation line_visualization": null,
    "threshold": null,
    "start_date": "2022-10-01",
    "end_date": null
  },
  {
    "id": "AT-02-05-02",
    "elevation": "low",
    "elevation line_visualization": null,
    "threshold": null,
    "start_date": "2022-10-01",
    "end_date": null
  },
  {
    "id": "AT-02-04-01",
    "elevation": "low",
    "elevation line_visualization": null,
    "threshold": null,
    "start_date": "2022-10-01",
    "end_date": null
  },
  {
    "id": "AT-02-19",
    "elevation": "low",
    "elevation line_visualization": null,
    "threshold": null,
    "start_date": "2022-10-01",
    "end_date": null
  },
  {
    "id": "AT-02-15",
    "elevation": "low",
    "elevation line_visualization": null,
    "threshold": null,
    "start_date": "2022-10-01",
    "end_date": null
  },
  {
    "id": "AT-02-12-01",
    "elevation": "low",
    "elevation line_visualization": null,
    "threshold": null,
    "start_date": "2022-10-01",
    "end_date": null
  },
  {
    "id": "AT-02-03-01",
    "elevation": "low",
    "elevation line_visualization": null,
    "threshold": null,
    "start_date": "2022-10-01",
    "end_date": null
  },
  {
    "id": "AT-02-01-02",
    "elevation": "low",
    "elevation line_visualization": null,
    "threshold": null,
    "start_date": "2022-10-01",
    "end_date": null
  },
  {
    "id": "AT-02-10",
    "elevation": "low",
    "elevation line_visualization": null,
    "threshold": null,
    "start_date": "2022-10-01",
    "end_date": null
  },
  {
    "id": "AT-02-11",
    "elevation": "low",
    "elevation line_visualization": null,
    "threshold": null,
    "start_date": "2022-10-01",
    "end_date": null
  },
  {
    "id": "AT-02-13",
    "elevation": "low",
    "elevation line_visualization": null,
    "threshold": null,
    "start_date": "2022-10-01",
    "end_date": null
  },
  {
    "id": "AT-02-14",
    "elevation": "low",
    "elevation line_visualization": null,
    "threshold": null,
    "start_date": "2022-10-01",
    "end_date": null
  },
  {
    "id": "AT-02-16",
    "elevation": "low",
    "elevation line_visualization": null,
    "threshold": null,
    "start_date": "2022-10-01",
    "end_date": null
  },
  {
    "id": "AT-02-17",
    "elevation": "low",
    "elevation line_visualization": null,
    "threshold": null,
    "start_date": "2022-10-01",
    "end_date": null
  },
  {
    "id": "AT-02-18",
    "elevation": "low",
    "elevation line_visualization": null,
    "threshold": null,
    "start_date": "2022-10-01",
    "end_date": null
  },
  {
    "id": "AT-02-07",
    "elevation": "low",
    "elevation line_visualization": null,
    "threshold": null,
    "start_date": "2022-10-01",
    "end_date": null
  },
  {
    "id": "AT-02-08",
    "elevation": "low",
    "elevation line_visualization": null,
    "threshold": null,
    "start_date": "2022-10-01",
    "end_date": null
  },
  {
    "id": "AT-02-09",
    "elevation": "low",
    "elevation line_visualization": null,
    "threshold": null,
    "start_date": "2022-10-01",
    "end_date": null
  },
  {
    "id": "AT-02-02",
    "elevation": "low",
    "elevation line_visualization": null,
    "threshold": null,
    "start_date": "2022-10-01",
    "end_date": null
  },
  {
    "id": "AT-02-12-02",
    "elevation": "low",
    "elevation line_visualization": null,
    "threshold": null,
    "start_date": "2022-10-01",
    "end_date": null
  },
  {
    "id": "AT-02-01-01",
    "elevation": "low",
    "elevation line_visualization": null,
    "threshold": null,
    "start_date": "2022-10-01",
    "end_date": null
  },
  {
    "id": "AT-02-03-02",
    "elevation": "low",
    "elevation line_visualization": null,
    "threshold": null,
    "start_date": "2022-10-01",
    "end_date": null
  },
  {
    "id": "AT-02-04-02",
    "elevation": "low",
    "elevation line_visualization": null,
    "threshold": null,
    "start_date": "2022-10-01",
    "end_date": null
  },
  {
    "id": "AT-02-05-01",
    "elevation": "low",
    "elevation line_visualization": null,
    "threshold": null,
    "start_date": "2022-10-01",
    "end_date": null
  },
  {
    "id": "AT-02-06",
    "elevation": "high",
    "elevation line_visualization": null,
    "threshold": null,
    "start_date": "2022-10-01",
    "end_date": null
  },
  {
    "id": "AT-02-05-02",
    "elevation": "high",
    "elevation line_visualization": null,
    "threshold": null,
    "start_date": "2022-10-01",
    "end_date": null
  },
  {
    "id": "AT-02-04-01",
    "elevation": "high",
    "elevation line_visualization": null,
    "threshold": null,
    "start_date": "2022-10-01",
    "end_date": null
  },
  {
    "id": "AT-02-19",
    "elevation": "high",
    "elevation line_visualization": null,
    "threshold": null,
    "start_date": "2022-10-01",
    "end_date": null
  },
  {
    "id": "AT-02-15",
    "elevation": "high",
    "elevation line_visualization": null,
    "threshold": null,
    "start_date": "2022-10-01",
    "end_date": null
  },
  {
    "id": "AT-02-12-01",
    "elevation": "high",
    "elevation line_visualization": null,
    "threshold": null,
    "start_date": "2022-10-01",
    "end_date": null
  },
  {
    "id": "AT-02-03-01",
    "elevation": "high",
    "elevation line_visualization": null,
    "threshold": null,
    "start_date": "2022-10-01",
    "end_date": null
  },
  {
    "id": "AT-02-01-02",
    "elevation": "high",
    "elevation line_visualization": null,
    "threshold": null,
    "start_date": "2022-10-01",
    "end_date": null
  },
  {
    "id": "AT-02-10",
    "elevation": "high",
    "elevation line_visualization": null,
    "threshold": null,
    "start_date": "2022-10-01",
    "end_date": null
  },
  {
    "id": "AT-02-11",
    "elevation": "high",
    "elevation line_visualization": null,
    "threshold": null,
    "start_date": "2022-10-01",
    "end_date": null
  },
  {
    "id": "AT-02-13",
    "elevation": "high",
    "elevation line_visualization": null,
    "threshold": null,
    "start_date": "2022-10-01",
    "end_date": null
  },
  {
    "id": "AT-02-14",
    "elevation": "high",
    "elevation line_visualization": null,
    "threshold": null,
    "start_date": "2022-10-01",
    "end_date": null
  },
  {
    "id": "AT-02-16",
    "elevation": "high",
    "elevation line_visualization": null,
    "threshold": null,
    "start_date": "2022-10-01",
    "end_date": null
  },
  {
    "id": "AT-02-17",
    "elevation": "high",
    "elevation line_visualization": null,
    "threshold": null,
    "start_date": "2022-10-01",
    "end_date": null
  },
  {
    "id": "AT-02-18",
    "elevation": "high",
    "elevation line_visualization": null,
    "threshold": null,
    "start_date": "2022-10-01",
    "end_date": null
  },
  {
    "id": "AT-02-07",
    "elevation": "high",
    "elevation line_visualization": null,
    "threshold": null,
    "start_date": "2022-10-01",
    "end_date": null
  },
  {
    "id": "AT-02-08",
    "elevation": "high",
    "elevation line_visualization": null,
    "threshold": null,
    "start_date": "2022-10-01",
    "end_date": null
  },
  {
    "id": "AT-02-09",
    "elevation": "high",
    "elevation line_visualization": null,
    "threshold": null,
    "start_date": "2022-10-01",
    "end_date": null
  },
  {
    "id": "AT-02-02",
    "elevation": "high",
    "elevation line_visualization": null,
    "threshold": null,
    "start_date": "2022-10-01",
    "end_date": null
  },
  {
    "id": "AT-02-12-02",
    "elevation": "high",
    "elevation line_visualization": null,
    "threshold": null,
    "start_date": "2022-10-01",
    "end_date": null
  },
  {
    "id": "AT-02-01-01",
    "elevation": "high",
    "elevation line_visualization": null,
    "threshold": null,
    "start_date": "2022-10-01",
    "end_date": null
  },
  {
    "id": "AT-02-03-02",
    "elevation": "high",
    "elevation line_visualization": null,
    "threshold": null,
    "start_date": "2022-10-01",
    "end_date": null
  },
  {
    "id": "AT-02-04-02",
    "elevation": "high",
    "elevation line_visualization": null,
    "threshold": null,
    "start_date": "2022-10-01",
    "end_date": null
  },
  {
    "id": "AT-02-05-01",
    "elevation": "high",
    "elevation line_visualization": null,
    "threshold": null,
    "start_date": "2022-10-01",
    "end_date": null
  }
]