[
  {
    "id": "AT-08-02",
    "start_date": null,
    "end_date": "2022-10-01",
    "elevation": "low",
    "threshold": null,
    "elevation line_visualization": null
  },
  {
    "id": "AT-08-01",
    "start_date": null,
    "end_date": "2022-10-01",
    "elevation": "low",
    "threshold": null,
    "elevation line_visualization": null
  },
  {
    "id": "AT-08-04",
    "start_date": null,
    "end_date": "2022-10-01",
    "elevation": "low",
    "threshold": null,
    "elevation line_visualization": null
  },
  {
    "id": "AT-08-06",
    "start_date": null,
    "end_date": "2022-10-01",
    "elevation": "low",
    "threshold": null,
    "elevation line_visualization": null
  },
  {
    "id": "AT-08-05-02",
    "start_date": "2021-10-01",
    "end_date": "2022-10-01",
    "elevation": "low",
    "threshold": null,
    "elevation line_visualization": null
  },
  {
    "id": "AT-08-02",
    "start_date": null,
    "end_date": "2022-10-01",
    "elevation": "high",
    "threshold": null,
    "elevation line_visualization": null
  },
  {
    "id": "AT-08-01",
    "start_date": null,
    "end_date": "2022-10-01",
    "elevation": "high",
    "threshold": null,
    "elevation line_visualization": null
  },
  {
    "id": "AT-08-04",
    "start_date": null,
    "end_date": "2022-10-01",
    "elevation": "high",
    "threshold": null,
    "elevation line_visualization": null
  },
  {
    "id": "AT-08-06",
    "start_date": null,
    "end_date": "2022-10-01",
    "elevation": "high",
    "threshold": null,
    "elevation line_visualization": null
  },
  {
    "id": "AT-08-03-02",
    "start_date": "2021-10-01",
    "end_date": "2022-10-01",
    "elevation": "low",
    "threshold": null,
    "elevation line_visualization": null
  },
  {
    "id": "AT-08-03-01",
    "start_date": "2021-10-01",
    "end_date": "2022-10-01",
    "elevation": "high",
    "threshold": null,
    "elevation line_visualization": null
  },
  {
    "id": "AT-08-05-01",
    "start_date": "2021-10-01",
    "end_date": "2022-10-01",
    "elevation": "low",
    "threshold": null,
    "elevation line_visualization": null
  },
  {
    "id": "AT-08-05-01",
    "start_date": "2021-10-01",
    "end_date": "2022-10-01",
    "elevation": "high",
    "threshold": null,
    "elevation line_visualization": null
  },
  {
    "id": "AT-08-03-02",
    "start_date": "2021-10-01",
    "end_date": "2022-10-01",
    "elevation": "high",
    "threshold": null,
    "elevation line_visualization": null
  },
  {
    "id": "AT-08-03-01",
    "start_date": "2021-10-01",
    "end_date": "2022-10-01",
    "elevation": "low",
    "threshold": null,
    "elevation line_visualization": null
  },
  {
    "id": "AT-08-05-02",
    "start_date": "2021-10-01",
    "end_date": "2022-10-01",
    "elevation": "high",
    "threshold": null,
    "elevation line_visualization": null
  },
  {
    "id": "AT-08-03",
    "start_date": null,
    "end_date": "2021-10-01",
    "elevation": "high",
    "threshold": null,
    "elevation line_visualization": null
  },
  {
    "id": "AT-08-03",
    "start_date": null,
    "end_date": "2021-10-01",
    "elevation": "low",
    "threshold": null,
    "elevation line_visualization": null
  },
  {
    "id": "AT-08-05",
    "start_date": null,
    "end_date": "2021-10-01",
    "elevation": "low",
    "threshold": null,
    "elevation line_visualization": null
  },
  {
    "id": "AT-08-05",
    "start_date": null,
    "end_date": "2021-10-01",
    "elevation": "high",
    "threshold": null,
    "elevation line_visualization": null
  },
  {
    "id": "AT-08-07",
    "start_date": "2022-10-01",
    "end_date": null,
    "elevation": "low",
    "threshold": null,
    "elevation line_visualization": null
  },
  {
    "id": "AT-08-01",
    "start_date": "2022-10-01",
    "end_date": null,
    "elevation": "low",
    "threshold": null,
    "elevation line_visualization": null
  },
  {
    "id": "AT-08-03-02",
    "start_date": "2022-10-01",
    "end_date": null,
    "elevation": "low",
    "threshold": null,
    "elevation line_visualization": null
  },
  {
    "id": "AT-08-04",
    "start_date": "2022-10-01",
    "end_date": null,
    "elevation": "low",
    "threshold": null,
    "elevation line_visualization": null
  },
  {
    "id": "AT-08-06",
    "start_date": "2022-10-01",
    "end_date": null,
    "elevation": "low",
    "threshold": null,
    "elevation line_visualization": null
  },
  {
    "id": "AT-08-05-02",
    "start_date": "2022-10-01",
    "end_date": null,
    "elevation": "low",
    "threshold": null,
    "elevation line_visualization": null
  },
  {
    "id": "AT-08-02",
    "start_date": "2022-10-01",
    "end_date": null,
    "elevation": "low",
    "threshold": null,
    "elevation line_visualization": null
  },
  {
    "id": "AT-08-03-01",
    "start_date": "2022-10-01",
    "end_date": null,
    "elevation": "low",
    "threshold": null,
    "elevation line_visualization": null
  },
  {
    "id": "AT-08-05-01",
    "start_date": "2022-10-01",
    "end_date": null,
    "elevation": "low",
    "threshold": null,
    "elevation line_visualization": null
  },
  {
    "id": "AT-08-07",
    "start_date": "2022-10-01",
    "end_date": null,
    "elevation": "high",
    "threshold": null,
    "elevation line_visualization": null
  },
  {
    "id": "AT-08-01",
    "start_date": "2022-10-01",
    "end_date": null,
    "elevation": "high",
    "threshold": null,
    "elevation line_visualization": null
  },
  {
    "id": "AT-08-03-02",
    "start_date": "2022-10-01",
    "end_date": null,
    "elevation": "high",
    "threshold": null,
    "elevation line_visualization": null
  },
  {
    "id": "AT-08-04",
    "start_date": "2022-10-01",
    "end_date": null,
    "elevation": "high",
    "threshold": null,
    "elevation line_visualization": null
  },
  {
    "id": "AT-08-06",
    "start_date": "2022-10-01",
    "end_date": null,
    "elevation": "high",
    "threshold": null,
    "elevation line_visualization": null
  },
  {
    "id": "AT-08-05-02",
    "start_date": "2022-10-01",
    "end_date": null,
    "elevation": "high",
    "threshold": null,
    "elevation line_visualization": null
  },
  {
    "id": "AT-08-02",
    "start_date": "2022-10-01",
    "end_date": null,
    "elevation": "high",
    "threshold": null,
    "elevation line_visualization": null
  },
  {
    "id": "AT-08-03-01",
    "start_date": "2022-10-01",
    "end_date": null,
    "elevation": "high",
    "threshold": null,
    "elevation line_visualization": null
  },
  {
    "id": "AT-08-05-01",
    "start_date": "2022-10-01",
    "end_date": null,
    "elevation": "high",
    "threshold": null,
    "elevation line_visualization": null
  }
]