[
  {
    "id": "AT-06-15",
    "threshold": 0,
    "elevation line_visualization": null,
    "start_date": null,
    "end_date": null,
    "elevation": "low"
  },
  {
    "id": "AT-06-14",
    "threshold": 0,
    "elevation line_visualization": null,
    "start_date": null,
    "end_date": null,
    "elevation": "low"
  },
  {
    "id": "AT-06-10",
    "threshold": 0,
    "elevation line_visualization": null,
    "start_date": null,
    "end_date": null,
    "elevation": "low"
  },
  {
    "id": "AT-06-08",
    "threshold": 0,
    "elevation line_visualization": null,
    "start_date": null,
    "end_date": null,
    "elevation": "low"
  },
  {
    "id": "AT-06-18",
    "threshold": 0,
    "elevation line_visualization": null,
    "start_date": null,
    "end_date": null,
    "elevation": "low"
  },
  {
    "id": "AT-06-05",
    "threshold": 0,
    "elevation line_visualization": null,
    "start_date": null,
    "end_date": null,
    "elevation": "low"
  },
  {
    "id": "AT-06-03",
    "threshold": 0,
    "elevation line_visualization": null,
    "start_date": null,
    "end_date": null,
    "elevation": "low"
  },
  {
    "id": "AT-06-02",
    "threshold": 0,
    "elevation line_visualization": null,
    "start_date": null,
    "end_date": null,
    "elevation": "low"
  },
  {
    "id": "AT-06-16",
    "threshold": 0,
    "elevation line_visualization": null,
    "start_date": null,
    "end_date": null,
    "elevation": "low"
  },
  {
    "id": "AT-06-06",
    "threshold": 0,
    "elevation line_visualization": null,
    "start_date": null,
    "end_date": null,
    "elevation": "low"
  },
  {
    "id": "AT-06-17",
    "threshold": 0,
    "elevation line_visualization": null,
    "start_date": null,
    "end_date": null,
    "elevation": "low"
  },
  {
    "id": "AT-06-09",
    "threshold": 0,
    "elevation line_visualization": null,
    "start_date": null,
    "end_date": null,
    "elevation": "low"
  },
  {
    "id": "AT-06-01",
    "threshold": 0,
    "elevation line_visualization": null,
    "start_date": null,
    "end_date": null,
    "elevation": "low"
  },
  {
    "id": "AT-06-13",
    "threshold": 0,
    "elevation line_visualization": null,
    "start_date": null,
    "end_date": null,
    "elevation": "low"
  },
  {
    "id": "AT-06-12",
    "threshold": 0,
    "elevation line_visualization": null,
    "start_date": null,
    "end_date": null,
    "elevation": "low"
  },
  {
    "id": "AT-06-11",
    "threshold": 0,
    "elevation line_visualization": null,
    "start_date": null,
    "end_date": null,
    "elevation": "low"
  },
  {
    "id": "AT-06-15",
    "threshold": 0,
    "elevation line_visualization": null,
    "start_date": null,
    "end_date": null,
    "elevation": "high"
  },
  {
    "id": "AT-06-14",
    "threshold": 0,
    "elevation line_visualization": null,
    "start_date": null,
    "end_date": null,
    "elevation": "high"
  },
  {
    "id": "AT-06-10",
    "threshold": 0,
    "elevation line_visualization": null,
    "start_date": null,
    "end_date": null,
    "elevation": "high"
  },
  {
    "id": "AT-06-08",
    "threshold": 0,
    "elevation line_visualization": null,
    "start_date": null,
    "end_date": null,
    "elevation": "high"
  },
  {
    "id": "AT-06-18",
    "threshold": 0,
    "elevation line_visualization": null,
    "start_date": null,
    "end_date": null,
    "elevation": "high"
  },
  {
    "id": "AT-06-05",
    "threshold": 0,
    "elevation line_visualization": null,
    "start_date": null,
    "end_date": null,
    "elevation": "high"
  },
  {
    "id": "AT-06-03",
    "threshold": 0,
    "elevation line_visualization": null,
    "start_date": null,
    "end_date": null,
    "elevation": "high"
  },
  {
    "id": "AT-06-02",
    "threshold": 0,
    "elevation line_visualization": null,
    "start_date": null,
    "end_date": null,
    "elevation": "high"
  },
  {
    "id": "AT-06-16",
    "threshold": 0,
    "elevation line_visualization": null,
    "start_date": null,
    "end_date": null,
    "elevation": "high"
  },
  {
    "id": "AT-06-04-01",
    "threshold": null,
    "elevation line_visualization": 0,
    "start_date": "2021-10-01",
    "end_date": null,
    "elevation": "high"
  },
  {
    "id": "AT-06-06",
    "threshold": 0,
    "elevation line_visualization": null,
    "start_date": null,
    "end_date": null,
    "elevation": "high"
  },
  {
    "id": "AT-06-17",
    "threshold": 0,
    "elevation line_visualization": null,
    "start_date": null,
    "end_date": null,
    "elevation": "high"
  },
  {
    "id": "AT-06-09",
    "threshold": 0,
    "elevation line_visualization": null,
    "start_date": null,
    "end_date": null,
    "elevation": "high"
  },
  {
    "id": "AT-06-01",
    "threshold": 0,
    "elevation line_visualization": null,
    "start_date": null,
    "end_date": null,
    "elevation": "high"
  },
  {
    "id": "AT-06-13",
    "threshold": 0,
    "elevation line_visualization": null,
    "start_date": null,
    "end_date": null,
    "elevation": "high"
  },
  {
    "id": "AT-06-12",
    "threshold": 0,
    "elevation line_visualization": null,
    "start_date": null,
    "end_date": null,
    "elevation": "high"
  },
  {
    "id": "AT-06-11",
    "threshold": 0,
    "elevation line_visualization": null,
    "start_date": null,
    "end_date": null,
    "elevation": "high"
  },
  {
    "id": "AT-06-04-02",
    "threshold": null,
    "elevation line_visualization": 0,
    "start_date": "2021-10-01",
    "end_date": null,
    "elevation": "high"
  },
  {
    "id": "AT-06-04-01",
    "threshold": null,
    "elevation line_visualization": 0,
    "start_date": "2021-10-01",
    "end_date": null,
    "elevation": "low"
  },
  {
    "id": "AT-06-04-02",
    "threshold": null,
    "elevation line_visualization": 0,
    "start_date": "2021-10-01",
    "end_date": null,
    "elevation": "low"
  },
  {
    "id": "AT-06-07",
    "threshold": 0,
    "elevation line_visualization": null,
    "start_date": null,
    "end_date": null,
    "elevation": "low"
  },
  {
    "id": "AT-06-07",
    "threshold": 0,
    "elevation line_visualization": null,
    "start_date": null,
    "end_date": null,
    "elevation": "high"
  },
  {
    "id": "AT-06-04",
    "threshold": 0,
    "elevation line_visualization": 0,
    "start_date": null,
    "end_date": "2021-10-01",
    "elevation": "high"
  },
  {
    "id": "AT-06-04",
    "threshold": 0,
    "elevation line_visualization": 0,
    "start_date": null,
    "end_date": "2021-10-01",
    "elevation": "low"
  }
]