{
"type": "FeatureCollection",
"name": "SI",
"crs": { "type": "name", "properties": { "name": "urn:ogc:def:crs:OGC:1.3:CRS84" } },
"features": [
{ "type": "Feature", "properties": { "ID": "SI"},"geometry": { "type": "MultiPolygon", "coordinates": [ [ [ [ 13.7260246, 46.5233194 ], [ 13.7132664, 46.5225058 ], [ 13.7132665, 46.5225058 ], [ 13.7142123, 46.5225575 ], [ 13.7169, 46.5133 ], [ 13.7154, 46.507 ], [ 13.7049, 46.5019 ], [ 13.7028, 46.4987 ], [ 13.7038, 46.4853 ], [ 13.7084, 46.4804 ], [ 13.6942, 46.4676 ], [ 13.6981, 46.456 ], [ 13.6928, 46.4432 ], [ 13.684, 46.4375 ], [ 13.6761, 46.4401 ], [ 13.6556, 46.4399 ], [ 13.6524, 46.4445 ], [ 13.6481, 46.4458 ], [ 13.6331, 46.442 ], [ 13.6242, 46.443 ], [ 13.6166, 46.4397 ], [ 13.6107, 46.441 ], [ 13.5971, 46.4385 ], [ 13.5826, 46.4302 ], [ 13.578, 46.4167 ], [ 13.5773, 46.4094 ], [ 13.5662, 46.3989 ], [ 13.5589, 46.398 ], [ 13.5523, 46.393 ], [ 13.5424, 46.3914 ], [ 13.5373, 46.3861 ], [ 13.5275, 46.3875 ], [ 13.5169, 46.383 ], [ 13.5154, 46.3765 ], [ 13.5085, 46.3763 ], [ 13.4982, 46.371 ], [ 13.4824, 46.369 ], [ 13.4697, 46.3612 ], [ 13.4503, 46.3628 ], [ 13.4386, 46.3594 ], [ 13.4375, 46.3544 ], [ 13.4462, 46.3391 ], [ 13.4484, 46.3333 ], [ 13.4397, 46.3232 ], [ 13.4261, 46.3223 ], [ 13.42, 46.3193 ], [ 13.416, 46.3149 ], [ 13.4174, 46.3064 ], [ 13.407, 46.3053 ], [ 13.4029, 46.3001 ], [ 13.3755, 46.2982 ], [ 13.3768, 46.2946 ], [ 13.382, 46.289 ], [ 13.3865, 46.2898 ], [ 13.3914, 46.2829 ], [ 13.3991, 46.2538 ], [ 13.4075, 46.2422 ], [ 13.4219, 46.2345 ], [ 13.4204, 46.2306 ], [ 13.4125, 46.2271 ], [ 13.4161, 46.2216 ], [ 13.4099, 46.216 ], [ 13.4107, 46.2124 ], [ 13.4209, 46.2091 ], [ 13.4234, 46.2061 ], [ 13.4359, 46.2114 ], [ 13.4399, 46.2122 ], [ 13.4463, 46.2127 ], [ 13.4482, 46.2163 ], [ 13.444, 46.2254 ], [ 13.446, 46.2258 ], [ 13.4486, 46.2252 ], [ 13.4568, 46.2261 ], [ 13.4654, 46.2236 ], [ 13.473, 46.2252 ], [ 13.4798, 46.2248 ], [ 13.4969, 46.2219 ], [ 13.4987, 46.2178 ], [ 13.5034, 46.2159 ], [ 13.5151, 46.2153 ], [ 13.5291, 46.2189 ], [ 13.5295, 46.2122 ], [ 13.5375, 46.2134 ], [ 13.5456, 46.2122 ], [ 13.5607, 46.2046 ], [ 13.5661, 46.195 ], [ 13.5654, 46.1878 ], [ 13.5666, 46.1862 ], [ 13.5699, 46.1868 ], [ 13.573, 46.1849 ], [ 13.5778, 46.1856 ], [ 13.5868, 46.1902 ], [ 13.5895, 46.1906 ], [ 13.5899, 46.1883 ], [ 13.6023, 46.1883 ], [ 13.612, 46.1889 ], [ 13.6146, 46.1843 ], [ 13.6336, 46.1918 ], [ 13.637, 46.1907 ], [ 13.6453, 46.1892 ], [ 13.6489, 46.1881 ], [ 13.6584, 46.1842 ], [ 13.6644, 46.1775 ], [ 13.6690191, 46.1779145 ], [ 13.6740147, 46.1719061 ], [ 13.6621741, 46.1687275 ], [ 13.6539092, 46.1616098 ], [ 13.652309, 46.1516163 ], [ 13.6440113, 46.1380706 ], [ 13.6033204, 46.1153228 ], [ 13.5950542, 46.1046301 ], [ 13.5791105, 46.0978817 ], [ 13.5698286, 46.0879036 ], [ 13.5431233, 46.0826003 ], [ 13.5278534, 46.0659094 ], [ 13.4994434, 46.0612488 ], [ 13.4962758, 46.051137 ], [ 13.5077919, 46.0454615 ], [ 13.5080858, 46.0369555 ], [ 13.4968259, 46.0171451 ], [ 13.4782816, 46.0109321 ], [ 13.4767331, 46.0066494 ], [ 13.5017599, 45.9801928 ], [ 13.5201766, 45.9740939 ], [ 13.528858, 45.9672952 ], [ 13.5411386, 45.9651309 ], [ 13.5476916, 45.9692142 ], [ 13.5672737, 45.9704356 ], [ 13.5739806, 45.9818473 ], [ 13.5914295, 45.9893069 ], [ 13.6175182, 45.98246 ], [ 13.6313778, 45.9881371 ], [ 13.6400576, 45.983115 ], [ 13.6321993, 45.951001 ], [ 13.6362093, 45.935637 ], [ 13.6187213, 45.9185442 ], [ 13.608901, 45.8985739 ], [ 13.5950785, 45.8953935 ], [ 13.5858118, 45.8818469 ], [ 13.5919128, 45.8746921 ], [ 13.5837186, 45.8662483 ], [ 13.5743909, 45.84224 ], [ 13.5861108, 45.8357875 ], [ 13.5962496, 45.8196974 ], [ 13.5951722, 45.8079176 ], [ 13.6231212, 45.7992154 ], [ 13.6368315, 45.7999777 ], [ 13.6691102, 45.7986212 ], [ 13.6747091, 45.7909229 ], [ 13.6803321, 45.7923338 ], [ 13.7103238, 45.774742 ], [ 13.7291448, 45.7668222 ], [ 13.7355155, 45.7600777 ], [ 13.7476039, 45.7551474 ], [ 13.7611995, 45.755993 ], [ 13.7640654, 45.7518421 ], [ 13.7927195, 45.7437286 ], [ 13.8088538, 45.7225961 ], [ 13.8323753, 45.70743 ], [ 13.8335003, 45.6864282 ], [ 13.8724199, 45.6555424 ], [ 13.9180013, 45.6331768 ], [ 13.8960022, 45.6218655 ], [ 13.8673787, 45.6084397 ], [ 13.8652264, 45.5963114 ], [ 13.8376374, 45.5825163 ], [ 13.7857442, 45.5831398 ], [ 13.7472479, 45.5971695 ], [ 13.7242807, 45.5965397 ], [ 13.7242806, 45.5965397 ], [ 13.7225377, 45.5964919 ], [ 13.7184781, 45.5926018 ], [ 13.7187207, 45.588522 ], [ 13.7325996, 45.5711561 ], [ 13.7349532, 45.5661691 ], [ 13.7339112, 45.561968 ], [ 13.7296891, 45.557062 ], [ 13.7256557, 45.55381 ], [ 13.7208856, 45.5511428 ], [ 13.7159628, 45.5493373 ], [ 13.6951758, 45.5464183 ], [ 13.6491911, 45.5366913 ], [ 13.6306049, 45.5338975 ], [ 13.6144532, 45.5328214 ], [ 13.6015175, 45.5306693 ], [ 13.5932709, 45.5285548 ], [ 13.5807844, 45.5238788 ], [ 13.5769126, 45.5210717 ], [ 13.5766611, 45.5195737 ], [ 13.5791225, 45.5156964 ], [ 13.5851592, 45.5089166 ], [ 13.5876655, 45.5045727 ], [ 13.5897945, 45.4959908 ], [ 13.5894082, 45.4921496 ], [ 13.5880428, 45.4888749 ], [ 13.5857071, 45.4863495 ], [ 13.5823834, 45.4847813 ], [ 13.5776313, 45.4846049 ], [ 13.5911975, 45.4736774 ], [ 13.6043104, 45.4665189 ], [ 13.6161539, 45.4641658 ], [ 13.6397733, 45.4598798 ], [ 13.6486863, 45.4571617 ], [ 13.6549417, 45.4526372 ], [ 13.6609236, 45.4515457 ], [ 13.6654395, 45.4480325 ], [ 13.6763728, 45.442846 ], [ 13.7025175, 45.4568986 ], [ 13.7072711, 45.4574004 ], [ 13.7084595, 45.4527167 ], [ 13.7248594, 45.4565641 ], [ 13.7248594, 45.4591323 ], [ 13.7573328, 45.4619485 ], [ 13.7643153, 45.4668084 ], [ 13.7740591, 45.4650944 ], [ 13.7849924, 45.4659306 ], [ 13.7971141, 45.4629201 ], [ 13.80735, 45.4563047 ], [ 13.8041016, 45.443613 ], [ 13.8129502, 45.4406002 ], [ 13.8160771, 45.4351231 ], [ 13.8339544, 45.4349817 ], [ 13.851305, 45.4319695 ], [ 13.8548702, 45.4267815 ], [ 13.8862183, 45.4264639 ], [ 13.8945665, 45.4396069 ], [ 13.9145119, 45.4537996 ], [ 13.9421519, 45.4546854 ], [ 13.9437115, 45.4546939 ], [ 13.9468523, 45.4560623 ], [ 13.9568348, 45.455895 ], [ 13.9699072, 45.4483671 ], [ 13.984881, 45.4560623 ], [ 13.9870202, 45.4691082 ], [ 13.995339, 45.47262 ], [ 13.9882086, 45.4809806 ], [ 13.990823, 45.4839902 ], [ 13.9763246, 45.4946894 ], [ 13.9653913, 45.4968624 ], [ 13.9625392, 45.5067236 ], [ 13.9770376, 45.514912 ], [ 13.9910607, 45.508729 ], [ 14.0005679, 45.5085619 ], [ 13.9972404, 45.5155804 ], [ 14.0017563, 45.5199248 ], [ 14.0105505, 45.5199248 ], [ 14.0236228, 45.5130739 ], [ 14.0416865, 45.4998711 ], [ 14.0604632, 45.4930178 ], [ 14.0753065, 45.4842259 ], [ 14.1200208, 45.4797834 ], [ 14.13557, 45.4752955 ], [ 14.1434134, 45.4754628 ], [ 14.1526829, 45.4811478 ], [ 14.1757379, 45.4791414 ], [ 14.1883349, 45.4749611 ], [ 14.2068739, 45.4701116 ], [ 14.2066362, 45.482151 ], [ 14.2116275, 45.4908446 ], [ 14.2194709, 45.4933521 ], [ 14.2235115, 45.5013754 ], [ 14.2339694, 45.505888 ], [ 14.2444273, 45.5045509 ], [ 14.2665315, 45.4831542 ], [ 14.2775986, 45.488765 ], [ 14.2858236, 45.4901374 ], [ 14.2915566, 45.4841575 ], [ 14.305511, 45.4798102 ], [ 14.3171573, 45.4828198 ], [ 14.3204848, 45.4727872 ], [ 14.3247631, 45.4709477 ], [ 14.348531, 45.4849933 ], [ 14.3654063, 45.4849933 ], [ 14.378954, 45.4881698 ], [ 14.3853714, 45.4926834 ], [ 14.3939279, 45.4945222 ], [ 14.4008206, 45.5030467 ], [ 14.4160321, 45.5093975 ], [ 14.4288668, 45.5077263 ], [ 14.4414638, 45.5162488 ], [ 14.4550115, 45.5202589 ], [ 14.4735506, 45.5329558 ], [ 14.4887621, 45.5366307 ], [ 14.4985069, 45.5493238 ], [ 14.4980316, 45.5630158 ], [ 14.499933, 45.5690259 ], [ 14.4994577, 45.5763706 ], [ 14.506588, 45.588721 ], [ 14.4982693, 45.5980654 ], [ 14.5004084, 45.6067409 ], [ 14.5267908, 45.6107445 ], [ 14.5424777, 45.6210859 ], [ 14.566008, 45.6537655 ], [ 14.5695732, 45.6725975 ], [ 14.5774166, 45.6702647 ], [ 14.5816948, 45.6650988 ], [ 14.5966687, 45.668265 ], [ 14.6059382, 45.6657654 ], [ 14.6092657, 45.6584324 ], [ 14.6049875, 45.6457641 ], [ 14.6021353, 45.6327594 ], [ 14.5969063, 45.6277568 ], [ 14.6099787, 45.6180838 ], [ 14.626854, 45.6132467 ], [ 14.6320829, 45.603738 ], [ 14.6399264, 45.603738 ], [ 14.6499022, 45.5938589 ], [ 14.6527283, 45.591632 ], [ 14.6736503, 45.5894381 ], [ 14.6789981, 45.5881866 ], [ 14.6844945, 45.5830756 ], [ 14.6917734, 45.5767124 ], [ 14.6971212, 45.5695138 ], [ 14.6990523, 45.5626272 ], [ 14.6948929, 45.556366 ], [ 14.6913278, 45.5551137 ], [ 14.6896937, 45.5528177 ], [ 14.6907336, 45.5512522 ], [ 14.6908821, 45.5483298 ], [ 14.6883568, 45.5454072 ], [ 14.6873169, 45.539666 ], [ 14.6858314, 45.5350727 ], [ 14.6862771, 45.5313142 ], [ 14.690585, 45.5273466 ], [ 14.69519, 45.5264068 ], [ 14.7010123, 45.5256778 ], [ 14.7008259, 45.5270696 ], [ 14.7015519, 45.5288411 ], [ 14.7018421, 45.5295493 ], [ 14.7022939, 45.5316662 ], [ 14.7036493, 45.5329363 ], [ 14.7057576, 45.533783 ], [ 14.7078659, 45.5342063 ], [ 14.711179, 45.5342063 ], [ 14.715998, 45.533783 ], [ 14.7206664, 45.5332538 ], [ 14.7236782, 45.5323012 ], [ 14.7265395, 45.5311369 ], [ 14.7287984, 45.530396 ], [ 14.7310573, 45.5296551 ], [ 14.7334668, 45.5291259 ], [ 14.735274, 45.528385 ], [ 14.7363281, 45.5275382 ], [ 14.7376835, 45.5260562 ], [ 14.7400239, 45.5240247 ], [ 14.7429836, 45.521688 ], [ 14.7476089, 45.5192727 ], [ 14.750877, 45.5168708 ], [ 14.7545908, 45.5144687 ], [ 14.7583045, 45.5125888 ], [ 14.7606813, 45.5118577 ], [ 14.7636523, 45.5117533 ], [ 14.7663262, 45.5113355 ], [ 14.7672175, 45.5109177 ], [ 14.7675143, 45.5101875 ], [ 14.7675146, 45.5101866 ], [ 14.7675146, 45.5089333 ], [ 14.7678117, 45.5080977 ], [ 14.7690001, 45.5073665 ], [ 14.77004, 45.5071576 ], [ 14.7710309, 45.5071576 ], [ 14.7721197, 45.5071576 ], [ 14.7747936, 45.5073665 ], [ 14.7771703, 45.5073665 ], [ 14.7802899, 45.5069487 ], [ 14.7837474, 45.5061244 ], [ 14.7854891, 45.5050686 ], [ 14.7868261, 45.5043374 ], [ 14.788163, 45.5030839 ], [ 14.7892029, 45.5022482 ], [ 14.7903913, 45.5016214 ], [ 14.7926195, 45.501308 ], [ 14.793351, 45.5012738 ], [ 14.7960283, 45.5007508 ], [ 14.7964818, 45.5005768 ], [ 14.7977573, 45.5000536 ], [ 14.7982644, 45.4998456 ], [ 14.8001956, 45.4980696 ], [ 14.8012354, 45.4970249 ], [ 14.8015325, 45.4956668 ], [ 14.801384, 45.4947265 ], [ 14.801107, 45.4943695 ], [ 14.8004927, 45.4935773 ], [ 14.7996014, 45.4927415 ], [ 14.7991557, 45.4919057 ], [ 14.7993043, 45.4909653 ], [ 14.800047, 45.4899205 ], [ 14.8012354, 45.4891891 ], [ 14.803018, 45.4881443 ], [ 14.8042064, 45.4868904 ], [ 14.8049492, 45.4856365 ], [ 14.8049492, 45.4838601 ], [ 14.8052463, 45.4820837 ], [ 14.8061376, 45.4800982 ], [ 14.8079202, 45.4776946 ], [ 14.8099999, 45.476127 ], [ 14.8120796, 45.4742458 ], [ 14.8126974, 45.4735502 ], [ 14.8135651, 45.4725736 ], [ 14.8146049, 45.4710058 ], [ 14.8150506, 45.4695425 ], [ 14.8154962, 45.4680792 ], [ 14.8154584, 45.4676009 ], [ 14.8153477, 45.4661977 ], [ 14.8154962, 45.4647343 ], [ 14.8157933, 45.4627482 ], [ 14.816239, 45.4617028 ], [ 14.8171303, 45.4610756 ], [ 14.8187643, 45.4606575 ], [ 14.819174, 45.4606369 ], [ 14.820844, 45.4605529 ], [ 14.8253005, 45.4605529 ], [ 14.831391, 45.4606575 ], [ 14.8396321, 45.461486 ], [ 14.8397098, 45.4614938 ], [ 14.8473469, 45.4629017 ], [ 14.8524851, 45.4642117 ], [ 14.8560503, 45.465257 ], [ 14.85813, 45.4659887 ], [ 14.8602097, 45.4663022 ], [ 14.8621409, 45.4664068 ], [ 14.8652604, 45.4664068 ], [ 14.8676372, 45.4664068 ], [ 14.8692712, 45.4669294 ], [ 14.8707567, 45.4676611 ], [ 14.8723908, 45.4692289 ], [ 14.8737277, 45.4704832 ], [ 14.8749161, 45.4711103 ], [ 14.8766987, 45.4716329 ], [ 14.8802002, 45.4724213 ], [ 14.8804125, 45.472469 ], [ 14.882997, 45.4732956 ], [ 14.8850008, 45.4738058 ], [ 14.8890565, 45.4753149 ], [ 14.891466, 45.4757387 ], [ 14.8941767, 45.4758446 ], [ 14.8971886, 45.4756327 ], [ 14.9008028, 45.4754208 ], [ 14.9033423, 45.4760164 ], [ 14.9035135, 45.4760565 ], [ 14.9057724, 45.4764803 ], [ 14.907429, 45.4775398 ], [ 14.9090855, 45.4796586 ], [ 14.9105914, 45.4819893 ], [ 14.9108926, 45.4830486 ], [ 14.9110432, 45.4853791 ], [ 14.9110432, 45.4873917 ], [ 14.9113444, 45.4888747 ], [ 14.9125492, 45.4909931 ], [ 14.9136033, 45.4928996 ], [ 14.9142057, 45.4940647 ], [ 14.9142057, 45.4953356 ], [ 14.9131515, 45.4975597 ], [ 14.9127525, 45.4982332 ], [ 14.9123986, 45.4988306 ], [ 14.9123986, 45.4994714 ], [ 14.9123986, 45.5001014 ], [ 14.9128503, 45.5016899 ], [ 14.9136033, 45.5032784 ], [ 14.9145069, 45.5048668 ], [ 14.9148081, 45.5059257 ], [ 14.9145069, 45.5078317 ], [ 14.9139045, 45.5106906 ], [ 14.9134234, 45.5126075 ], [ 14.9130009, 45.5142905 ], [ 14.9128503, 45.5165138 ], [ 14.9133021, 45.5188429 ], [ 14.9148081, 45.5210661 ], [ 14.916314, 45.5222305 ], [ 14.9182717, 45.5242418 ], [ 14.9206812, 45.5261472 ], [ 14.9227895, 45.5270999 ], [ 14.925952, 45.5278408 ], [ 14.9286627, 45.5280525 ], [ 14.9306204, 45.5280525 ], [ 14.9345359, 45.5272057 ], [ 14.9396561, 45.5247711 ], [ 14.9523059, 45.5178901 ], [ 14.9601368, 45.5134435 ], [ 14.9643534, 45.5107965 ], [ 14.9673653, 45.5093141 ], [ 14.9699254, 45.5075141 ], [ 14.9721843, 45.5050786 ], [ 14.9750456, 45.5024312 ], [ 14.9788105, 45.5002073 ], [ 14.9839307, 45.4980892 ], [ 14.9881473, 45.4969243 ], [ 14.994171, 45.4965006 ], [ 14.9994418, 45.4965006 ], [ 15.004562, 45.4969243 ], [ 15.0072727, 45.497242 ], [ 15.0107364, 45.4970302 ], [ 15.0137482, 45.496077 ], [ 15.0181155, 45.4934292 ], [ 15.0209767, 45.491205 ], [ 15.0224827, 45.4892984 ], [ 15.0231363, 45.4882256 ], [ 15.0239886, 45.4874977 ], [ 15.0259463, 45.4865443 ], [ 15.0291088, 45.4862265 ], [ 15.0336266, 45.4862265 ], [ 15.039801, 45.4873917 ], [ 15.0434152, 45.4887688 ], [ 15.0462765, 45.4903576 ], [ 15.0479331, 45.492476 ], [ 15.0488366, 45.4934292 ], [ 15.0498908, 45.4938529 ], [ 15.0510955, 45.4938529 ], [ 15.0527521, 45.4937469 ], [ 15.054258, 45.4933233 ], [ 15.0559145, 45.4925819 ], [ 15.0581734, 45.4905694 ], [ 15.0596794, 45.4892984 ], [ 15.0614865, 45.4882391 ], [ 15.063896, 45.4876036 ], [ 15.0678114, 45.4874977 ], [ 15.0697692, 45.4871799 ], [ 15.0721787, 45.4861206 ], [ 15.0744376, 45.4848495 ], [ 15.0762447, 45.4837901 ], [ 15.0786542, 45.4829427 ], [ 15.0812143, 45.4828367 ], [ 15.0837744, 45.4828367 ], [ 15.0848285, 45.4826249 ], [ 15.0855815, 45.4819893 ], [ 15.0855815, 45.4810358 ], [ 15.0854309, 45.4802943 ], [ 15.0849791, 45.479023 ], [ 15.0843768, 45.47701 ], [ 15.0842262, 45.4736197 ], [ 15.0843768, 45.470441 ], [ 15.0848285, 45.4688516 ], [ 15.0860333, 45.4675801 ], [ 15.087991, 45.4662025 ], [ 15.0925088, 45.4645071 ], [ 15.0974784, 45.4631294 ], [ 15.1015445, 45.4620697 ], [ 15.103201, 45.4613279 ], [ 15.1048938, 45.4602186 ], [ 15.1064871, 45.4586504 ], [ 15.1072541, 45.4578954 ], [ 15.1104009, 45.4547978 ], [ 15.1130497, 45.4530412 ], [ 15.1162393, 45.4512758 ], [ 15.1178185, 45.4499172 ], [ 15.1196494, 45.4479832 ], [ 15.121505, 45.4468106 ], [ 15.1241718, 45.4456247 ], [ 15.1273793, 45.4444301 ], [ 15.1308757, 45.4438019 ], [ 15.1346425, 45.4431693 ], [ 15.1367994, 45.4429437 ], [ 15.1371943, 45.4427965 ], [ 15.1378684, 45.4425453 ], [ 15.1389249, 45.4417663 ], [ 15.1396127, 45.4403778 ], [ 15.1396858, 45.4402303 ], [ 15.1412327, 45.4379197 ], [ 15.1435905, 45.4355958 ], [ 15.1448209, 45.4344269 ], [ 15.1454263, 45.4338517 ], [ 15.1454853, 45.4336676 ], [ 15.1461618, 45.4315543 ], [ 15.1468972, 45.429257 ], [ 15.1489967, 45.4273181 ], [ 15.1519133, 45.4255561 ], [ 15.1561875, 45.4239621 ], [ 15.1601975, 45.4225628 ], [ 15.1634092, 45.4215574 ], [ 15.1666271, 45.4207423 ], [ 15.1682424, 45.4205251 ], [ 15.1698705, 45.4206884 ], [ 15.171241, 45.421237 ], [ 15.173416, 45.4215817 ], [ 15.1755719, 45.4213553 ], [ 15.1785322, 45.420925 ], [ 15.1801539, 45.4208979 ], [ 15.1817884, 45.4212515 ], [ 15.1831783, 45.4223709 ], [ 15.1859327, 45.4238483 ], [ 15.1878892, 45.4257199 ], [ 15.1885713, 45.4267348 ], [ 15.1890284, 45.4274148 ], [ 15.1890735, 45.4287472 ], [ 15.1891445, 45.4308409 ], [ 15.1902838, 45.4325358 ], [ 15.191391, 45.4332789 ], [ 15.1930324, 45.4338227 ], [ 15.1946545, 45.4337953 ], [ 15.1959932, 45.4333919 ], [ 15.1975635, 45.4318418 ], [ 15.1992417, 45.4295154 ], [ 15.1993715, 45.4293355 ], [ 15.2003684, 45.4268429 ], [ 15.2011339, 45.4254968 ], [ 15.2021892, 45.4247172 ], [ 15.2051364, 45.4239055 ], [ 15.2075625, 45.423674 ], [ 15.2129618, 45.4233918 ], [ 15.2175633, 45.4235039 ], [ 15.2210901, 45.4238246 ], [ 15.2243533, 45.4243401 ], [ 15.227076, 45.4248648 ], [ 15.2281769, 45.4254173 ], [ 15.2298448, 45.4267218 ], [ 15.2312755, 45.4289826 ], [ 15.2305568, 45.4316612 ], [ 15.2309524, 45.4352729 ], [ 15.2318624, 45.438114 ], [ 15.2326462, 45.4399588 ], [ 15.2336298, 45.4422735 ], [ 15.2364461, 45.4454627 ], [ 15.2397836, 45.4480715 ], [ 15.2433852, 45.4504852 ], [ 15.2481088, 45.454022 ], [ 15.2514074, 45.4554885 ], [ 15.2555108, 45.4567504 ], [ 15.260162, 45.458193 ], [ 15.2648001, 45.4592548 ], [ 15.2677953, 45.4597738 ], [ 15.2700746, 45.4605976 ], [ 15.2708108, 45.4608637 ], [ 15.2722036, 45.461982 ], [ 15.2738669, 45.4630955 ], [ 15.2757738, 45.4634429 ], [ 15.2784786, 45.4633954 ], [ 15.2814336, 45.462772 ], [ 15.2849091, 45.461568 ], [ 15.2869968, 45.4605977 ], [ 15.2891686, 45.4595882 ], [ 15.2921097, 45.4585838 ], [ 15.2964028, 45.4575554 ], [ 15.3007163, 45.4570978 ], [ 15.3061047, 45.4564304 ], [ 15.3120339, 45.4557531 ], [ 15.3174082, 45.4547045 ], [ 15.3216798, 45.4531041 ], [ 15.3254242, 45.4518939 ], [ 15.3281076, 45.4512741 ], [ 15.3300005, 45.45124 ], [ 15.3319143, 45.4517767 ], [ 15.333849, 45.4528845 ], [ 15.3368654, 45.4539726 ], [ 15.3390567, 45.4546947 ], [ 15.3414976, 45.4548408 ], [ 15.3418922, 45.4548336 ], [ 15.3441658, 45.4557869 ], [ 15.345356, 45.4566648 ], [ 15.3467113, 45.4588904 ], [ 15.3485184, 45.4611159 ], [ 15.3497232, 45.4631294 ], [ 15.3510785, 45.464825 ], [ 15.3524339, 45.4662025 ], [ 15.3536902, 45.4670866 ], [ 15.3548147, 45.468647 ], [ 15.3560481, 45.4708649 ], [ 15.3575541, 45.472878 ], [ 15.3595118, 45.4753149 ], [ 15.3640296, 45.4782814 ], [ 15.3721617, 45.4817774 ], [ 15.3784866, 45.4842139 ], [ 15.3825526, 45.4859088 ], [ 15.3845104, 45.4868621 ], [ 15.3851127, 45.4879214 ], [ 15.3848115, 45.4890865 ], [ 15.3834562, 45.4902517 ], [ 15.3804443, 45.4913109 ], [ 15.3772819, 45.4928996 ], [ 15.3738182, 45.4951238 ], [ 15.3718605, 45.4967125 ], [ 15.3706557, 45.4971361 ], [ 15.369451, 45.4971361 ], [ 15.3677899, 45.4966344 ], [ 15.3662687, 45.495832 ], [ 15.363987, 45.4952971 ], [ 15.362656, 45.4951634 ], [ 15.3611348, 45.4955646 ], [ 15.3590433, 45.4969018 ], [ 15.356001, 45.499175 ], [ 15.3493459, 45.5025179 ], [ 15.3417402, 45.5053257 ], [ 15.3358457, 45.507866 ], [ 15.3333169, 45.5095632 ], [ 15.3332163, 45.5096526 ], [ 15.3305927, 45.5119855 ], [ 15.3292023, 45.5131084 ], [ 15.3276981, 45.5143233 ], [ 15.3261639, 45.5168269 ], [ 15.3251433, 45.5185594 ], [ 15.3230257, 45.5199308 ], [ 15.321415, 45.5203406 ], [ 15.3189782, 45.5203844 ], [ 15.3189344, 45.5203903 ], [ 15.3170215, 45.5209666 ], [ 15.3145496, 45.5225706 ], [ 15.3135989, 45.5241745 ], [ 15.3134088, 45.5264466 ], [ 15.3134088, 45.5288523 ], [ 15.3132186, 45.5300551 ], [ 15.3128383, 45.5315251 ], [ 15.3118876, 45.532327 ], [ 15.3105566, 45.5325942 ], [ 15.3090354, 45.5328615 ], [ 15.3065636, 45.5335297 ], [ 15.304472, 45.5344651 ], [ 15.3021903, 45.5360687 ], [ 15.3014297, 45.5375386 ], [ 15.3010494, 45.5407455 ], [ 15.3008593, 45.5435514 ], [ 15.3002888, 45.5458227 ], [ 15.3000987, 45.5491628 ], [ 15.2999085, 45.5535713 ], [ 15.2995283, 45.5611852 ], [ 15.2993381, 45.5646579 ], [ 15.2993381, 45.5690652 ], [ 15.2995283, 45.574674 ], [ 15.2989578, 45.5778788 ], [ 15.2985775, 45.5800152 ], [ 15.2972465, 45.5824186 ], [ 15.2930434, 45.5859602 ], [ 15.2892605, 45.588026 ], [ 15.2865174, 45.5900996 ], [ 15.283984, 45.5934393 ], [ 15.2835163, 45.5940557 ], [ 15.2831492, 45.5945396 ], [ 15.2801336, 45.5976375 ], [ 15.2784223, 45.5996397 ], [ 15.2774716, 45.6021757 ], [ 15.2776617, 45.6039108 ], [ 15.2788026, 45.6053789 ], [ 15.2826055, 45.6084484 ], [ 15.2879295, 45.6107171 ], [ 15.2936338, 45.612185 ], [ 15.2983874, 45.6127188 ], [ 15.3027607, 45.6127188 ], [ 15.3050424, 45.6132526 ], [ 15.3063734, 45.6140533 ], [ 15.307134, 45.6151208 ], [ 15.3073242, 45.616722 ], [ 15.3063734, 45.6192573 ], [ 15.3039016, 45.6213921 ], [ 15.3023804, 45.6236602 ], [ 15.3020001, 45.6259283 ], [ 15.3021903, 45.6280629 ], [ 15.3033311, 45.6297972 ], [ 15.3048523, 45.6308644 ], [ 15.3075143, 45.632065 ], [ 15.3115241, 45.6330027 ], [ 15.3165731, 45.6333733 ], [ 15.3222076, 45.6336014 ], [ 15.3263614, 45.6337693 ], [ 15.3301599, 45.6337009 ], [ 15.3339445, 45.6332518 ], [ 15.337729, 45.6328025 ], [ 15.34155, 45.6331322 ], [ 15.3455431, 45.6340659 ], [ 15.3495361, 45.6356667 ], [ 15.3512474, 45.6370005 ], [ 15.3509773, 45.6386573 ], [ 15.3504868, 45.6400684 ], [ 15.3489656, 45.641002 ], [ 15.3467341, 45.641401 ], [ 15.3440219, 45.642069 ], [ 15.3421205, 45.6428693 ], [ 15.34155, 45.6439362 ], [ 15.3417402, 45.6451365 ], [ 15.3426909, 45.6460701 ], [ 15.3453529, 45.6466036 ], [ 15.3493459, 45.6468703 ], [ 15.3537192, 45.6467369 ], [ 15.3563813, 45.6460701 ], [ 15.3601841, 45.6452699 ], [ 15.3622757, 45.6448698 ], [ 15.3647476, 45.6448698 ], [ 15.3660786, 45.6448698 ], [ 15.3677899, 45.6451365 ], [ 15.3685505, 45.6451365 ], [ 15.3702617, 45.6448698 ], [ 15.3710223, 45.644203 ], [ 15.3721632, 45.643136 ], [ 15.3729238, 45.6426025 ], [ 15.3753956, 45.6419356 ], [ 15.3784379, 45.6416689 ], [ 15.3809098, 45.6412688 ], [ 15.3822408, 45.6407352 ], [ 15.383762, 45.639935 ], [ 15.3856634, 45.6388679 ], [ 15.3875648, 45.638201 ], [ 15.3892761, 45.6378009 ], [ 15.391748, 45.6376675 ], [ 15.3940297, 45.638201 ], [ 15.3963114, 45.6390013 ], [ 15.398403, 45.6403351 ], [ 15.4008749, 45.6426025 ], [ 15.4029665, 45.6447364 ], [ 15.4047274, 45.6454759 ], [ 15.4052136, 45.6457527 ], [ 15.4050856, 45.6458397 ], [ 15.4034289, 45.6499877 ], [ 15.3958232, 45.6529215 ], [ 15.3950626, 45.6587885 ], [ 15.3901188, 45.6665214 ], [ 15.3834638, 45.6742532 ], [ 15.3775694, 45.6771856 ], [ 15.3695833, 45.6861154 ], [ 15.3714848, 45.6914459 ], [ 15.3693932, 45.6923787 ], [ 15.3646396, 45.6878479 ], [ 15.3619776, 45.6779854 ], [ 15.3549422, 45.6763859 ], [ 15.3515197, 45.6710539 ], [ 15.3486675, 45.6710539 ], [ 15.3484774, 45.6741199 ], [ 15.3513295, 45.6833167 ], [ 15.3541817, 45.6855823 ], [ 15.3602663, 45.6865152 ], [ 15.363879, 45.6967759 ], [ 15.3629283, 45.6986413 ], [ 15.3574141, 45.6989078 ], [ 15.3593155, 45.7091662 ], [ 15.3566535, 45.7142281 ], [ 15.3463858, 45.7134289 ], [ 15.3399209, 45.7142281 ], [ 15.3302316, 45.7012364 ], [ 15.3192046, 45.6961462 ], [ 15.325666, 45.6751666 ], [ 15.320816, 45.673851 ], [ 15.3060753, 45.688914 ], [ 15.3098782, 45.6977086 ], [ 15.307026, 45.698508 ], [ 15.300371, 45.6971756 ], [ 15.2994203, 45.6878479 ], [ 15.2982794, 45.6867817 ], [ 15.2874412, 45.6933115 ], [ 15.2891525, 45.7002401 ], [ 15.2849693, 45.7087665 ], [ 15.2811665, 45.7106315 ], [ 15.2731804, 45.7063686 ], [ 15.2693775, 45.707834 ], [ 15.2670958, 45.716892 ], [ 15.2625324, 45.7190231 ], [ 15.2564499, 45.7194862 ], [ 15.256333, 45.7195431 ], [ 15.2626146, 45.7289578 ], [ 15.2743037, 45.7350041 ], [ 15.2767592, 45.7412226 ], [ 15.2934414, 45.747168 ], [ 15.2979023, 45.7539041 ], [ 15.3301185, 45.7619914 ], [ 15.3547125, 45.7737977 ], [ 15.3677017, 45.7763092 ], [ 15.3743567, 45.7798018 ], [ 15.3819625, 45.7798018 ], [ 15.397887, 45.7911094 ], [ 15.4195159, 45.795266 ], [ 15.4425708, 45.795266 ], [ 15.4644374, 45.7937697 ], [ 15.4746576, 45.7987573 ], [ 15.4658634, 45.8177064 ], [ 15.4777474, 45.8192021 ], [ 15.4775097, 45.82668 ], [ 15.492277, 45.83136 ], [ 15.5022284, 45.827677 ], [ 15.5019907, 45.8220272 ], [ 15.5193414, 45.8211963 ], [ 15.5355036, 45.8293386 ], [ 15.5381181, 45.8361506 ], [ 15.5390688, 45.8469484 ], [ 15.5502397, 45.8461179 ], [ 15.5511905, 45.8401377 ], [ 15.5590339, 45.8353199 ], [ 15.5609353, 45.8361506 ], [ 15.5623614, 45.8441246 ], [ 15.5732947, 45.85326 ], [ 15.5844656, 45.8469484 ], [ 15.6065698, 45.8413006 ], [ 15.6189352, 45.8349264 ], [ 15.6252806, 45.8326127 ], [ 15.6315146, 45.8314242 ], [ 15.6355077, 45.825243 ], [ 15.6419725, 45.8206566 ], [ 15.6488177, 45.8264394 ], [ 15.6521452, 45.8318229 ], [ 15.6657405, 45.8411265 ], [ 15.6933114, 45.8432528 ], [ 15.6948325, 45.848834 ], [ 15.6989206, 45.8487675 ], [ 15.7031038, 45.8448475 ], [ 15.7087341, 45.8464392 ], [ 15.7070017, 45.8485018 ], [ 15.7031988, 45.8522887 ], [ 15.6978748, 45.856474 ], [ 15.694167, 45.8593968 ], [ 15.6913149, 45.8609246 ], [ 15.6890331, 45.8617217 ], [ 15.686276, 45.8623859 ], [ 15.6851352, 45.8627845 ], [ 15.6841845, 45.8633158 ], [ 15.6833648, 45.8639864 ], [ 15.6831606, 45.8642626 ], [ 15.680182, 45.8663257 ], [ 15.6772845, 45.8674153 ], [ 15.6818077, 45.8722156 ], [ 15.6807619, 45.876665 ], [ 15.6833288, 45.8809148 ], [ 15.6892352, 45.8806027 ], [ 15.6915169, 45.8850647 ], [ 15.686276, 45.8856291 ], [ 15.6853253, 45.886293 ], [ 15.6844697, 45.8868906 ], [ 15.6838042, 45.8876873 ], [ 15.683519, 45.8888823 ], [ 15.6834239, 45.8906085 ], [ 15.6833288, 45.8922018 ], [ 15.6830436, 45.893795 ], [ 15.6819027, 45.8965831 ], [ 15.6808569, 45.9003004 ], [ 15.6803816, 45.9026899 ], [ 15.6802865, 45.9036192 ], [ 15.6803816, 45.9042829 ], [ 15.6806108, 45.9045344 ], [ 15.6817126, 45.9057431 ], [ 15.6841845, 45.9076014 ], [ 15.6872268, 45.9098579 ], [ 15.6899839, 45.9119816 ], [ 15.691505, 45.9131097 ], [ 15.692836, 45.9140388 ], [ 15.6940719, 45.9147688 ], [ 15.6954029, 45.9152333 ], [ 15.6965438, 45.9156978 ], [ 15.6972423, 45.9159822 ], [ 15.6976847, 45.9161623 ], [ 15.6986354, 45.9166932 ], [ 15.6990545, 45.9172294 ], [ 15.6992058, 45.9174231 ], [ 15.6995861, 45.9180867 ], [ 15.7001565, 45.9191483 ], [ 15.7006319, 45.9197455 ], [ 15.7017728, 45.9204091 ], [ 15.7030087, 45.9207408 ], [ 15.7040545, 45.9208072 ], [ 15.7043545, 45.920877 ], [ 15.7049101, 45.9210062 ], [ 15.7059559, 45.9214707 ], [ 15.7065264, 45.9220015 ], [ 15.7065793, 45.922408 ], [ 15.7066214, 45.9227314 ], [ 15.7065264, 45.9235939 ], [ 15.7058609, 45.9255844 ], [ 15.7056707, 45.927243 ], [ 15.7059559, 45.9284372 ], [ 15.7066214, 45.9298967 ], [ 15.7074422, 45.9307081 ], [ 15.7077623, 45.9310245 ], [ 15.7088081, 45.9330147 ], [ 15.7093785, 45.9358008 ], [ 15.7093812, 45.9358738 ], [ 15.7094736, 45.9383878 ], [ 15.7093785, 45.9406431 ], [ 15.7090933, 45.9435614 ], [ 15.7090933, 45.9469439 ], [ 15.7092834, 45.951321 ], [ 15.7097588, 45.9553661 ], [ 15.7095687, 45.9594109 ], [ 15.7091884, 45.9630576 ], [ 15.7081426, 45.9672345 ], [ 15.7071919, 45.9708144 ], [ 15.7058425, 45.97554 ], [ 15.7050052, 45.9802271 ], [ 15.7045299, 45.9835411 ], [ 15.7039594, 45.9867885 ], [ 15.7036742, 45.9893731 ], [ 15.7034841, 45.9904997 ], [ 15.7030087, 45.9914275 ], [ 15.7022481, 45.9926203 ], [ 15.7018678, 45.9933492 ], [ 15.7015826, 45.9942769 ], [ 15.7015826, 45.9952709 ], [ 15.7017728, 45.9963973 ], [ 15.7023432, 45.99759 ], [ 15.7032939, 45.9987164 ], [ 15.7050052, 46.0004391 ], [ 15.7075722, 46.0026918 ], [ 15.710044, 46.0042819 ], [ 15.7110898, 46.0055407 ], [ 15.7115652, 46.0066669 ], [ 15.7120405, 46.0081244 ], [ 15.7124208, 46.0093168 ], [ 15.712611, 46.0105755 ], [ 15.7123257, 46.0119666 ], [ 15.7117553, 46.0127615 ], [ 15.7107095, 46.0133577 ], [ 15.7097588, 46.0136226 ], [ 15.7084278, 46.0137551 ], [ 15.7077623, 46.0138876 ], [ 15.7071919, 46.0141526 ], [ 15.7067165, 46.01455 ], [ 15.7066214, 46.0149474 ], [ 15.7067165, 46.0153449 ], [ 15.7071919, 46.0160072 ], [ 15.7084278, 46.0168021 ], [ 15.7104243, 46.0177294 ], [ 15.7119455, 46.0185242 ], [ 15.7130863, 46.0191203 ], [ 15.7134666, 46.0197827 ], [ 15.7135617, 46.0205112 ], [ 15.7134666, 46.0214385 ], [ 15.7130863, 46.0221008 ], [ 15.7130863, 46.0229618 ], [ 15.7132765, 46.0237565 ], [ 15.7136568, 46.0244851 ], [ 15.7146075, 46.0255447 ], [ 15.7159385, 46.0266043 ], [ 15.7167941, 46.0276639 ], [ 15.7172695, 46.0286572 ], [ 15.7174596, 46.0301141 ], [ 15.7169843, 46.0319021 ], [ 15.7162237, 46.0334913 ], [ 15.7158434, 46.0343521 ], [ 15.7159385, 46.0351467 ], [ 15.7165388, 46.0359829 ], [ 15.7166991, 46.0362061 ], [ 15.7175547, 46.0370669 ], [ 15.7186005, 46.0373317 ], [ 15.7192623, 46.0374239 ], [ 15.7200266, 46.0375304 ], [ 15.7208822, 46.0376628 ], [ 15.7217379, 46.0381263 ], [ 15.7221182, 46.0388546 ], [ 15.7221454, 46.0389494 ], [ 15.7224984, 46.0401788 ], [ 15.7229738, 46.0407747 ], [ 15.7236393, 46.0412381 ], [ 15.7243999, 46.0413705 ], [ 15.7250654, 46.0414367 ], [ 15.7264755, 46.0412403 ], [ 15.7269668, 46.0411719 ], [ 15.7280126, 46.0411719 ], [ 15.7292485, 46.0411719 ], [ 15.7302943, 46.0415692 ], [ 15.7310549, 46.0422312 ], [ 15.7314352, 46.0434229 ], [ 15.7315303, 46.0446146 ], [ 15.7310549, 46.0458062 ], [ 15.7301042, 46.0466669 ], [ 15.7288683, 46.0474613 ], [ 15.7273471, 46.0481233 ], [ 15.725921, 46.0487191 ], [ 15.7250585, 46.0494484 ], [ 15.72459, 46.0498444 ], [ 15.7242103, 46.0502557 ], [ 15.7228787, 46.0516979 ], [ 15.7210724, 46.0536837 ], [ 15.7172695, 46.0563976 ], [ 15.7148927, 46.058317 ], [ 15.713942, 46.0589789 ], [ 15.7132765, 46.0591112 ], [ 15.7122307, 46.0590451 ], [ 15.7107095, 46.0587803 ], [ 15.7094736, 46.0587803 ], [ 15.707382, 46.0591112 ], [ 15.7046249, 46.0599717 ], [ 15.7041723, 46.0600887 ], [ 15.7012974, 46.0608321 ], [ 15.6985403, 46.0612292 ], [ 15.6964487, 46.0616924 ], [ 15.6942621, 46.0625528 ], [ 15.6939914, 46.0627664 ], [ 15.6901051, 46.0632378 ], [ 15.6862547, 46.0658188 ], [ 15.6864738, 46.0682084 ], [ 15.6829485, 46.0694353 ], [ 15.6802865, 46.0704279 ], [ 15.6779097, 46.0707587 ], [ 15.6775873, 46.0707694 ], [ 15.6759132, 46.0708249 ], [ 15.6744871, 46.0710896 ], [ 15.6726808, 46.0715528 ], [ 15.671635, 46.0722807 ], [ 15.6710699, 46.072805 ], [ 15.6704941, 46.0733394 ], [ 15.6696385, 46.0738687 ], [ 15.6684025, 46.0739349 ], [ 15.6671666, 46.0738026 ], [ 15.6665011, 46.0734056 ], [ 15.6656454, 46.0727439 ], [ 15.6649335, 46.0720832 ], [ 15.6645046, 46.0716851 ], [ 15.6633637, 46.0709573 ], [ 15.6622229, 46.0705602 ], [ 15.6607017, 46.0705602 ], [ 15.6594658, 46.0707587 ], [ 15.6584743, 46.0713234 ], [ 15.65842, 46.0713543 ], [ 15.6577545, 46.072016 ], [ 15.6574596, 46.0728882 ], [ 15.6573742, 46.0731409 ], [ 15.6574693, 46.0750597 ], [ 15.6580397, 46.077177 ], [ 15.6581348, 46.0789634 ], [ 15.6580397, 46.0802205 ], [ 15.6573742, 46.0814114 ], [ 15.6571383, 46.0816054 ], [ 15.6563284, 46.0822714 ], [ 15.6552826, 46.0829992 ], [ 15.6552354, 46.0830111 ], [ 15.6542368, 46.0832638 ], [ 15.6528107, 46.0832638 ], [ 15.6521452, 46.0832638 ], [ 15.6508142, 46.0833961 ], [ 15.6495783, 46.0839915 ], [ 15.649198, 46.0847854 ], [ 15.6491029, 46.0854469 ], [ 15.6487862, 46.0859979 ], [ 15.6487227, 46.0861085 ], [ 15.6475818, 46.0868362 ], [ 15.6462508, 46.0875638 ], [ 15.6449198, 46.08763 ], [ 15.643874, 46.0875638 ], [ 15.6431134, 46.0871008 ], [ 15.6424479, 46.0862408 ], [ 15.6419646, 46.0856943 ], [ 15.6416873, 46.0853808 ], [ 15.6402613, 46.0845208 ], [ 15.6379795, 46.0837269 ], [ 15.6356978, 46.0833961 ], [ 15.6350584, 46.083443 ], [ 15.6338914, 46.0835284 ], [ 15.6335753, 46.0836211 ], [ 15.6320851, 46.0840577 ], [ 15.6286625, 46.0856454 ], [ 15.6245744, 46.0879607 ], [ 15.6224069, 46.0892256 ], [ 15.6216272, 46.0896806 ], [ 15.6211518, 46.090739 ], [ 15.6211518, 46.0915328 ], [ 15.6213419, 46.0922604 ], [ 15.6223877, 46.0936495 ], [ 15.6224071, 46.0937017 ], [ 15.6232434, 46.0959645 ], [ 15.6236237, 46.0974857 ], [ 15.6234335, 46.0984778 ], [ 15.6229582, 46.0991392 ], [ 15.6218173, 46.0996021 ], [ 15.6198208, 46.0998005 ], [ 15.6180144, 46.0998005 ], [ 15.6163031, 46.0998667 ], [ 15.6151293, 46.1002239 ], [ 15.614782, 46.1003296 ], [ 15.6138313, 46.1011232 ], [ 15.613451, 46.1023137 ], [ 15.6133559, 46.1033057 ], [ 15.6133559, 46.1044299 ], [ 15.6130707, 46.1058187 ], [ 15.6124052, 46.1065461 ], [ 15.6115432, 46.1070257 ], [ 15.6114545, 46.1070751 ], [ 15.6103136, 46.1074719 ], [ 15.6089826, 46.1081331 ], [ 15.6083666, 46.1087044 ], [ 15.6072713, 46.1097202 ], [ 15.6057502, 46.1119684 ], [ 15.6051797, 46.1136875 ], [ 15.6051797, 46.1150099 ], [ 15.6052748, 46.1158033 ], [ 15.6058452, 46.1164645 ], [ 15.6059374, 46.1165414 ], [ 15.6067959, 46.1172579 ], [ 15.6076516, 46.1178529 ], [ 15.6085072, 46.1193074 ], [ 15.6096481, 46.1225469 ], [ 15.610789, 46.1255878 ], [ 15.6118348, 46.1292235 ], [ 15.6124052, 46.1318014 ], [ 15.6123101, 46.1332556 ], [ 15.6117397, 46.134974 ], [ 15.609553, 46.1371551 ], [ 15.60556, 46.1394683 ], [ 15.6026715, 46.1411063 ], [ 15.6019473, 46.141517 ], [ 15.5984296, 46.1435656 ], [ 15.5972888, 46.1449534 ], [ 15.5966233, 46.1458785 ], [ 15.5966233, 46.1467376 ], [ 15.5968134, 46.1474645 ], [ 15.5978592, 46.1483235 ], [ 15.6001409, 46.1491825 ], [ 15.6033734, 46.1501736 ], [ 15.608127, 46.151363 ], [ 15.6098453, 46.1517503 ], [ 15.6116446, 46.1521559 ], [ 15.6125953, 46.1526184 ], [ 15.6129756, 46.153147 ], [ 15.6131658, 46.1537416 ], [ 15.6128805, 46.1546666 ], [ 15.6120249, 46.1564505 ], [ 15.6102185, 46.1583665 ], [ 15.6087925, 46.1594235 ], [ 15.606891, 46.1600842 ], [ 15.60556, 46.1606127 ], [ 15.6049896, 46.1612072 ], [ 15.6047044, 46.1618679 ], [ 15.6047994, 46.1627267 ], [ 15.6054649, 46.1640479 ], [ 15.6070812, 46.1658314 ], [ 15.6086023, 46.1676149 ], [ 15.6092047, 46.1679936 ], [ 15.6105988, 46.16887 ], [ 15.6127855, 46.1699929 ], [ 15.6152573, 46.1709836 ], [ 15.6180144, 46.1716441 ], [ 15.6199942, 46.1722084 ], [ 15.6217222, 46.1727009 ], [ 15.6255251, 46.1738238 ], [ 15.6302787, 46.1759372 ], [ 15.6315758, 46.1767323 ], [ 15.6317121, 46.1768158 ], [ 15.6335111, 46.1779185 ], [ 15.634652, 46.1789752 ], [ 15.6357929, 46.1804941 ], [ 15.6365534, 46.1817489 ], [ 15.6369337, 46.1828055 ], [ 15.6369337, 46.1835319 ], [ 15.6368387, 46.1842583 ], [ 15.6369337, 46.1847205 ], [ 15.6375992, 46.1854469 ], [ 15.6387401, 46.1859751 ], [ 15.6405465, 46.1864374 ], [ 15.6432085, 46.1870977 ], [ 15.645205, 46.187824 ], [ 15.6468212, 46.1888145 ], [ 15.6475818, 46.190003 ], [ 15.6480571, 46.1910594 ], [ 15.6482473, 46.1921819 ], [ 15.6483424, 46.1942946 ], [ 15.6479621, 46.1973316 ], [ 15.6473916, 46.2014906 ], [ 15.6468212, 46.2036691 ], [ 15.6463459, 46.2046592 ], [ 15.6456804, 46.2054513 ], [ 15.6444444, 46.2059794 ], [ 15.6436496, 46.2063243 ], [ 15.6429233, 46.2066395 ], [ 15.6421627, 46.2072336 ], [ 15.6418775, 46.2080256 ], [ 15.6417824, 46.2094117 ], [ 15.6419725, 46.2105998 ], [ 15.642543, 46.2113918 ], [ 15.6435888, 46.2121839 ], [ 15.643811, 46.212282 ], [ 15.6446346, 46.2126459 ], [ 15.6455853, 46.2134379 ], [ 15.6457306, 46.213726 ], [ 15.6462508, 46.2147578 ], [ 15.6471064, 46.2159458 ], [ 15.6479621, 46.2168697 ], [ 15.6492931, 46.2175297 ], [ 15.6521452, 46.2183216 ], [ 15.6559481, 46.2190475 ], [ 15.6582933, 46.2197075 ], [ 15.6594658, 46.2200374 ], [ 15.6639342, 46.2214232 ], [ 15.667737, 46.222743 ], [ 15.6697335, 46.2236009 ], [ 15.6710645, 46.2243927 ], [ 15.6718251, 46.2252505 ], [ 15.6723005, 46.2259763 ], [ 15.6730611, 46.2264382 ], [ 15.6742019, 46.2268341 ], [ 15.6759132, 46.2270981 ], [ 15.6776245, 46.2270981 ], [ 15.6790506, 46.2270981 ], [ 15.6813323, 46.2268341 ], [ 15.6838993, 46.2261083 ], [ 15.6870366, 46.2249866 ], [ 15.690174, 46.2242607 ], [ 15.6938818, 46.2236009 ], [ 15.6977797, 46.2230729 ], [ 15.7005368, 46.222809 ], [ 15.7036742, 46.222743 ], [ 15.7061461, 46.223007 ], [ 15.7082377, 46.2231389 ], [ 15.7097588, 46.2231389 ], [ 15.7123257, 46.222941 ], [ 15.7151779, 46.222743 ], [ 15.7178341, 46.2227011 ], [ 15.7193611, 46.222677 ], [ 15.7224984, 46.222809 ], [ 15.7250654, 46.222743 ], [ 15.7265865, 46.222545 ], [ 15.7275372, 46.2222151 ], [ 15.7279175, 46.2218192 ], [ 15.7280126, 46.2212912 ], [ 15.7278225, 46.2206973 ], [ 15.727252, 46.2201694 ], [ 15.727157, 46.2195755 ], [ 15.727252, 46.2189815 ], [ 15.7279175, 46.2182556 ], [ 15.7289633, 46.2174637 ], [ 15.7301993, 46.2170677 ], [ 15.7314352, 46.2168037 ], [ 15.732481, 46.2169357 ], [ 15.7333366, 46.2172657 ], [ 15.7346676, 46.2183216 ], [ 15.7358085, 46.2192455 ], [ 15.7375198, 46.2203014 ], [ 15.7389459, 46.2209613 ], [ 15.740372, 46.2212912 ], [ 15.7408765, 46.2213097 ], [ 15.7421783, 46.2213572 ], [ 15.7434042, 46.2212918 ], [ 15.7446502, 46.2212253 ], [ 15.7494989, 46.2207633 ], [ 15.7515583, 46.2204601 ], [ 15.7523516, 46.2203433 ], [ 15.7526362, 46.2203014 ], [ 15.7540623, 46.2197075 ], [ 15.7545377, 46.2189156 ], [ 15.7546327, 46.2177277 ], [ 15.7546327, 46.2168037 ], [ 15.753682, 46.2154838 ], [ 15.7527188, 46.2145226 ], [ 15.7521609, 46.2139659 ], [ 15.7508299, 46.2129099 ], [ 15.7503545, 46.2121179 ], [ 15.7503545, 46.2111938 ], [ 15.7508299, 46.2102038 ], [ 15.7517806, 46.2091477 ], [ 15.7529214, 46.2084877 ], [ 15.7544426, 46.2078936 ], [ 15.7560588, 46.2076956 ], [ 15.7588159, 46.2076956 ], [ 15.762904, 46.2080916 ], [ 15.7669921, 46.2089497 ], [ 15.77089, 46.2101378 ], [ 15.7757387, 46.2117218 ], [ 15.7799219, 46.2135039 ], [ 15.7825839, 46.2149558 ], [ 15.7857212, 46.2171997 ], [ 15.7873375, 46.2191795 ], [ 15.7888586, 46.2217532 ], [ 15.7899044, 46.2234029 ], [ 15.7905699, 46.2245247 ], [ 15.7918058, 46.2257124 ], [ 15.7929467, 46.2267022 ], [ 15.7935171, 46.2277579 ], [ 15.7938024, 46.2290775 ], [ 15.7938024, 46.2315847 ], [ 15.7939925, 46.2337619 ], [ 15.7942777, 46.2350155 ], [ 15.7945629, 46.2357412 ], [ 15.7955137, 46.2365988 ], [ 15.7965594, 46.2371925 ], [ 15.7983658, 46.2377863 ], [ 15.7995067, 46.2385119 ], [ 15.8001722, 46.2393695 ], [ 15.8005525, 46.240491 ], [ 15.8005525, 46.2420742 ], [ 15.8003623, 46.2431955 ], [ 15.7996968, 46.2451085 ], [ 15.7987461, 46.2466915 ], [ 15.79732, 46.2484064 ], [ 15.7937617, 46.2534577 ], [ 15.7910505, 46.2587115 ], [ 15.8094837, 46.2621985 ], [ 15.8298138, 46.2626163 ], [ 15.8396024, 46.2659585 ], [ 15.8497537, 46.2660262 ], [ 15.8582157, 46.2672348 ], [ 15.865323, 46.2687581 ], [ 15.8663377, 46.2756255 ], [ 15.8978425, 46.2863227 ], [ 15.8984846, 46.2888267 ], [ 15.9017977, 46.2894531 ], [ 15.9045084, 46.2878871 ], [ 15.913544, 46.2891399 ], [ 15.917382, 46.2855922 ], [ 15.9323683, 46.2891399 ], [ 15.9433616, 46.2898706 ], [ 15.9483312, 46.2936288 ], [ 15.9654989, 46.2983261 ], [ 15.9704685, 46.3065716 ], [ 15.9775464, 46.312207 ], [ 15.9847749, 46.3090763 ], [ 15.9906481, 46.3145027 ], [ 16.0010391, 46.3071977 ], [ 16.0150443, 46.3097024 ], [ 16.0219716, 46.3147114 ], [ 16.0192609, 46.322224 ], [ 16.0275436, 46.3262929 ], [ 16.0270918, 46.3306745 ], [ 16.0359769, 46.3371418 ], [ 16.0429042, 46.3373504 ], [ 16.0525422, 46.3346384 ], [ 16.0620296, 46.3422526 ], [ 16.0701617, 46.339958 ], [ 16.0773902, 46.3453814 ], [ 16.0749807, 46.3533069 ], [ 16.0710652, 46.3651929 ], [ 16.0605237, 46.3760341 ], [ 16.0508856, 46.3816623 ], [ 16.0582647, 46.3932295 ], [ 16.0886847, 46.3882278 ], [ 16.1123616, 46.394832 ], [ 16.1191047, 46.3963554 ], [ 16.125279, 46.3977099 ], [ 16.1304707, 46.3993794 ], [ 16.1346899, 46.4019556 ], [ 16.1350138, 46.4023268 ], [ 16.1382081, 46.4041528 ], [ 16.1423971, 46.4052393 ], [ 16.1448044, 46.4051791 ], [ 16.1454149, 46.4050474 ], [ 16.14855, 46.4043707 ], [ 16.1579544, 46.3998468 ], [ 16.1639813, 46.3965984 ], [ 16.1682758, 46.3931551 ], [ 16.172269, 46.3894752 ], [ 16.1751739, 46.3857819 ], [ 16.1880082, 46.3868836 ], [ 16.1906702, 46.3842519 ], [ 16.1881984, 46.3791199 ], [ 16.1902899, 46.3780671 ], [ 16.2045507, 46.3808306 ], [ 16.2100649, 46.3855678 ], [ 16.2161495, 46.3847783 ], [ 16.2194461, 46.3788088 ], [ 16.2194732, 46.3788263 ], [ 16.2208444, 46.3793628 ], [ 16.2227208, 46.3798948 ], [ 16.2227209, 46.3798948 ], [ 16.2243882, 46.3799891 ], [ 16.2254665, 46.3862257 ], [ 16.2306004, 46.3880678 ], [ 16.2357343, 46.3850414 ], [ 16.2383963, 46.3793831 ], [ 16.2469528, 46.380041 ], [ 16.2634953, 46.3764878 ], [ 16.2726222, 46.3783303 ], [ 16.3011438, 46.3783303 ], [ 16.3047565, 46.3858309 ], [ 16.3066579, 46.3978035 ], [ 16.2967705, 46.4079321 ], [ 16.290876, 46.4088528 ], [ 16.2847914, 46.4139821 ], [ 16.2733828, 46.4149027 ], [ 16.2733828, 46.4294984 ], [ 16.2650165, 46.4413299 ], [ 16.2640657, 46.4555243 ], [ 16.2602629, 46.4595979 ], [ 16.2587417, 46.4711601 ], [ 16.2499951, 46.4828512 ], [ 16.2406277, 46.4846675 ], [ 16.2404714, 46.4847552 ], [ 16.2410515, 46.4897427 ], [ 16.2422658, 46.4983123 ], [ 16.2579811, 46.5013678 ], [ 16.2661567, 46.5054343 ], [ 16.2652983, 46.5149859 ], [ 16.2734701, 46.5180128 ], [ 16.2985177, 46.5116385 ], [ 16.3068821, 46.5131332 ], [ 16.3118806, 46.5200854 ], [ 16.3143051, 46.5225098 ], [ 16.3149584, 46.5241702 ], [ 16.3161946, 46.5246215 ], [ 16.3204363, 46.526415 ], [ 16.3235117, 46.5270958 ], [ 16.3268629, 46.5277691 ], [ 16.3271629, 46.5277799 ], [ 16.3285539, 46.52783 ], [ 16.3302876, 46.5277395 ], [ 16.3329537, 46.5280116 ], [ 16.3332561, 46.5280969 ], [ 16.3358253, 46.5270528 ], [ 16.3424803, 46.5295135 ], [ 16.3405789, 46.5357467 ], [ 16.3447383, 46.5380429 ], [ 16.3440252, 46.5421431 ], [ 16.3512745, 46.5432911 ], [ 16.3557904, 46.5403391 ], [ 16.3592367, 46.5415691 ], [ 16.3543643, 46.547227 ], [ 16.3651787, 46.5477189 ], [ 16.3674367, 46.5542779 ], [ 16.3808656, 46.5520644 ], [ 16.3730222, 46.5435371 ], [ 16.387996, 46.5373049 ], [ 16.4014249, 46.539355 ], [ 16.4046336, 46.5380429 ], [ 16.4029698, 46.5323841 ], [ 16.4079611, 46.5274629 ], [ 16.4116451, 46.5274629 ], [ 16.4122393, 46.5331223 ], [ 16.4231726, 46.5282832 ], [ 16.4256682, 46.5327942 ], [ 16.4396913, 46.5269708 ], [ 16.4379087, 46.5206546 ], [ 16.4393348, 46.517127 ], [ 16.4436604, 46.5142486 ], [ 16.4439976, 46.5143022 ], [ 16.447085, 46.5151699 ], [ 16.4493786, 46.5166313 ], [ 16.4507326, 46.5172313 ], [ 16.4522125, 46.5178871 ], [ 16.4530314, 46.5179666 ], [ 16.455267, 46.5181836 ], [ 16.4580125, 46.5179169 ], [ 16.4604602, 46.5172771 ], [ 16.4631502, 46.5160587 ], [ 16.4644892, 46.5147661 ], [ 16.4661206, 46.5127259 ], [ 16.4679041, 46.5117067 ], [ 16.4681319, 46.5115362 ], [ 16.4697412, 46.510729 ], [ 16.4719017, 46.5099064 ], [ 16.47436, 46.5094566 ], [ 16.4765203, 46.5086339 ], [ 16.4781406, 46.5080168 ], [ 16.4819209, 46.5065769 ], [ 16.4840364, 46.5049929 ], [ 16.4869561, 46.5030051 ], [ 16.4887397, 46.5004772 ], [ 16.4913275, 46.4975455 ], [ 16.4915935, 46.4973126 ], [ 16.5075091, 46.4952531 ], [ 16.5083546, 46.4919292 ], [ 16.5114435, 46.4918421 ], [ 16.5145333, 46.4916779 ], [ 16.5173855, 46.4911034 ], [ 16.5184551, 46.4902826 ], [ 16.5186411, 46.4899293 ], [ 16.5189304, 46.4893797 ], [ 16.5189304, 46.4878201 ], [ 16.5185739, 46.486753 ], [ 16.517742, 46.4851934 ], [ 16.517029, 46.4836337 ], [ 16.5169101, 46.4819919 ], [ 16.5172667, 46.4804321 ], [ 16.5180985, 46.4793649 ], [ 16.5201188, 46.478626 ], [ 16.522971, 46.4782155 ], [ 16.5253688, 46.4782155 ], [ 16.5268927, 46.4782155 ], [ 16.5293883, 46.4785439 ], [ 16.5314086, 46.4788723 ], [ 16.5334289, 46.4791186 ], [ 16.5348423, 46.4791186 ], [ 16.5354492, 46.4791186 ], [ 16.5379448, 46.4785439 ], [ 16.5421042, 46.4773945 ], [ 16.5463824, 46.476163 ], [ 16.5487592, 46.4749315 ], [ 16.5490258, 46.4746907 ], [ 16.5540943, 46.4766982 ], [ 16.5600838, 46.4775226 ], [ 16.5799161, 46.4719299 ], [ 16.5871793, 46.4738772 ], [ 16.5989097, 46.4769019 ], [ 16.5984554, 46.4768927 ], [ 16.5948691, 46.4768198 ], [ 16.5891648, 46.4769019 ], [ 16.5857184, 46.476984 ], [ 16.5827474, 46.4777229 ], [ 16.5812025, 46.4784618 ], [ 16.5802518, 46.4792007 ], [ 16.5797764, 46.4801037 ], [ 16.5788257, 46.4810068 ], [ 16.5766866, 46.4819919 ], [ 16.5735968, 46.4833874 ], [ 16.5718142, 46.4843725 ], [ 16.5702692, 46.4856038 ], [ 16.5690808, 46.4870814 ], [ 16.5675359, 46.4883126 ], [ 16.5655157, 46.4891335 ], [ 16.5632577, 46.4897901 ], [ 16.5601679, 46.4903647 ], [ 16.5564838, 46.4913496 ], [ 16.5510172, 46.4930732 ], [ 16.5419854, 46.4970948 ], [ 16.5365187, 46.4996389 ], [ 16.5330724, 46.5011161 ], [ 16.5328185, 46.5012358 ], [ 16.5281999, 46.5034138 ], [ 16.5238151, 46.5054782 ], [ 16.5322917, 46.5142569 ], [ 16.5258162, 46.5160243 ], [ 16.5233073, 46.5191837 ], [ 16.5320424, 46.5317409 ], [ 16.5178846, 46.537503 ], [ 16.5174784, 46.5511938 ], [ 16.5071222, 46.5656834 ], [ 16.4931407, 46.5624157 ], [ 16.4817735, 46.5663944 ], [ 16.4804582, 46.5792971 ], [ 16.4700297, 46.5862002 ], [ 16.4643581, 46.587608 ], [ 16.4449822, 46.6110169 ], [ 16.4232562, 46.6119715 ], [ 16.4086868, 46.6280974 ], [ 16.3898264, 46.6350395 ], [ 16.3857649, 46.654805 ], [ 16.3951255, 46.6642006 ], [ 16.4077549, 46.6581394 ], [ 16.4185967, 46.6571289 ], [ 16.4227231, 46.6717041 ], [ 16.4186915, 46.6767822 ], [ 16.4259231, 46.6940962 ], [ 16.3778971, 46.6989744 ], [ 16.3673295, 46.7049766 ], [ 16.377591, 46.7118481 ], [ 16.3708351, 46.7209642 ], [ 16.3549063, 46.7149584 ], [ 16.3471284, 46.7244577 ], [ 16.3484207, 46.729479 ], [ 16.3391297, 46.7393228 ], [ 16.3191653, 46.7541463 ], [ 16.3293121, 46.7774642 ], [ 16.3116718, 46.7782872 ], [ 16.3110479, 46.7885971 ], [ 16.3158217, 46.7992093 ], [ 16.3399167, 46.8046901 ], [ 16.3400673, 46.8216458 ], [ 16.3432297, 46.8216458 ], [ 16.3453381, 46.8293982 ], [ 16.3507594, 46.8302251 ], [ 16.347597, 46.8410763 ], [ 16.3399167, 46.8463461 ], [ 16.3289233, 46.8461395 ], [ 16.3177794, 46.8564709 ], [ 16.3096473, 46.8564709 ], [ 16.3010635, 46.860603 ], [ 16.2926302, 46.8725841 ], [ 16.2638668, 46.8725841 ], [ 16.2323927, 46.8763018 ], [ 16.2263689, 46.8708284 ], [ 16.2078459, 46.8694858 ], [ 16.1863109, 46.8654577 ], [ 16.1819832, 46.8615247 ], [ 16.1770582, 46.8583249 ], [ 16.1594195, 46.8572791 ], [ 16.1559675, 46.8537454 ], [ 16.1254246, 46.8573606 ], [ 16.1109676, 46.8690576 ], [ 16.11086, 46.8691628 ], [ 16.110835, 46.8691294 ], [ 16.0990933, 46.8607581 ], [ 16.091652, 46.8649522 ], [ 16.0792664, 46.8521517 ], [ 16.0716319, 46.8529079 ], [ 16.0659279, 46.85025 ], [ 16.0580048, 46.8383211 ], [ 16.0429152, 46.8409281 ], [ 16.0338864, 46.8356784 ], [ 16.027917, 46.8412304 ], [ 16.0068602, 46.8310249 ], [ 15.9975414, 46.8351808 ], [ 15.9863073, 46.82715 ], [ 15.9984277, 46.8086829 ], [ 15.9916902, 46.8052085 ], [ 15.994024, 46.7923971 ], [ 15.9886553, 46.780057 ], [ 15.9891704, 46.759018 ], [ 15.9855639, 46.7519457 ], [ 15.9935264, 46.7305335 ], [ 16.0040396, 46.7227833 ], [ 16.0039054, 46.7169178 ], [ 16.0167523, 46.7164237 ], [ 16.0213626, 46.7108591 ], [ 16.0299741, 46.712007 ], [ 16.0283517, 46.7006412 ], [ 16.0426028, 46.6864296 ], [ 16.0377982, 46.6544983 ], [ 16.0317329, 46.6577246 ], [ 16.0304348, 46.658415 ], [ 16.0265709, 46.660008 ], [ 16.0233036, 46.6610863 ], [ 16.0189717, 46.6621365 ], [ 16.0180736, 46.6623541 ], [ 16.0146023, 46.6635085 ], [ 16.0123643, 46.6644192 ], [ 16.0095541, 46.6663438 ], [ 16.0080737, 46.6678796 ], [ 16.006418, 46.6700627 ], [ 16.0052842, 46.6723048 ], [ 16.0046759, 46.6746775 ], [ 16.0037113, 46.6761671 ], [ 16.0016249, 46.6780368 ], [ 15.9980983, 46.6801925 ], [ 15.9941458, 46.6821436 ], [ 15.9895425, 46.6835382 ], [ 15.9860515, 46.6843349 ], [ 15.983542, 46.6847065 ], [ 15.9802715, 46.6850421 ], [ 15.9772742, 46.6853267 ], [ 15.9726032, 46.6853644 ], [ 15.9660793, 46.685731 ], [ 15.9602813, 46.6860803 ], [ 15.9554343, 46.6867646 ], [ 15.9508051, 46.687658 ], [ 15.9476835, 46.6885283 ], [ 15.9444953, 46.6899943 ], [ 15.9415423, 46.6915513 ], [ 15.9352469, 46.6955671 ], [ 15.9307061, 46.6991343 ], [ 15.9161674, 46.7079566 ], [ 15.9142467, 46.7089159 ], [ 15.9087651, 46.711125 ], [ 15.877212, 46.7194213 ], [ 15.8733302, 46.720296 ], [ 15.8702299, 46.7206514 ], [ 15.8619533, 46.7214084 ], [ 15.8561441, 46.7216097 ], [ 15.8495011, 46.7217577 ], [ 15.8409796, 46.7217326 ], [ 15.835864, 46.7213475 ], [ 15.8336458, 46.7211804 ], [ 15.8288098, 46.7206088 ], [ 15.8268546, 46.7203776 ], [ 15.8205715, 46.7193251 ], [ 15.8109468, 46.7171545 ], [ 15.8034492, 46.7153291 ], [ 15.7990257, 46.7136041 ], [ 15.7943082, 46.7113998 ], [ 15.7856851, 46.7067858 ], [ 15.7848838, 46.706357 ], [ 15.77956, 46.7035767 ], [ 15.7752036, 46.7015345 ], [ 15.7690955, 46.6995868 ], [ 15.7613461, 46.6981815 ], [ 15.7572673, 46.6975545 ], [ 15.7542585, 46.697619 ], [ 15.7524662, 46.6978481 ], [ 15.7480815, 46.6988229 ], [ 15.7438532, 46.6994848 ], [ 15.7410498, 46.699613 ], [ 15.7385551, 46.6994548 ], [ 15.7353065, 46.6988093 ], [ 15.7309096, 46.6975179 ], [ 15.7284676, 46.6968323 ], [ 15.7265995, 46.6965105 ], [ 15.7205657, 46.6960588 ], [ 15.7130789, 46.6964213 ], [ 15.7032507, 46.6972709 ], [ 15.6979813, 46.6978814 ], [ 15.6940794, 46.6988918 ], [ 15.6901114, 46.700761 ], [ 15.6845299, 46.7037353 ], [ 15.6809606, 46.7052385 ], [ 15.677668, 46.7059499 ], [ 15.6749793, 46.70622 ], [ 15.6715547, 46.7062909 ], [ 15.6663504, 46.7060411 ], [ 15.6607311, 46.7057997 ], [ 15.6554262, 46.705623 ], [ 15.6501625, 46.7057005 ], [ 15.6515102, 46.7038661 ], [ 15.6543404, 46.7000132 ], [ 15.6532873, 46.6911911 ], [ 15.6383544, 46.6914789 ], [ 15.6300272, 46.6804351 ], [ 15.614281, 46.6820731 ], [ 15.6055107, 46.6810998 ], [ 15.6043127, 46.6846365 ], [ 15.6087038, 46.6876599 ], [ 15.5987579, 46.6903759 ], [ 15.5904641, 46.6860492 ], [ 15.5894029, 46.6833705 ], [ 15.5702214, 46.6810218 ], [ 15.5600144, 46.6736216 ], [ 15.5461066, 46.670216 ], [ 15.5533335, 46.6511679 ], [ 15.5514369, 46.6477456 ], [ 15.5468618, 46.6488654 ], [ 15.544081, 46.6460574 ], [ 15.5510451, 46.6404922 ], [ 15.5451232, 46.6345771 ], [ 15.5369956, 46.6340528 ], [ 15.523917, 46.62483 ], [ 15.520083, 46.6219241 ], [ 15.5124995, 46.6226164 ], [ 15.5120228, 46.6170355 ], [ 15.5038119, 46.6144573 ], [ 15.4998592, 46.6184857 ], [ 15.4882679, 46.6208833 ], [ 15.4783228, 46.6131896 ], [ 15.4723067, 46.6122628 ], [ 15.4621919, 46.6153433 ], [ 15.4623989, 46.6260229 ], [ 15.4553438, 46.6303139 ], [ 15.4568201, 46.63915 ], [ 15.4495702, 46.6424314 ], [ 15.4396832, 46.6400155 ], [ 15.433909, 46.6424438 ], [ 15.4304151, 46.6467522 ], [ 15.4238976, 46.6474741 ], [ 15.4199563, 46.6550082 ], [ 15.3830966, 46.6515673 ], [ 15.3708369, 46.6497015 ], [ 15.3560179, 46.6514645 ], [ 15.3537323, 46.6550432 ], [ 15.3441674, 46.6508316 ], [ 15.328333, 46.6530413 ], [ 15.3188314, 46.6476947 ], [ 15.3078105, 46.65231 ], [ 15.2933857, 46.6524132 ], [ 15.2770083, 46.6434829 ], [ 15.2622111, 46.6447213 ], [ 15.235483, 46.6391056 ], [ 15.2049935, 46.6450154 ], [ 15.1968716, 46.6455375 ], [ 15.1812075, 46.6560675 ], [ 15.1684814, 46.6537163 ], [ 15.162713, 46.6576603 ], [ 15.145384, 46.6596582 ], [ 15.1336701, 46.6564321 ], [ 15.1284912, 46.6502065 ], [ 15.1104705, 46.6597573 ], [ 15.0890887, 46.651493 ], [ 15.0823866, 46.6453206 ], [ 15.0654907, 46.6517281 ], [ 15.0408627, 46.6518386 ], [ 15.016163, 46.6404285 ], [ 14.9948632, 46.6212716 ], [ 14.9963198, 46.6151714 ], [ 14.9799886, 46.6020697 ], [ 14.9792263, 46.6034076 ], [ 14.9777239, 46.6060444 ], [ 14.9758035, 46.6110252 ], [ 14.9741793, 46.6166684 ], [ 14.9727998, 46.620624 ], [ 14.9701899, 46.6249191 ], [ 14.9681037, 46.6270025 ], [ 14.9652901, 46.6288936 ], [ 14.9566654, 46.6329076 ], [ 14.9314364, 46.6151755 ], [ 14.9231338, 46.6206868 ], [ 14.9204378, 46.6164254 ], [ 14.9234242, 46.6050015 ], [ 14.9184745, 46.6021155 ], [ 14.8877264, 46.6132991 ], [ 14.8799833, 46.6114196 ], [ 14.8670919, 46.6044447 ], [ 14.8662933, 46.59632 ], [ 14.8572856, 46.591643 ], [ 14.8522895, 46.5820157 ], [ 14.8400607, 46.5726625 ], [ 14.8348838, 46.5631489 ], [ 14.8381849, 46.5583524 ], [ 14.8298635, 46.5485686 ], [ 14.8231264, 46.5458494 ], [ 14.8230739, 46.5429714 ], [ 14.83089, 46.539406 ], [ 14.8227248, 46.5344838 ], [ 14.8219941, 46.5244086 ], [ 14.8175831, 46.5208496 ], [ 14.8180812, 46.5089772 ], [ 14.806107, 46.5075215 ], [ 14.7842783, 46.4989929 ], [ 14.7768821, 46.504529 ], [ 14.759066, 46.5042934 ], [ 14.7484846, 46.4976593 ], [ 14.7384676, 46.5015388 ], [ 14.7306987, 46.4944924 ], [ 14.7225605, 46.4981474 ], [ 14.714554, 46.4998907 ], [ 14.709342, 46.4806926 ], [ 14.7023552, 46.4804256 ], [ 14.6976481, 46.4744452 ], [ 14.7022398, 46.4669688 ], [ 14.6995406, 46.4636815 ], [ 14.6929841, 46.4638764 ], [ 14.683503, 46.4679558 ], [ 14.6751098, 46.4506199 ], [ 14.6655393, 46.4493732 ], [ 14.6600584, 46.4444798 ], [ 14.6403672, 46.4428079 ], [ 14.6315385, 46.4392829 ], [ 14.6117047, 46.4397398 ], [ 14.5960737, 46.4368093 ], [ 14.5826243, 46.4181999 ], [ 14.5888336, 46.4144346 ], [ 14.5876401, 46.3963744 ], [ 14.5817327, 46.3813162 ], [ 14.578559, 46.3772216 ], [ 14.5652817, 46.3723001 ], [ 14.557092, 46.376904 ], [ 14.5538597, 46.3916922 ], [ 14.5413885, 46.4051477 ], [ 14.5400121, 46.4117565 ], [ 14.5298751, 46.4168825 ], [ 14.5219227, 46.4274638 ], [ 14.5055943, 46.4243752 ], [ 14.4921883, 46.4129964 ], [ 14.4795682, 46.4134293 ], [ 14.4765405, 46.4198107 ], [ 14.4426317, 46.4231845 ], [ 14.4418303, 46.4285811 ], [ 14.4301641, 46.4365916 ], [ 14.4385496, 46.4407482 ], [ 14.4352892, 46.4429657 ], [ 14.4297364, 46.4470672 ], [ 14.3982717, 46.4446289 ], [ 14.3819402, 46.4392379 ], [ 14.3568077, 46.4389881 ], [ 14.3437628, 46.4372238 ], [ 14.3325792, 46.4319149 ], [ 14.3104582, 46.4303064 ], [ 14.3017638, 46.4382249 ], [ 14.2831958, 46.4435256 ], [ 14.2384096, 46.4329306 ], [ 14.2278833, 46.4352892 ], [ 14.2190977, 46.4431928 ], [ 14.2073885, 46.4393065 ], [ 14.1908832, 46.4439739 ], [ 14.1758818, 46.4340367 ], [ 14.1544544, 46.435919 ], [ 14.1517315, 46.4409313 ], [ 14.1358405, 46.4505614 ], [ 14.1351696, 46.4589864 ], [ 14.1216379, 46.4766223 ], [ 14.1113834, 46.4789232 ], [ 14.1023837, 46.4788308 ], [ 14.0912678, 46.4857867 ], [ 14.0402913, 46.4927241 ], [ 14.0212777, 46.4815946 ], [ 14.0066204, 46.4810516 ], [ 13.9760352, 46.4981391 ], [ 13.9701306, 46.4967059 ], [ 13.943161, 46.5114705 ], [ 13.9280206, 46.5138977 ], [ 13.9201843, 46.5195153 ], [ 13.8967386, 46.5193539 ], [ 13.8821272, 46.5229959 ], [ 13.8791569, 46.5191867 ], [ 13.8570196, 46.514099 ], [ 13.8315863, 46.518674 ], [ 13.8147284, 46.5073571 ], [ 13.7987101, 46.5066851 ], [ 13.7943493, 46.5055693 ], [ 13.7799173, 46.5124182 ], [ 13.7763493, 46.5175505 ], [ 13.7652643, 46.514795 ], [ 13.7544731, 46.5179924 ], [ 13.7400522, 46.5168658 ], [ 13.7260246, 46.5233194 ] ] ] ] } }
]
}